Analysis & Synthesis report for second_midterm_quartus
Wed Nov 18 18:04:02 2015
Quartus II 64-Bit Version 13.0.1 Build 232 06/12/2013 Service Pack 1 SJ Full Version


---------------------
; Table of Contents ;
---------------------
  1. Legal Notice
  2. Analysis & Synthesis Summary
  3. Analysis & Synthesis Settings
  4. Parallel Compilation
  5. Analysis & Synthesis Source Files Read
  6. Analysis & Synthesis Resource Usage Summary
  7. Analysis & Synthesis Resource Utilization by Entity
  8. Analysis & Synthesis RAM Summary
  9. Analysis & Synthesis IP Cores Summary
 10. General Register Statistics
 11. Multiplexer Restructuring Statistics (Restructuring Performed)
 12. Source assignments for program_memory:prog_memory|rom:rom_1|altsyncram:altsyncram_component|altsyncram_lnb1:auto_generated
 13. Parameter Settings for User Entity Instance: program_memory:prog_memory|rom:rom_1|altsyncram:altsyncram_component
 14. altsyncram Parameter Settings by Entity Instance
 15. Elapsed Time Per Partition
 16. Analysis & Synthesis Messages
 17. Analysis & Synthesis Suppressed Messages



----------------
; Legal Notice ;
----------------
Copyright (C) 1991-2013 Altera Corporation
Your use of Altera Corporation's design tools, logic functions 
and other software and tools, and its AMPP partner logic 
functions, and any output files from any of the foregoing 
(including device programming or simulation files), and any 
associated documentation or information are expressly subject 
to the terms and conditions of the Altera Program License 
Subscription Agreement, Altera MegaCore Function License 
Agreement, or other applicable license agreement, including, 
without limitation, that your use is for the sole purpose of 
programming logic devices manufactured by Altera and sold by 
Altera or its authorized distributors.  Please refer to the 
applicable agreement for further details.



+---------------------------------------------------------------------------------------+
; Analysis & Synthesis Summary                                                          ;
+------------------------------------+--------------------------------------------------+
; Analysis & Synthesis Status        ; Successful - Wed Nov 18 18:04:02 2015            ;
; Quartus II 64-Bit Version          ; 13.0.1 Build 232 06/12/2013 SP 1 SJ Full Version ;
; Revision Name                      ; second_midterm_quartus                           ;
; Top-level Entity Name              ; second_midterm_quartus                           ;
; Family                             ; Cyclone IV E                                     ;
; Total logic elements               ; 67                                               ;
;     Total combinational functions  ; 58                                               ;
;     Dedicated logic registers      ; 17                                               ;
; Total registers                    ; 17                                               ;
; Total pins                         ; 58                                               ;
; Total virtual pins                 ; 0                                                ;
; Total memory bits                  ; 2,048                                            ;
; Embedded Multiplier 9-bit elements ; 0                                                ;
; Total PLLs                         ; 0                                                ;
+------------------------------------+--------------------------------------------------+


+------------------------------------------------------------------------------------------------------------------------------+
; Analysis & Synthesis Settings                                                                                                ;
+----------------------------------------------------------------------------+------------------------+------------------------+
; Option                                                                     ; Setting                ; Default Value          ;
+----------------------------------------------------------------------------+------------------------+------------------------+
; Device                                                                     ; EP4CE115F29C7          ;                        ;
; Top-level entity name                                                      ; second_midterm_quartus ; second_midterm_quartus ;
; Family name                                                                ; Cyclone IV E           ; Cyclone IV GX          ;
; Use smart compilation                                                      ; Off                    ; Off                    ;
; Enable parallel Assembler and TimeQuest Timing Analyzer during compilation ; On                     ; On                     ;
; Enable compact report table                                                ; Off                    ; Off                    ;
; Restructure Multiplexers                                                   ; Auto                   ; Auto                   ;
; Create Debugging Nodes for IP Cores                                        ; Off                    ; Off                    ;
; Preserve fewer node names                                                  ; On                     ; On                     ;
; Disable OpenCore Plus hardware evaluation                                  ; Off                    ; Off                    ;
; Verilog Version                                                            ; Verilog_2001           ; Verilog_2001           ;
; VHDL Version                                                               ; VHDL_1993              ; VHDL_1993              ;
; State Machine Processing                                                   ; Auto                   ; Auto                   ;
; Safe State Machine                                                         ; Off                    ; Off                    ;
; Extract Verilog State Machines                                             ; On                     ; On                     ;
; Extract VHDL State Machines                                                ; On                     ; On                     ;
; Ignore Verilog initial constructs                                          ; Off                    ; Off                    ;
; Iteration limit for constant Verilog loops                                 ; 5000                   ; 5000                   ;
; Iteration limit for non-constant Verilog loops                             ; 250                    ; 250                    ;
; Add Pass-Through Logic to Inferred RAMs                                    ; On                     ; On                     ;
; Infer RAMs from Raw Logic                                                  ; On                     ; On                     ;
; Parallel Synthesis                                                         ; On                     ; On                     ;
; DSP Block Balancing                                                        ; Auto                   ; Auto                   ;
; NOT Gate Push-Back                                                         ; On                     ; On                     ;
; Power-Up Don't Care                                                        ; On                     ; On                     ;
; Remove Redundant Logic Cells                                               ; Off                    ; Off                    ;
; Remove Duplicate Registers                                                 ; On                     ; On                     ;
; Ignore CARRY Buffers                                                       ; Off                    ; Off                    ;
; Ignore CASCADE Buffers                                                     ; Off                    ; Off                    ;
; Ignore GLOBAL Buffers                                                      ; Off                    ; Off                    ;
; Ignore ROW GLOBAL Buffers                                                  ; Off                    ; Off                    ;
; Ignore LCELL Buffers                                                       ; Off                    ; Off                    ;
; Ignore SOFT Buffers                                                        ; On                     ; On                     ;
; Limit AHDL Integers to 32 Bits                                             ; Off                    ; Off                    ;
; Optimization Technique                                                     ; Balanced               ; Balanced               ;
; Carry Chain Length                                                         ; 70                     ; 70                     ;
; Auto Carry Chains                                                          ; On                     ; On                     ;
; Auto Open-Drain Pins                                                       ; On                     ; On                     ;
; Perform WYSIWYG Primitive Resynthesis                                      ; Off                    ; Off                    ;
; Auto ROM Replacement                                                       ; On                     ; On                     ;
; Auto RAM Replacement                                                       ; On                     ; On                     ;
; Auto DSP Block Replacement                                                 ; On                     ; On                     ;
; Auto Shift Register Replacement                                            ; Auto                   ; Auto                   ;
; Allow Shift Register Merging across Hierarchies                            ; Auto                   ; Auto                   ;
; Auto Clock Enable Replacement                                              ; On                     ; On                     ;
; Strict RAM Replacement                                                     ; Off                    ; Off                    ;
; Allow Synchronous Control Signals                                          ; On                     ; On                     ;
; Force Use of Synchronous Clear Signals                                     ; Off                    ; Off                    ;
; Auto RAM Block Balancing                                                   ; On                     ; On                     ;
; Auto RAM to Logic Cell Conversion                                          ; Off                    ; Off                    ;
; Auto Resource Sharing                                                      ; Off                    ; Off                    ;
; Allow Any RAM Size For Recognition                                         ; Off                    ; Off                    ;
; Allow Any ROM Size For Recognition                                         ; Off                    ; Off                    ;
; Allow Any Shift Register Size For Recognition                              ; Off                    ; Off                    ;
; Use LogicLock Constraints during Resource Balancing                        ; On                     ; On                     ;
; Ignore translate_off and synthesis_off directives                          ; Off                    ; Off                    ;
; Timing-Driven Synthesis                                                    ; On                     ; On                     ;
; Report Parameter Settings                                                  ; On                     ; On                     ;
; Report Source Assignments                                                  ; On                     ; On                     ;
; Report Connectivity Checks                                                 ; On                     ; On                     ;
; Ignore Maximum Fan-Out Assignments                                         ; Off                    ; Off                    ;
; Synchronization Register Chain Length                                      ; 2                      ; 2                      ;
; PowerPlay Power Optimization                                               ; Normal compilation     ; Normal compilation     ;
; HDL message level                                                          ; Level2                 ; Level2                 ;
; Suppress Register Optimization Related Messages                            ; Off                    ; Off                    ;
; Number of Removed Registers Reported in Synthesis Report                   ; 5000                   ; 5000                   ;
; Number of Swept Nodes Reported in Synthesis Report                         ; 5000                   ; 5000                   ;
; Number of Inverted Registers Reported in Synthesis Report                  ; 100                    ; 100                    ;
; Clock MUX Protection                                                       ; On                     ; On                     ;
; Auto Gated Clock Conversion                                                ; Off                    ; Off                    ;
; Block Design Naming                                                        ; Auto                   ; Auto                   ;
; SDC constraint protection                                                  ; Off                    ; Off                    ;
; Synthesis Effort                                                           ; Auto                   ; Auto                   ;
; Shift Register Replacement - Allow Asynchronous Clear Signal               ; On                     ; On                     ;
; Pre-Mapping Resynthesis Optimization                                       ; Off                    ; Off                    ;
; Analysis & Synthesis Message Level                                         ; Medium                 ; Medium                 ;
; Disable Register Merging Across Hierarchies                                ; Auto                   ; Auto                   ;
; Resource Aware Inference For Block RAM                                     ; On                     ; On                     ;
; Synthesis Seed                                                             ; 1                      ; 1                      ;
+----------------------------------------------------------------------------+------------------------+------------------------+


+------------------------------------------+
; Parallel Compilation                     ;
+----------------------------+-------------+
; Processors                 ; Number      ;
+----------------------------+-------------+
; Number detected on machine ; 4           ;
; Maximum allowed            ; 2           ;
;                            ;             ;
; Average used               ; 1.00        ;
; Maximum used               ; 1           ;
;                            ;             ;
; Usage by Processor         ; % Time Used ;
;     Processor 1            ; 100.0%      ;
;     Processors 2-4         ;   0.0%      ;
+----------------------------+-------------+


+------------------------------------------------------------------------------------------------------------------------------------------------------------------------------------+
; Analysis & Synthesis Source Files Read                                                                                                                                             ;
+----------------------------------+-----------------+----------------------------------------+----------------------------------------------------------------------------+---------+
; File Name with User-Entered Path ; Used in Netlist ; File Type                              ; File Name with Absolute Path                                               ; Library ;
+----------------------------------+-----------------+----------------------------------------+----------------------------------------------------------------------------+---------+
; instruction_decoder.v            ; yes             ; User Verilog HDL File                  ; H:/School/Midterm II/Q1/second_midterm_quartus/instruction_decoder.v       ;         ;
; program_memory.v                 ; yes             ; User Verilog HDL File                  ; H:/School/Midterm II/Q1/second_midterm_quartus/program_memory.v            ;         ;
; rom.v                            ; yes             ; User Wizard-Generated File             ; H:/School/Midterm II/Q1/second_midterm_quartus/rom.v                       ;         ;
; program_sequencer.v              ; yes             ; User Verilog HDL File                  ; H:/School/Midterm II/Q1/second_midterm_quartus/program_sequencer.v         ;         ;
; second_midterm_quartus.v         ; yes             ; User Verilog HDL File                  ; H:/School/Midterm II/Q1/second_midterm_quartus/second_midterm_quartus.v    ;         ;
; altsyncram.tdf                   ; yes             ; Megafunction                           ; c:/altera/13.0sp1/quartus/libraries/megafunctions/altsyncram.tdf           ;         ;
; stratix_ram_block.inc            ; yes             ; Megafunction                           ; c:/altera/13.0sp1/quartus/libraries/megafunctions/stratix_ram_block.inc    ;         ;
; lpm_mux.inc                      ; yes             ; Megafunction                           ; c:/altera/13.0sp1/quartus/libraries/megafunctions/lpm_mux.inc              ;         ;
; lpm_decode.inc                   ; yes             ; Megafunction                           ; c:/altera/13.0sp1/quartus/libraries/megafunctions/lpm_decode.inc           ;         ;
; aglobal130.inc                   ; yes             ; Megafunction                           ; c:/altera/13.0sp1/quartus/libraries/megafunctions/aglobal130.inc           ;         ;
; a_rdenreg.inc                    ; yes             ; Megafunction                           ; c:/altera/13.0sp1/quartus/libraries/megafunctions/a_rdenreg.inc            ;         ;
; altrom.inc                       ; yes             ; Megafunction                           ; c:/altera/13.0sp1/quartus/libraries/megafunctions/altrom.inc               ;         ;
; altram.inc                       ; yes             ; Megafunction                           ; c:/altera/13.0sp1/quartus/libraries/megafunctions/altram.inc               ;         ;
; altdpram.inc                     ; yes             ; Megafunction                           ; c:/altera/13.0sp1/quartus/libraries/megafunctions/altdpram.inc             ;         ;
; db/altsyncram_lnb1.tdf           ; yes             ; Auto-Generated Megafunction            ; H:/School/Midterm II/Q1/second_midterm_quartus/db/altsyncram_lnb1.tdf      ;         ;
; program_memory_preamble.hex      ; yes             ; Auto-Found Memory Initialization File  ; H:/School/Midterm II/Q1/second_midterm_quartus/program_memory_preamble.hex ;         ;
+----------------------------------+-----------------+----------------------------------------+----------------------------------------------------------------------------+---------+


+---------------------------------------------------------+
; Analysis & Synthesis Resource Usage Summary             ;
+---------------------------------------------+-----------+
; Resource                                    ; Usage     ;
+---------------------------------------------+-----------+
; Estimated Total logic elements              ; 67        ;
;                                             ;           ;
; Total combinational functions               ; 58        ;
; Logic element usage by number of LUT inputs ;           ;
;     -- 4 input functions                    ; 39        ;
;     -- 3 input functions                    ; 7         ;
;     -- <=2 input functions                  ; 12        ;
;                                             ;           ;
; Logic elements by mode                      ;           ;
;     -- normal mode                          ; 51        ;
;     -- arithmetic mode                      ; 7         ;
;                                             ;           ;
; Total registers                             ; 17        ;
;     -- Dedicated logic registers            ; 17        ;
;     -- I/O registers                        ; 0         ;
;                                             ;           ;
; I/O pins                                    ; 58        ;
; Total memory bits                           ; 2048      ;
; Embedded Multiplier 9-bit elements          ; 0         ;
; Maximum fan-out node                        ; clk~input ;
; Maximum fan-out                             ; 25        ;
; Total fan-out                               ; 419       ;
; Average fan-out                             ; 2.11      ;
+---------------------------------------------+-----------+


+-------------------------------------------------------------------------------------------------------------------------------------------------------------------------------------------------------------------------------------------------------------------------------------------------------+
; Analysis & Synthesis Resource Utilization by Entity                                                                                                                                                                                                                                                   ;
+----------------------------------------------+-------------------+--------------+-------------+--------------+---------+-----------+------+--------------+-----------------------------------------------------------------------------------------------------------------------------+--------------+
; Compilation Hierarchy Node                   ; LC Combinationals ; LC Registers ; Memory Bits ; DSP Elements ; DSP 9x9 ; DSP 18x18 ; Pins ; Virtual Pins ; Full Hierarchy Name                                                                                                         ; Library Name ;
+----------------------------------------------+-------------------+--------------+-------------+--------------+---------+-----------+------+--------------+-----------------------------------------------------------------------------------------------------------------------------+--------------+
; |second_midterm_quartus                      ; 58 (0)            ; 17 (1)       ; 2048        ; 0            ; 0       ; 0         ; 58   ; 0            ; |second_midterm_quartus                                                                                                     ; work         ;
;    |instruction_decoder:inst_decoder|        ; 36 (36)           ; 8 (8)        ; 0           ; 0            ; 0       ; 0         ; 0    ; 0            ; |second_midterm_quartus|instruction_decoder:inst_decoder                                                                    ; work         ;
;    |program_memory:prog_memory|              ; 0 (0)             ; 0 (0)        ; 2048        ; 0            ; 0       ; 0         ; 0    ; 0            ; |second_midterm_quartus|program_memory:prog_memory                                                                          ; work         ;
;       |rom:rom_1|                            ; 0 (0)             ; 0 (0)        ; 2048        ; 0            ; 0       ; 0         ; 0    ; 0            ; |second_midterm_quartus|program_memory:prog_memory|rom:rom_1                                                                ; work         ;
;          |altsyncram:altsyncram_component|   ; 0 (0)             ; 0 (0)        ; 2048        ; 0            ; 0       ; 0         ; 0    ; 0            ; |second_midterm_quartus|program_memory:prog_memory|rom:rom_1|altsyncram:altsyncram_component                                ; work         ;
;             |altsyncram_lnb1:auto_generated| ; 0 (0)             ; 0 (0)        ; 2048        ; 0            ; 0       ; 0         ; 0    ; 0            ; |second_midterm_quartus|program_memory:prog_memory|rom:rom_1|altsyncram:altsyncram_component|altsyncram_lnb1:auto_generated ; work         ;
;    |program_sequencer:prog_sequencer|        ; 22 (22)           ; 8 (8)        ; 0           ; 0            ; 0       ; 0         ; 0    ; 0            ; |second_midterm_quartus|program_sequencer:prog_sequencer                                                                    ; work         ;
+----------------------------------------------+-------------------+--------------+-------------+--------------+---------+-----------+------+--------------+-----------------------------------------------------------------------------------------------------------------------------+--------------+
Note: For table entries with two numbers listed, the numbers in parentheses indicate the number of resources of the given type used by the specific entity alone. The numbers listed outside of parentheses indicate the total resources of the given type used by the specific entity and all of its sub-entities in the hierarchy.


+-------------------------------------------------------------------------------------------------------------------------------------------------------------------------------------------------------------------------------+
; Analysis & Synthesis RAM Summary                                                                                                                                                                                              ;
+----------------------------------------------------------------------------------------------------------------+------+------+--------------+--------------+--------------+--------------+------+-----------------------------+
; Name                                                                                                           ; Type ; Mode ; Port A Depth ; Port A Width ; Port B Depth ; Port B Width ; Size ; MIF                         ;
+----------------------------------------------------------------------------------------------------------------+------+------+--------------+--------------+--------------+--------------+------+-----------------------------+
; program_memory:prog_memory|rom:rom_1|altsyncram:altsyncram_component|altsyncram_lnb1:auto_generated|ALTSYNCRAM ; AUTO ; ROM  ; 256          ; 8            ; --           ; --           ; 2048 ; program_memory_preamble.hex ;
+----------------------------------------------------------------------------------------------------------------+------+------+--------------+--------------+--------------+--------------+------+-----------------------------+


+-------------------------------------------------------------------------------------------------------------------------------------------------------------------------------------+
; Analysis & Synthesis IP Cores Summary                                                                                                                                               ;
+--------+--------------+---------+--------------+--------------+--------------------------------------------------------------+------------------------------------------------------+
; Vendor ; IP Core Name ; Version ; Release Date ; License Type ; Entity Instance                                              ; IP Include File                                      ;
+--------+--------------+---------+--------------+--------------+--------------------------------------------------------------+------------------------------------------------------+
; Altera ; ROM: 1-PORT  ; 13.0    ; N/A          ; N/A          ; |second_midterm_quartus|program_memory:prog_memory|rom:rom_1 ; H:/School/Midterm II/Q1/second_midterm_quartus/rom.v ;
+--------+--------------+---------+--------------+--------------+--------------------------------------------------------------+------------------------------------------------------+


+------------------------------------------------------+
; General Register Statistics                          ;
+----------------------------------------------+-------+
; Statistic                                    ; Value ;
+----------------------------------------------+-------+
; Total registers                              ; 17    ;
; Number of registers using Synchronous Clear  ; 0     ;
; Number of registers using Synchronous Load   ; 0     ;
; Number of registers using Asynchronous Clear ; 0     ;
; Number of registers using Asynchronous Load  ; 0     ;
; Number of registers using Clock Enable       ; 0     ;
; Number of registers using Preset             ; 0     ;
+----------------------------------------------+-------+


+-----------------------------------------------------------------------------------------------------------------------------------------------------------------------------------+
; Multiplexer Restructuring Statistics (Restructuring Performed)                                                                                                                    ;
+--------------------+-----------+---------------+----------------------+------------------------+------------+---------------------------------------------------------------------+
; Multiplexer Inputs ; Bus Width ; Baseline Area ; Area if Restructured ; Saving if Restructured ; Registered ; Example Multiplexer Output                                          ;
+--------------------+-----------+---------------+----------------------+------------------------+------------+---------------------------------------------------------------------+
; 4:1                ; 4 bits    ; 8 LEs         ; 8 LEs                ; 0 LEs                  ; No         ; |second_midterm_quartus|program_sequencer:prog_sequencer|pm_addr[0] ;
; 4:1                ; 4 bits    ; 8 LEs         ; 8 LEs                ; 0 LEs                  ; No         ; |second_midterm_quartus|program_sequencer:prog_sequencer|pm_addr[4] ;
+--------------------+-----------+---------------+----------------------+------------------------+------------+---------------------------------------------------------------------+


+----------------------------------------------------------------------------------------------------------------------------+
; Source assignments for program_memory:prog_memory|rom:rom_1|altsyncram:altsyncram_component|altsyncram_lnb1:auto_generated ;
+---------------------------------+--------------------+------+--------------------------------------------------------------+
; Assignment                      ; Value              ; From ; To                                                           ;
+---------------------------------+--------------------+------+--------------------------------------------------------------+
; OPTIMIZE_POWER_DURING_SYNTHESIS ; NORMAL_COMPILATION ; -    ; -                                                            ;
+---------------------------------+--------------------+------+--------------------------------------------------------------+


+-------------------------------------------------------------------------------------------------------------------+
; Parameter Settings for User Entity Instance: program_memory:prog_memory|rom:rom_1|altsyncram:altsyncram_component ;
+------------------------------------+-----------------------------+------------------------------------------------+
; Parameter Name                     ; Value                       ; Type                                           ;
+------------------------------------+-----------------------------+------------------------------------------------+
; BYTE_SIZE_BLOCK                    ; 8                           ; Untyped                                        ;
; AUTO_CARRY_CHAINS                  ; ON                          ; AUTO_CARRY                                     ;
; IGNORE_CARRY_BUFFERS               ; OFF                         ; IGNORE_CARRY                                   ;
; AUTO_CASCADE_CHAINS                ; ON                          ; AUTO_CASCADE                                   ;
; IGNORE_CASCADE_BUFFERS             ; OFF                         ; IGNORE_CASCADE                                 ;
; WIDTH_BYTEENA                      ; 1                           ; Untyped                                        ;
; OPERATION_MODE                     ; ROM                         ; Untyped                                        ;
; WIDTH_A                            ; 8                           ; Signed Integer                                 ;
; WIDTHAD_A                          ; 8                           ; Signed Integer                                 ;
; NUMWORDS_A                         ; 256                         ; Signed Integer                                 ;
; OUTDATA_REG_A                      ; UNREGISTERED                ; Untyped                                        ;
; ADDRESS_ACLR_A                     ; NONE                        ; Untyped                                        ;
; OUTDATA_ACLR_A                     ; NONE                        ; Untyped                                        ;
; WRCONTROL_ACLR_A                   ; NONE                        ; Untyped                                        ;
; INDATA_ACLR_A                      ; NONE                        ; Untyped                                        ;
; BYTEENA_ACLR_A                     ; NONE                        ; Untyped                                        ;
; WIDTH_B                            ; 1                           ; Untyped                                        ;
; WIDTHAD_B                          ; 1                           ; Untyped                                        ;
; NUMWORDS_B                         ; 1                           ; Untyped                                        ;
; INDATA_REG_B                       ; CLOCK1                      ; Untyped                                        ;
; WRCONTROL_WRADDRESS_REG_B          ; CLOCK1                      ; Untyped                                        ;
; RDCONTROL_REG_B                    ; CLOCK1                      ; Untyped                                        ;
; ADDRESS_REG_B                      ; CLOCK1                      ; Untyped                                        ;
; OUTDATA_REG_B                      ; UNREGISTERED                ; Untyped                                        ;
; BYTEENA_REG_B                      ; CLOCK1                      ; Untyped                                        ;
; INDATA_ACLR_B                      ; NONE                        ; Untyped                                        ;
; WRCONTROL_ACLR_B                   ; NONE                        ; Untyped                                        ;
; ADDRESS_ACLR_B                     ; NONE                        ; Untyped                                        ;
; OUTDATA_ACLR_B                     ; NONE                        ; Untyped                                        ;
; RDCONTROL_ACLR_B                   ; NONE                        ; Untyped                                        ;
; BYTEENA_ACLR_B                     ; NONE                        ; Untyped                                        ;
; WIDTH_BYTEENA_A                    ; 1                           ; Signed Integer                                 ;
; WIDTH_BYTEENA_B                    ; 1                           ; Untyped                                        ;
; RAM_BLOCK_TYPE                     ; AUTO                        ; Untyped                                        ;
; BYTE_SIZE                          ; 8                           ; Untyped                                        ;
; READ_DURING_WRITE_MODE_MIXED_PORTS ; DONT_CARE                   ; Untyped                                        ;
; READ_DURING_WRITE_MODE_PORT_A      ; NEW_DATA_NO_NBE_READ        ; Untyped                                        ;
; READ_DURING_WRITE_MODE_PORT_B      ; NEW_DATA_NO_NBE_READ        ; Untyped                                        ;
; INIT_FILE                          ; program_memory_preamble.hex ; Untyped                                        ;
; INIT_FILE_LAYOUT                   ; PORT_A                      ; Untyped                                        ;
; MAXIMUM_DEPTH                      ; 0                           ; Untyped                                        ;
; CLOCK_ENABLE_INPUT_A               ; BYPASS                      ; Untyped                                        ;
; CLOCK_ENABLE_INPUT_B               ; NORMAL                      ; Untyped                                        ;
; CLOCK_ENABLE_OUTPUT_A              ; BYPASS                      ; Untyped                                        ;
; CLOCK_ENABLE_OUTPUT_B              ; NORMAL                      ; Untyped                                        ;
; CLOCK_ENABLE_CORE_A                ; USE_INPUT_CLKEN             ; Untyped                                        ;
; CLOCK_ENABLE_CORE_B                ; USE_INPUT_CLKEN             ; Untyped                                        ;
; ENABLE_ECC                         ; FALSE                       ; Untyped                                        ;
; ECC_PIPELINE_STAGE_ENABLED         ; FALSE                       ; Untyped                                        ;
; WIDTH_ECCSTATUS                    ; 3                           ; Untyped                                        ;
; DEVICE_FAMILY                      ; Cyclone IV E                ; Untyped                                        ;
; CBXI_PARAMETER                     ; altsyncram_lnb1             ; Untyped                                        ;
+------------------------------------+-----------------------------+------------------------------------------------+
Note: In order to hide this table in the UI and the text report file, please set the "Show Parameter Settings in Synthesis Report" option in "Analysis and Synthesis Settings -> More Settings" to "Off".


+------------------------------------------------------------------------------------------------------------------+
; altsyncram Parameter Settings by Entity Instance                                                                 ;
+-------------------------------------------+----------------------------------------------------------------------+
; Name                                      ; Value                                                                ;
+-------------------------------------------+----------------------------------------------------------------------+
; Number of entity instances                ; 1                                                                    ;
; Entity Instance                           ; program_memory:prog_memory|rom:rom_1|altsyncram:altsyncram_component ;
;     -- OPERATION_MODE                     ; ROM                                                                  ;
;     -- WIDTH_A                            ; 8                                                                    ;
;     -- NUMWORDS_A                         ; 256                                                                  ;
;     -- OUTDATA_REG_A                      ; UNREGISTERED                                                         ;
;     -- WIDTH_B                            ; 1                                                                    ;
;     -- NUMWORDS_B                         ; 1                                                                    ;
;     -- ADDRESS_REG_B                      ; CLOCK1                                                               ;
;     -- OUTDATA_REG_B                      ; UNREGISTERED                                                         ;
;     -- RAM_BLOCK_TYPE                     ; AUTO                                                                 ;
;     -- READ_DURING_WRITE_MODE_MIXED_PORTS ; DONT_CARE                                                            ;
+-------------------------------------------+----------------------------------------------------------------------+


+-------------------------------+
; Elapsed Time Per Partition    ;
+----------------+--------------+
; Partition Name ; Elapsed Time ;
+----------------+--------------+
; Top            ; 00:00:00     ;
+----------------+--------------+


+-------------------------------+
; Analysis & Synthesis Messages ;
+-------------------------------+
Info: *******************************************************************
Info: Running Quartus II 64-Bit Analysis & Synthesis
    Info: Version 13.0.1 Build 232 06/12/2013 Service Pack 1 SJ Full Version
    Info: Processing started: Wed Nov 18 18:03:53 2015
Info: Command: quartus_map --read_settings_files=on --write_settings_files=off second_midterm_quartus -c second_midterm_quartus
Info (11104): Parallel Compilation has detected 4 hyper-threaded processors. However, the extra hyper-threaded processors will not be used by default. Parallel Compilation will use 2 of the 2 physical processors detected instead.
Info (12021): Found 1 design units, including 1 entities, in source file instruction_decoder.v
    Info (12023): Found entity 1: instruction_decoder
Info (12021): Found 1 design units, including 1 entities, in source file program_memory.v
    Info (12023): Found entity 1: program_memory
Info (12021): Found 1 design units, including 1 entities, in source file rom.v
    Info (12023): Found entity 1: rom
Info (12021): Found 1 design units, including 1 entities, in source file program_sequencer.v
    Info (12023): Found entity 1: program_sequencer
Info (12021): Found 1 design units, including 1 entities, in source file second_midterm_quartus.v
    Info (12023): Found entity 1: second_midterm_quartus
Info (12127): Elaborating entity "second_midterm_quartus" for the top level hierarchy
Info (12128): Elaborating entity "program_memory" for hierarchy "program_memory:prog_memory"
Info (12128): Elaborating entity "rom" for hierarchy "program_memory:prog_memory|rom:rom_1"
Info (12128): Elaborating entity "altsyncram" for hierarchy "program_memory:prog_memory|rom:rom_1|altsyncram:altsyncram_component"
Info (12130): Elaborated megafunction instantiation "program_memory:prog_memory|rom:rom_1|altsyncram:altsyncram_component"
Info (12133): Instantiated megafunction "program_memory:prog_memory|rom:rom_1|altsyncram:altsyncram_component" with the following parameter:
    Info (12134): Parameter "address_aclr_a" = "NONE"
    Info (12134): Parameter "clock_enable_input_a" = "BYPASS"
    Info (12134): Parameter "clock_enable_output_a" = "BYPASS"
    Info (12134): Parameter "init_file" = "program_memory_preamble.hex"
    Info (12134): Parameter "intended_device_family" = "Cyclone IV E"
    Info (12134): Parameter "lpm_hint" = "ENABLE_RUNTIME_MOD=NO"
    Info (12134): Parameter "lpm_type" = "altsyncram"
    Info (12134): Parameter "numwords_a" = "256"
    Info (12134): Parameter "operation_mode" = "ROM"
    Info (12134): Parameter "outdata_aclr_a" = "NONE"
    Info (12134): Parameter "outdata_reg_a" = "UNREGISTERED"
    Info (12134): Parameter "widthad_a" = "8"
    Info (12134): Parameter "width_a" = "8"
    Info (12134): Parameter "width_byteena_a" = "1"
Info (12021): Found 1 design units, including 1 entities, in source file db/altsyncram_lnb1.tdf
    Info (12023): Found entity 1: altsyncram_lnb1
Info (12128): Elaborating entity "altsyncram_lnb1" for hierarchy "program_memory:prog_memory|rom:rom_1|altsyncram:altsyncram_component|altsyncram_lnb1:auto_generated"
Info (12128): Elaborating entity "program_sequencer" for hierarchy "program_sequencer:prog_sequencer"
Info (12128): Elaborating entity "instruction_decoder" for hierarchy "instruction_decoder:inst_decoder"
Info (286030): Timing-Driven Synthesis is running
Info (144001): Generated suppressed messages file H:/School/Midterm II/Q1/second_midterm_quartus/output_files/second_midterm_quartus.map.smsg
Info (16010): Generating hard_block partition "hard_block:auto_generated_inst"
    Info (16011): Adding 0 node(s), including 0 DDIO, 0 PLL, 0 transceiver and 0 LCELL
Info (21057): Implemented 141 device resources after synthesis - the final resource count might be different
    Info (21058): Implemented 3 input pins
    Info (21059): Implemented 55 output pins
    Info (21061): Implemented 75 logic cells
    Info (21064): Implemented 8 RAM segments
Info: Quartus II 64-Bit Analysis & Synthesis was successful. 0 errors, 0 warnings
    Info: Peak virtual memory: 452 megabytes
    Info: Processing ended: Wed Nov 18 18:04:02 2015
    Info: Elapsed time: 00:00:09
    Info: Total CPU time (on all processors): 00:00:02


+------------------------------------------+
; Analysis & Synthesis Suppressed Messages ;
+------------------------------------------+
The suppressed messages can be found in H:/School/Midterm II/Q1/second_midterm_quartus/output_files/second_midterm_quartus.map.smsg.


