%!PS-Adobe-3.0 EPSF-3.0
%%Creator: (MATLAB, The Mathworks, Inc. Version 9.0.0.341360 \(R2016a\). Operating System: Windows 8)
%%Title: ./mag_response_with_practical_coefficients.eps
%%CreationDate: 2017-12-06T11:35:47
%%Pages: (atend)
%%BoundingBox:    14     2   387   295
%%LanguageLevel: 3
%%EndComments
%%BeginProlog
%%BeginResource: procset (Apache XML Graphics Std ProcSet) 1.2 0
%%Version: 1.2 0
%%Copyright: (Copyright 2001-2003,2010 The Apache Software Foundation. License terms: http://www.apache.org/licenses/LICENSE-2.0)
/bd{bind def}bind def
/ld{load def}bd
/GR/grestore ld
/M/moveto ld
/LJ/setlinejoin ld
/C/curveto ld
/f/fill ld
/LW/setlinewidth ld
/GC/setgray ld
/t/show ld
/N/newpath ld
/CT/concat ld
/cp/closepath ld
/S/stroke ld
/L/lineto ld
/CC/setcmykcolor ld
/A/ashow ld
/GS/gsave ld
/RC/setrgbcolor ld
/RM/rmoveto ld
/ML/setmiterlimit ld
/re {4 2 roll M
1 index 0 rlineto
0 exch rlineto
neg 0 rlineto
cp } bd
/_ctm matrix def
/_tm matrix def
/BT { _ctm currentmatrix pop matrix _tm copy pop 0 0 moveto } bd
/ET { _ctm setmatrix } bd
/iTm { _ctm setmatrix _tm concat } bd
/Tm { _tm astore pop iTm 0 0 moveto } bd
/ux 0.0 def
/uy 0.0 def
/F {
  /Tp exch def
  /Tf exch def
  Tf findfont Tp scalefont setfont
  /cf Tf def  /cs Tp def
} bd
/ULS {currentpoint /uy exch def /ux exch def} bd
/ULE {
  /Tcx currentpoint pop def
  gsave
  newpath
  cf findfont cs scalefont dup
  /FontMatrix get 0 get /Ts exch def /FontInfo get dup
  /UnderlinePosition get Ts mul /To exch def
  /UnderlineThickness get Ts mul /Tt exch def
  ux uy To add moveto  Tcx uy To add lineto
  Tt setlinewidth stroke
  grestore
} bd
/OLE {
  /Tcx currentpoint pop def
  gsave
  newpath
  cf findfont cs scalefont dup
  /FontMatrix get 0 get /Ts exch def /FontInfo get dup
  /UnderlinePosition get Ts mul /To exch def
  /UnderlineThickness get Ts mul /Tt exch def
  ux uy To add cs add moveto Tcx uy To add cs add lineto
  Tt setlinewidth stroke
  grestore
} bd
/SOE {
  /Tcx currentpoint pop def
  gsave
  newpath
  cf findfont cs scalefont dup
  /FontMatrix get 0 get /Ts exch def /FontInfo get dup
  /UnderlinePosition get Ts mul /To exch def
  /UnderlineThickness get Ts mul /Tt exch def
  ux uy To add cs 10 mul 26 idiv add moveto Tcx uy To add cs 10 mul 26 idiv add lineto
  Tt setlinewidth stroke
  grestore
} bd
/QT {
/Y22 exch store
/X22 exch store
/Y21 exch store
/X21 exch store
currentpoint
/Y21 load 2 mul add 3 div exch
/X21 load 2 mul add 3 div exch
/X21 load 2 mul /X22 load add 3 div
/Y21 load 2 mul /Y22 load add 3 div
/X22 load /Y22 load curveto
} bd
/SSPD {
dup length /d exch dict def
{
/v exch def
/k exch def
currentpagedevice k known {
/cpdv currentpagedevice k get def
v cpdv ne {
/upd false def
/nullv v type /nulltype eq def
/nullcpdv cpdv type /nulltype eq def
nullv nullcpdv or
{
/upd true def
} {
/sametype v type cpdv type eq def
sametype {
v type /arraytype eq {
/vlen v length def
/cpdvlen cpdv length def
vlen cpdvlen eq {
0 1 vlen 1 sub {
/i exch def
/obj v i get def
/cpdobj cpdv i get def
obj cpdobj ne {
/upd true def
exit
} if
} for
} {
/upd true def
} ifelse
} {
v type /dicttype eq {
v {
/dv exch def
/dk exch def
/cpddv cpdv dk get def
dv cpddv ne {
/upd true def
exit
} if
} forall
} {
/upd true def
} ifelse
} ifelse
} if
} ifelse
upd true eq {
d k v put
} if
} if
} if
} forall
d length 0 gt {
d setpagedevice
} if
} bd
%%EndResource
%%BeginResource: procset (Apache XML Graphics EPS ProcSet) 1.0 0
%%Version: 1.0 0
%%Copyright: (Copyright 2002-2003 The Apache Software Foundation. License terms: http://www.apache.org/licenses/LICENSE-2.0)
/BeginEPSF { %def
/b4_Inc_state save def         % Save state for cleanup
/dict_count countdictstack def % Count objects on dict stack
/op_count count 1 sub def      % Count objects on operand stack
userdict begin                 % Push userdict on dict stack
/showpage { } def              % Redefine showpage, { } = null proc
0 setgray 0 setlinecap         % Prepare graphics state
1 setlinewidth 0 setlinejoin
10 setmiterlimit [ ] 0 setdash newpath
/languagelevel where           % If level not equal to 1 then
{pop languagelevel             % set strokeadjust and
1 ne                           % overprint to their defaults.
{false setstrokeadjust false setoverprint
} if
} if
} bd
/EndEPSF { %def
count op_count sub {pop} repeat            % Clean up stacks
countdictstack dict_count sub {end} repeat
b4_Inc_state restore
} bd
%%EndResource
%FOPBeginFontDict
%%IncludeResource: font Courier-Bold
%%IncludeResource: font Helvetica
%%IncludeResource: font Courier-BoldOblique
%%IncludeResource: font Courier-Oblique
%%IncludeResource: font Times-Roman
%%IncludeResource: font Helvetica-BoldOblique
%%IncludeResource: font Helvetica-Bold
%%IncludeResource: font Helvetica-Oblique
%%IncludeResource: font Times-BoldItalic
%%IncludeResource: font Courier
%%IncludeResource: font Times-Italic
%%IncludeResource: font Times-Bold
%%IncludeResource: font Symbol
%%IncludeResource: font ZapfDingbats
%FOPEndFontDict
%%BeginResource: encoding WinAnsiEncoding
/WinAnsiEncoding [
/.notdef /.notdef /.notdef /.notdef /.notdef
/.notdef /.notdef /.notdef /.notdef /.notdef
/.notdef /.notdef /.notdef /.notdef /.notdef
/.notdef /.notdef /.notdef /.notdef /.notdef
/.notdef /.notdef /.notdef /.notdef /.notdef
/.notdef /.notdef /.notdef /.notdef /.notdef
/.notdef /.notdef /space /exclam /quotedbl
/numbersign /dollar /percent /ampersand /quotesingle
/parenleft /parenright /asterisk /plus /comma
/hyphen /period /slash /zero /one
/two /three /four /five /six
/seven /eight /nine /colon /semicolon
/less /equal /greater /question /at
/A /B /C /D /E
/F /G /H /I /J
/K /L /M /N /O
/P /Q /R /S /T
/U /V /W /X /Y
/Z /bracketleft /backslash /bracketright /asciicircum
/underscore /quoteleft /a /b /c
/d /e /f /g /h
/i /j /k /l /m
/n /o /p /q /r
/s /t /u /v /w
/x /y /z /braceleft /bar
/braceright /asciitilde /bullet /Euro /bullet
/quotesinglbase /florin /quotedblbase /ellipsis /dagger
/daggerdbl /circumflex /perthousand /Scaron /guilsinglleft
/OE /bullet /Zcaron /bullet /bullet
/quoteleft /quoteright /quotedblleft /quotedblright /bullet
/endash /emdash /asciitilde /trademark /scaron
/guilsinglright /oe /bullet /zcaron /Ydieresis
/space /exclamdown /cent /sterling /currency
/yen /brokenbar /section /dieresis /copyright
/ordfeminine /guillemotleft /logicalnot /sfthyphen /registered
/macron /degree /plusminus /twosuperior /threesuperior
/acute /mu /paragraph /middot /cedilla
/onesuperior /ordmasculine /guillemotright /onequarter /onehalf
/threequarters /questiondown /Agrave /Aacute /Acircumflex
/Atilde /Adieresis /Aring /AE /Ccedilla
/Egrave /Eacute /Ecircumflex /Edieresis /Igrave
/Iacute /Icircumflex /Idieresis /Eth /Ntilde
/Ograve /Oacute /Ocircumflex /Otilde /Odieresis
/multiply /Oslash /Ugrave /Uacute /Ucircumflex
/Udieresis /Yacute /Thorn /germandbls /agrave
/aacute /acircumflex /atilde /adieresis /aring
/ae /ccedilla /egrave /eacute /ecircumflex
/edieresis /igrave /iacute /icircumflex /idieresis
/eth /ntilde /ograve /oacute /ocircumflex
/otilde /odieresis /divide /oslash /ugrave
/uacute /ucircumflex /udieresis /yacute /thorn
/ydieresis
] def
%%EndResource
%FOPBeginFontReencode
/Courier-Bold findfont
dup length dict begin
  {1 index /FID ne {def} {pop pop} ifelse} forall
  /Encoding WinAnsiEncoding def
  currentdict
end
/Courier-Bold exch definefont pop
/Helvetica findfont
dup length dict begin
  {1 index /FID ne {def} {pop pop} ifelse} forall
  /Encoding WinAnsiEncoding def
  currentdict
end
/Helvetica exch definefont pop
/Courier-BoldOblique findfont
dup length dict begin
  {1 index /FID ne {def} {pop pop} ifelse} forall
  /Encoding WinAnsiEncoding def
  currentdict
end
/Courier-BoldOblique exch definefont pop
/Courier-Oblique findfont
dup length dict begin
  {1 index /FID ne {def} {pop pop} ifelse} forall
  /Encoding WinAnsiEncoding def
  currentdict
end
/Courier-Oblique exch definefont pop
/Times-Roman findfont
dup length dict begin
  {1 index /FID ne {def} {pop pop} ifelse} forall
  /Encoding WinAnsiEncoding def
  currentdict
end
/Times-Roman exch definefont pop
/Helvetica-BoldOblique findfont
dup length dict begin
  {1 index /FID ne {def} {pop pop} ifelse} forall
  /Encoding WinAnsiEncoding def
  currentdict
end
/Helvetica-BoldOblique exch definefont pop
/Helvetica-Bold findfont
dup length dict begin
  {1 index /FID ne {def} {pop pop} ifelse} forall
  /Encoding WinAnsiEncoding def
  currentdict
end
/Helvetica-Bold exch definefont pop
/Helvetica-Oblique findfont
dup length dict begin
  {1 index /FID ne {def} {pop pop} ifelse} forall
  /Encoding WinAnsiEncoding def
  currentdict
end
/Helvetica-Oblique exch definefont pop
/Times-BoldItalic findfont
dup length dict begin
  {1 index /FID ne {def} {pop pop} ifelse} forall
  /Encoding WinAnsiEncoding def
  currentdict
end
/Times-BoldItalic exch definefont pop
/Courier findfont
dup length dict begin
  {1 index /FID ne {def} {pop pop} ifelse} forall
  /Encoding WinAnsiEncoding def
  currentdict
end
/Courier exch definefont pop
/Times-Italic findfont
dup length dict begin
  {1 index /FID ne {def} {pop pop} ifelse} forall
  /Encoding WinAnsiEncoding def
  currentdict
end
/Times-Italic exch definefont pop
/Times-Bold findfont
dup length dict begin
  {1 index /FID ne {def} {pop pop} ifelse} forall
  /Encoding WinAnsiEncoding def
  currentdict
end
/Times-Bold exch definefont pop
%FOPEndFontReencode
%%EndProlog
%%Page: 1 1
%%PageBoundingBox: 0 0 420 315
%%BeginPageSetup
[1 0 0 -1 0 315] CT
%%EndPageSetup
GS
[0.6 0 0 0.6 0 0] CT
0.997 GC
N
0 0 700 525 re
f
GR
GS
[0.6 0 0 0.6 0 0] CT
0.997 GC
N
0 0 700 525 re
f
GR
GS
[0.6 0 0 0.6 0 0] CT
0.997 GC
N
91 467 M
634 467 L
634 39 L
91 39 L
cp
f
GR
GS
[0.6 0 0 0.6 0 0] CT
0.846 GC
1 LJ
0.833 LW
N
91 467 M
91 39 L
S
GR
GS
[0.6 0 0 0.6 0 0] CT
0.846 GC
1 LJ
0.833 LW
N
145.3 467 M
145.3 39 L
S
GR
GS
[0.6 0 0 0.6 0 0] CT
0.846 GC
1 LJ
0.833 LW
N
199.6 467 M
199.6 39 L
S
GR
GS
[0.6 0 0 0.6 0 0] CT
0.846 GC
1 LJ
0.833 LW
N
253.9 467 M
253.9 39 L
S
GR
GS
[0.6 0 0 0.6 0 0] CT
0.846 GC
1 LJ
0.833 LW
N
308.2 467 M
308.2 39 L
S
GR
GS
[0.6 0 0 0.6 0 0] CT
0.846 GC
1 LJ
0.833 LW
N
362.5 467 M
362.5 39 L
S
GR
GS
[0.6 0 0 0.6 0 0] CT
0.846 GC
1 LJ
0.833 LW
N
416.8 467 M
416.8 39 L
S
GR
GS
[0.6 0 0 0.6 0 0] CT
0.846 GC
1 LJ
0.833 LW
N
471.1 467 M
471.1 39 L
S
GR
GS
[0.6 0 0 0.6 0 0] CT
0.846 GC
1 LJ
0.833 LW
N
525.4 467 M
525.4 39 L
S
GR
GS
[0.6 0 0 0.6 0 0] CT
0.846 GC
1 LJ
0.833 LW
N
579.7 467 M
579.7 39 L
S
GR
GS
[0.6 0 0 0.6 0 0] CT
0.846 GC
1 LJ
0.833 LW
N
634 467 M
634 39 L
S
GR
GS
[0.6 0 0 0.6 0 0] CT
0.846 GC
1 LJ
0.833 LW
N
634 467 M
91 467 L
S
GR
GS
[0.6 0 0 0.6 0 0] CT
0.846 GC
1 LJ
0.833 LW
N
634 395.667 M
91 395.667 L
S
GR
GS
[0.6 0 0 0.6 0 0] CT
0.846 GC
1 LJ
0.833 LW
N
634 324.333 M
91 324.333 L
S
GR
GS
[0.6 0 0 0.6 0 0] CT
0.846 GC
1 LJ
0.833 LW
N
634 253 M
91 253 L
S
GR
GS
[0.6 0 0 0.6 0 0] CT
0.846 GC
1 LJ
0.833 LW
N
634 181.667 M
91 181.667 L
S
GR
GS
[0.6 0 0 0.6 0 0] CT
0.846 GC
1 LJ
0.833 LW
N
634 110.333 M
91 110.333 L
S
GR
GS
[0.6 0 0 0.6 0 0] CT
0.846 GC
1 LJ
0.833 LW
N
634 39 M
91 39 L
S
GR
GS
[0.6 0 0 0.6 0 0] CT
0 GC
2 setlinecap
1 LJ
0.833 LW
N
91 467 M
634 467 L
S
GR
GS
[0.6 0 0 0.6 0 0] CT
0 GC
2 setlinecap
1 LJ
0.833 LW
N
91 39 M
634 39 L
S
GR
GS
[0.6 0 0 0.6 0 0] CT
0 GC
2 setlinecap
1 LJ
0.833 LW
N
91 467 M
91 461.57 L
S
GR
GS
[0.6 0 0 0.6 0 0] CT
0 GC
2 setlinecap
1 LJ
0.833 LW
N
145.3 467 M
145.3 461.57 L
S
GR
GS
[0.6 0 0 0.6 0 0] CT
0 GC
2 setlinecap
1 LJ
0.833 LW
N
199.6 467 M
199.6 461.57 L
S
GR
GS
[0.6 0 0 0.6 0 0] CT
0 GC
2 setlinecap
1 LJ
0.833 LW
N
253.9 467 M
253.9 461.57 L
S
GR
GS
[0.6 0 0 0.6 0 0] CT
0 GC
2 setlinecap
1 LJ
0.833 LW
N
308.2 467 M
308.2 461.57 L
S
GR
GS
[0.6 0 0 0.6 0 0] CT
0 GC
2 setlinecap
1 LJ
0.833 LW
N
362.5 467 M
362.5 461.57 L
S
GR
GS
[0.6 0 0 0.6 0 0] CT
0 GC
2 setlinecap
1 LJ
0.833 LW
N
416.8 467 M
416.8 461.57 L
S
GR
GS
[0.6 0 0 0.6 0 0] CT
0 GC
2 setlinecap
1 LJ
0.833 LW
N
471.1 467 M
471.1 461.57 L
S
GR
GS
[0.6 0 0 0.6 0 0] CT
0 GC
2 setlinecap
1 LJ
0.833 LW
N
525.4 467 M
525.4 461.57 L
S
GR
GS
[0.6 0 0 0.6 0 0] CT
0 GC
2 setlinecap
1 LJ
0.833 LW
N
579.7 467 M
579.7 461.57 L
S
GR
GS
[0.6 0 0 0.6 0 0] CT
0 GC
2 setlinecap
1 LJ
0.833 LW
N
634 467 M
634 461.57 L
S
GR
GS
[0.6 0 0 0.6 0 0] CT
0 GC
2 setlinecap
1 LJ
0.833 LW
N
91 39 M
91 44.43 L
S
GR
GS
[0.6 0 0 0.6 0 0] CT
0 GC
2 setlinecap
1 LJ
0.833 LW
N
145.3 39 M
145.3 44.43 L
S
GR
GS
[0.6 0 0 0.6 0 0] CT
0 GC
2 setlinecap
1 LJ
0.833 LW
N
199.6 39 M
199.6 44.43 L
S
GR
GS
[0.6 0 0 0.6 0 0] CT
0 GC
2 setlinecap
1 LJ
0.833 LW
N
253.9 39 M
253.9 44.43 L
S
GR
GS
[0.6 0 0 0.6 0 0] CT
0 GC
2 setlinecap
1 LJ
0.833 LW
N
308.2 39 M
308.2 44.43 L
S
GR
GS
[0.6 0 0 0.6 0 0] CT
0 GC
2 setlinecap
1 LJ
0.833 LW
N
362.5 39 M
362.5 44.43 L
S
GR
GS
[0.6 0 0 0.6 0 0] CT
0 GC
2 setlinecap
1 LJ
0.833 LW
N
416.8 39 M
416.8 44.43 L
S
GR
GS
[0.6 0 0 0.6 0 0] CT
0 GC
2 setlinecap
1 LJ
0.833 LW
N
471.1 39 M
471.1 44.43 L
S
GR
GS
[0.6 0 0 0.6 0 0] CT
0 GC
2 setlinecap
1 LJ
0.833 LW
N
525.4 39 M
525.4 44.43 L
S
GR
GS
[0.6 0 0 0.6 0 0] CT
0 GC
2 setlinecap
1 LJ
0.833 LW
N
579.7 39 M
579.7 44.43 L
S
GR
GS
[0.6 0 0 0.6 0 0] CT
0 GC
2 setlinecap
1 LJ
0.833 LW
N
634 39 M
634 44.43 L
S
GR
GS
[0.6 0 0 0.6 54.6 284.19999] CT
0 GC
/Helvetica 16.667 F
GS
[1 0 0 1 0 0] CT
-5 18 moveto 
1 -1 scale
(0) t 
GR
GR
GS
[0.6 0 0 0.6 87.18 284.19999] CT
0 GC
/Helvetica 16.667 F
GS
[1 0 0 1 0 0] CT
-17 18 moveto 
1 -1 scale
(0.05) t 
GR
GR
GS
[0.6 0 0 0.6 119.76 284.19999] CT
0 GC
/Helvetica 16.667 F
GS
[1 0 0 1 0 0] CT
-12 18 moveto 
1 -1 scale
(0.1) t 
GR
GR
GS
[0.6 0 0 0.6 152.34001 284.19999] CT
0 GC
/Helvetica 16.667 F
GS
[1 0 0 1 0 0] CT
-17 18 moveto 
1 -1 scale
(0.15) t 
GR
GR
GS
[0.6 0 0 0.6 184.92001 284.19999] CT
0 GC
/Helvetica 16.667 F
GS
[1 0 0 1 0 0] CT
-12 18 moveto 
1 -1 scale
(0.2) t 
GR
GR
GS
[0.6 0 0 0.6 217.5 284.19999] CT
0 GC
/Helvetica 16.667 F
GS
[1 0 0 1 0 0] CT
-17 18 moveto 
1 -1 scale
(0.25) t 
GR
GR
GS
[0.6 0 0 0.6 250.08001 284.19999] CT
0 GC
/Helvetica 16.667 F
GS
[1 0 0 1 0 0] CT
-12 18 moveto 
1 -1 scale
(0.3) t 
GR
GR
GS
[0.6 0 0 0.6 282.66 284.19999] CT
0 GC
/Helvetica 16.667 F
GS
[1 0 0 1 0 0] CT
-17 18 moveto 
1 -1 scale
(0.35) t 
GR
GR
GS
[0.6 0 0 0.6 315.24001 284.19999] CT
0 GC
/Helvetica 16.667 F
GS
[1 0 0 1 0 0] CT
-12 18 moveto 
1 -1 scale
(0.4) t 
GR
GR
GS
[0.6 0 0 0.6 347.82001 284.19999] CT
0 GC
/Helvetica 16.667 F
GS
[1 0 0 1 0 0] CT
-17 18 moveto 
1 -1 scale
(0.45) t 
GR
GR
GS
[0.6 0 0 0.6 380.4 284.19999] CT
0 GC
/Helvetica 16.667 F
GS
[1 0 0 1 0 0] CT
-12 18 moveto 
1 -1 scale
(0.5) t 
GR
GR
GS
[0.6 0 0 0.6 217.50015 298.40001] CT
0 GC
/Helvetica 18.333 F
GS
[1 0 0 1 0 0] CT
-77 19 moveto 
1 -1 scale
(frequency in cycles) t 
GR
GR
GS
[0.6 0 0 0.6 0 0] CT
0 GC
2 setlinecap
1 LJ
0.833 LW
N
91 467 M
91 39 L
S
GR
GS
[0.6 0 0 0.6 0 0] CT
0 GC
2 setlinecap
1 LJ
0.833 LW
N
634 467 M
634 39 L
S
GR
GS
[0.6 0 0 0.6 0 0] CT
0 GC
2 setlinecap
1 LJ
0.833 LW
N
91 467 M
96.43 467 L
S
GR
GS
[0.6 0 0 0.6 0 0] CT
0 GC
2 setlinecap
1 LJ
0.833 LW
N
91 395.667 M
96.43 395.667 L
S
GR
GS
[0.6 0 0 0.6 0 0] CT
0 GC
2 setlinecap
1 LJ
0.833 LW
N
91 324.333 M
96.43 324.333 L
S
GR
GS
[0.6 0 0 0.6 0 0] CT
0 GC
2 setlinecap
1 LJ
0.833 LW
N
91 253 M
96.43 253 L
S
GR
GS
[0.6 0 0 0.6 0 0] CT
0 GC
2 setlinecap
1 LJ
0.833 LW
N
91 181.667 M
96.43 181.667 L
S
GR
GS
[0.6 0 0 0.6 0 0] CT
0 GC
2 setlinecap
1 LJ
0.833 LW
N
91 110.333 M
96.43 110.333 L
S
GR
GS
[0.6 0 0 0.6 0 0] CT
0 GC
2 setlinecap
1 LJ
0.833 LW
N
91 39 M
96.43 39 L
S
GR
GS
[0.6 0 0 0.6 0 0] CT
0 GC
2 setlinecap
1 LJ
0.833 LW
N
634 467 M
628.57 467 L
S
GR
GS
[0.6 0 0 0.6 0 0] CT
0 GC
2 setlinecap
1 LJ
0.833 LW
N
634 395.667 M
628.57 395.667 L
S
GR
GS
[0.6 0 0 0.6 0 0] CT
0 GC
2 setlinecap
1 LJ
0.833 LW
N
634 324.333 M
628.57 324.333 L
S
GR
GS
[0.6 0 0 0.6 0 0] CT
0 GC
2 setlinecap
1 LJ
0.833 LW
N
634 253 M
628.57 253 L
S
GR
GS
[0.6 0 0 0.6 0 0] CT
0 GC
2 setlinecap
1 LJ
0.833 LW
N
634 181.667 M
628.57 181.667 L
S
GR
GS
[0.6 0 0 0.6 0 0] CT
0 GC
2 setlinecap
1 LJ
0.833 LW
N
634 110.333 M
628.57 110.333 L
S
GR
GS
[0.6 0 0 0.6 0 0] CT
0 GC
2 setlinecap
1 LJ
0.833 LW
N
634 39 M
628.57 39 L
S
GR
GS
[0.6 0 0 0.6 50.6 280.2] CT
0 GC
/Helvetica 16.667 F
GS
[1 0 0 1 0 0] CT
-25 7 moveto 
1 -1 scale
(-50) t 
GR
GR
GS
[0.6 0 0 0.6 50.6 237.39999] CT
0 GC
/Helvetica 16.667 F
GS
[1 0 0 1 0 0] CT
-25 7 moveto 
1 -1 scale
(-40) t 
GR
GR
GS
[0.6 0 0 0.6 50.6 194.60001] CT
0 GC
/Helvetica 16.667 F
GS
[1 0 0 1 0 0] CT
-25 7 moveto 
1 -1 scale
(-30) t 
GR
GR
GS
[0.6 0 0 0.6 50.6 151.8] CT
0 GC
/Helvetica 16.667 F
GS
[1 0 0 1 0 0] CT
-25 7 moveto 
1 -1 scale
(-20) t 
GR
GR
GS
[0.6 0 0 0.6 50.6 109] CT
0 GC
/Helvetica 16.667 F
GS
[1 0 0 1 0 0] CT
-25 7 moveto 
1 -1 scale
(-10) t 
GR
GR
GS
[0.6 0 0 0.6 50.6 66.2] CT
0 GC
/Helvetica 16.667 F
GS
[1 0 0 1 0 0] CT
-10 7 moveto 
1 -1 scale
(0) t 
GR
GR
GS
[0.6 0 0 0.6 50.6 23.4] CT
0 GC
/Helvetica 16.667 F
GS
[1 0 0 1 0 0] CT
-19 7 moveto 
1 -1 scale
(10) t 
GR
GR
GS
[0 -0.6 0.6 0 25.2 210.6] CT
0 GC
/Helvetica 18.333 F
GS
[1 0 0 1 0 0] CT
0 0 moveto 
1 -1 scale
(20  log \( | H) t 
GR
GR
GS
[0 -0.6 0.6 0 30.6 154.8] CT
0 GC
/Helvetica 13.333 F
GS
[1 0 0 1 0 0] CT
0 0 moveto 
1 -1 scale
(final) t 
GR
GR
GS
[0 -0.6 0.6 0 25.2 140.4] CT
0 GC
/Helvetica 18.333 F
GS
[1 0 0 1 0 0] CT
0 0 moveto 
1 -1 scale
(\(e) t 
GR
GR
GS
[0 -0.6 0.6 0 19.8 130.2] CT
0 GC
/Helvetica 13.333 F
GS
[1 0 0 1 0 0] CT
0 0 moveto 
1 -1 scale
(j 2 pi f) t 
GR
GR
GS
[0 -0.6 0.6 0 25.2 109.2] CT
0 GC
/Helvetica 18.333 F
GS
[1 0 0 1 0 0] CT
0 0 moveto 
1 -1 scale
(\) | \)) t 
GR
GR
GS
[0.6 0 0 0.6 0 0] CT
0 GC
1 LJ
0.833 LW
N
250.723 38.957 M
250.913 39.254 L
251.457 40.108 L
251.999 40.97 L
252.543 41.84 L
253.085 42.72 L
253.628 43.607 L
254.172 44.504 L
254.714 45.41 L
255.258 46.324 L
255.8 47.248 L
256.344 48.182 L
256.887 49.125 L
257.43 50.078 L
257.973 51.04 L
258.516 52.013 L
259.059 52.997 L
259.602 53.991 L
260.145 54.995 L
260.688 56.011 L
261.23 57.038 L
261.773 58.076 L
262.316 59.126 L
262.859 60.187 L
263.402 61.261 L
263.945 62.347 L
264.488 63.446 L
265.031 64.557 L
265.574 65.682 L
266.117 66.819 L
266.66 67.971 L
267.203 69.136 L
267.747 70.316 L
268.289 71.51 L
268.832 72.718 L
269.375 73.942 L
269.918 75.181 L
270.462 76.436 L
271.004 77.707 L
271.548 78.994 L
272.09 80.298 L
272.634 81.619 L
273.177 82.957 L
273.719 84.313 L
274.263 85.686 L
274.806 87.078 L
275.349 88.489 L
275.892 89.918 L
276.435 91.367 L
276.978 92.835 L
277.521 94.322 L
278.064 95.83 L
278.607 97.358 L
279.15 98.906 L
279.693 100.474 L
280.236 102.063 L
280.779 103.672 L
281.322 105.302 L
281.865 106.951 L
282.408 108.621 L
282.951 110.31 L
283.493 112.018 L
284.036 113.744 L
284.579 115.487 L
285.122 117.246 L
285.665 119.02 L
286.208 120.806 L
286.751 122.604 L
287.294 124.409 L
287.837 126.22 L
288.38 128.032 L
288.923 129.843 L
289.466 131.646 L
290.009 133.438 L
290.552 135.212 L
291.095 136.961 L
291.639 138.678 L
292.181 140.354 L
292.724 141.982 L
293.267 143.55 L
293.81 145.049 L
294.354 146.469 L
294.896 147.797 L
295.44 149.025 L
295.983 150.14 L
296.526 151.133 L
297.069 151.995 L
297.611 152.719 L
298.155 153.3 L
298.698 153.732 L
299.241 154.014 L
299.784 154.147 L
300.327 154.134 L
300.87 153.979 L
301.413 153.688 L
301.956 153.27 L
302.499 152.733 L
303.042 152.089 L
303.585 151.348 L
304.128 150.521 L
304.671 149.618 L
305.214 148.65 L
305.757 147.627 L
306.299 146.559 L
306.842 145.454 L
307.385 144.32 L
307.928 143.165 L
308.471 141.994 L
309.014 140.814 L
309.557 139.628 L
310.1 138.443 L
310.643 137.261 L
311.186 136.086 L
311.729 134.921 L
312.272 133.767 L
312.815 132.627 L
313.358 131.503 L
313.901 130.396 L
314.444 129.306 L
314.987 128.235 L
315.531 127.184 L
316.073 126.153 L
316.616 125.142 L
317.16 124.151 L
317.702 123.182 L
318.246 122.233 L
318.788 121.305 L
319.332 120.398 L
319.875 119.512 L
320.418 118.646 L
320.961 117.801 L
321.503 116.975 L
322.047 116.17 L
322.59 115.384 L
323.133 114.617 L
323.676 113.87 L
324.219 113.141 L
324.762 112.43 L
325.305 111.738 L
325.848 111.063 L
326.391 110.406 L
326.934 109.766 L
327.477 109.143 L
328.02 108.536 L
328.563 107.946 L
329.105 107.371 L
329.648 106.812 L
330.191 106.269 L
330.734 105.741 L
331.277 105.227 L
331.82 104.728 L
332.363 104.243 L
332.906 103.773 L
333.449 103.316 L
333.992 102.873 L
334.535 102.443 L
335.078 102.026 L
335.622 101.621 L
336.164 101.23 L
336.707 100.851 L
337.25 100.484 L
337.793 100.129 L
338.337 99.786 L
338.879 99.455 L
339.423 99.135 L
339.965 98.826 L
340.509 98.528 L
341.052 98.242 L
341.594 97.966 L
342.138 97.7 L
342.681 97.446 L
343.224 97.201 L
343.767 96.967 L
344.31 96.742 L
344.853 96.528 L
345.396 96.323 L
345.939 96.128 L
346.482 95.942 L
347.025 95.766 L
347.568 95.599 L
348.111 95.442 L
348.654 95.293 L
349.197 95.153 L
349.74 95.022 L
350.283 94.9 L
350.826 94.787 L
351.368 94.682 L
351.911 94.585 L
352.454 94.497 L
352.997 94.417 L
353.54 94.346 L
354.083 94.282 L
354.626 94.227 L
355.169 94.179 L
355.712 94.14 L
356.255 94.108 L
356.798 94.084 L
357.341 94.068 L
357.884 94.059 L
358.427 94.058 L
358.97 94.065 L
359.514 94.079 L
360.056 94.1 L
360.599 94.129 L
361.142 94.165 L
361.685 94.208 L
362.229 94.259 L
362.772 94.317 L
363.315 94.381 L
363.858 94.453 L
364.4 94.532 L
364.943 94.618 L
365.487 94.711 L
366.03 94.811 L
366.573 94.917 L
367.115 95.031 L
367.659 95.151 L
368.202 95.278 L
368.745 95.412 L
369.288 95.552 L
369.83 95.7 L
370.374 95.853 L
370.917 96.014 L
371.46 96.181 L
372.003 96.355 L
372.545 96.535 L
373.089 96.722 L
373.632 96.915 L
374.174 97.115 L
374.717 97.321 L
375.261 97.534 L
375.803 97.753 L
376.346 97.979 L
376.889 98.211 L
377.432 98.449 L
377.976 98.694 L
378.518 98.945 L
379.061 99.203 L
379.604 99.467 L
380.148 99.737 L
380.691 100.013 L
381.233 100.296 L
381.776 100.585 L
382.319 100.881 L
382.863 101.182 L
383.406 101.49 L
383.948 101.804 L
384.491 102.125 L
385.034 102.452 L
385.578 102.785 L
386.121 103.124 L
386.663 103.469 L
387.206 103.821 L
387.75 104.178 L
388.293 104.542 L
388.836 104.912 L
389.378 105.289 L
389.921 105.671 L
390.465 106.06 L
391.008 106.455 L
391.551 106.856 L
392.094 107.263 L
392.636 107.676 L
393.18 108.095 L
393.723 108.52 L
394.266 108.952 L
394.809 109.389 L
395.352 109.833 L
395.895 110.282 L
396.438 110.738 L
396.98 111.199 L
397.523 111.666 L
398.066 112.14 L
398.609 112.619 L
399.152 113.104 L
399.695 113.595 L
400.239 114.092 L
400.781 114.595 L
401.324 115.103 L
401.867 115.617 L
402.41 116.137 L
402.954 116.662 L
403.497 117.193 L
404.039 117.729 L
404.582 118.271 L
405.125 118.818 L
405.669 119.37 L
406.212 119.928 L
406.754 120.491 L
407.297 121.059 L
407.841 121.631 L
408.384 122.209 L
408.927 122.791 L
409.469 123.378 L
410.012 123.97 L
410.556 124.566 L
411.099 125.166 L
411.642 125.77 L
412.184 126.378 L
412.727 126.99 L
413.271 127.606 L
413.814 128.225 L
414.357 128.847 L
414.899 129.473 L
415.443 130.101 L
415.986 130.731 L
416.529 131.364 L
417.072 131.999 L
417.614 132.636 L
418.158 133.274 L
418.701 133.913 L
419.243 134.553 L
419.786 135.193 L
420.33 135.834 L
420.872 136.475 L
421.415 137.114 L
421.958 137.753 L
422.501 138.39 L
423.045 139.025 L
423.587 139.658 L
424.13 140.288 L
424.673 140.915 L
425.216 141.537 L
425.76 142.155 L
426.302 142.768 L
426.845 143.376 L
427.388 143.977 L
427.932 144.571 L
428.475 145.158 L
429.017 145.737 L
429.56 146.307 L
430.103 146.867 L
430.647 147.418 L
431.19 147.958 L
431.733 148.486 L
432.275 149.002 L
432.818 149.506 L
433.362 149.996 L
433.905 150.471 L
434.448 150.932 L
434.99 151.378 L
435.534 151.807 L
436.077 152.22 L
436.62 152.616 L
437.163 152.993 L
437.705 153.352 L
438.249 153.693 L
438.792 154.014 L
439.335 154.315 L
439.878 154.596 L
440.42 154.856 L
440.964 155.096 L
441.507 155.315 L
442.049 155.512 L
442.592 155.689 L
443.136 155.843 L
443.678 155.977 L
444.221 156.089 L
444.764 156.179 L
445.307 156.249 L
445.851 156.297 L
446.393 156.325 L
446.936 156.332 L
447.479 156.319 L
448.023 156.287 L
448.566 156.235 L
449.108 156.164 L
449.651 156.075 L
450.194 155.968 L
450.738 155.844 L
451.281 155.703 L
451.823 155.547 L
452.366 155.374 L
452.909 155.187 L
453.453 154.986 L
453.996 154.772 L
454.538 154.545 L
455.081 154.305 L
455.625 154.055 L
456.168 153.793 L
456.711 153.522 L
457.253 153.241 L
457.796 152.951 L
458.34 152.654 L
458.883 152.349 L
459.426 152.036 L
459.969 151.718 L
460.511 151.394 L
461.055 151.065 L
461.598 150.732 L
462.141 150.394 L
462.684 150.053 L
463.227 149.709 L
463.77 149.363 L
464.313 149.014 L
464.855 148.664 L
465.398 148.313 L
465.941 147.961 L
466.484 147.608 L
467.027 147.256 L
467.57 146.903 L
468.114 146.552 L
468.656 146.201 L
469.199 145.852 L
469.742 145.504 L
470.285 145.158 L
470.829 144.814 L
471.372 144.473 L
471.914 144.134 L
472.457 143.797 L
473 143.464 L
473.544 143.134 L
474.087 142.807 L
474.629 142.484 L
475.172 142.164 L
475.716 141.848 L
476.259 141.536 L
476.802 141.228 L
477.344 140.924 L
477.887 140.625 L
478.431 140.33 L
478.974 140.039 L
479.517 139.753 L
480.059 139.471 L
480.602 139.195 L
481.146 138.923 L
481.689 138.656 L
482.232 138.393 L
482.774 138.136 L
483.318 137.884 L
483.861 137.637 L
484.404 137.395 L
484.947 137.157 L
485.489 136.926 L
486.033 136.699 L
486.576 136.477 L
487.118 136.261 L
487.661 136.05 L
488.205 135.844 L
488.747 135.644 L
489.29 135.448 L
489.833 135.258 L
490.376 135.074 L
490.92 134.894 L
491.462 134.72 L
492.005 134.551 L
492.548 134.387 L
493.091 134.229 L
493.635 134.076 L
494.177 133.928 L
494.72 133.786 L
495.263 133.648 L
495.807 133.516 L
496.35 133.389 L
496.892 133.268 L
497.435 133.151 L
497.978 133.04 L
498.522 132.934 L
499.065 132.833 L
499.608 132.737 L
500.15 132.646 L
500.693 132.56 L
501.237 132.479 L
501.78 132.404 L
502.323 132.333 L
502.865 132.267 L
503.409 132.207 L
503.952 132.151 L
504.495 132.1 L
505.038 132.054 L
505.58 132.013 L
506.124 131.977 L
506.667 131.945 L
507.21 131.918 L
507.753 131.896 L
508.295 131.879 L
508.839 131.867 L
509.382 131.859 L
509.924 131.855 L
510.467 131.857 L
511.011 131.863 L
511.553 131.873 L
512.096 131.888 L
512.639 131.908 L
513.182 131.932 L
513.726 131.96 L
514.268 131.993 L
514.812 132.03 L
515.354 132.071 L
515.898 132.116 L
516.44 132.166 L
516.984 132.22 L
517.526 132.279 L
518.069 132.341 L
518.612 132.407 L
519.156 132.478 L
519.698 132.552 L
520.242 132.631 L
520.784 132.713 L
521.328 132.799 L
521.87 132.889 L
522.414 132.983 L
522.956 133.081 L
523.5 133.182 L
524.042 133.287 L
524.586 133.396 L
525.128 133.508 L
525.672 133.624 L
526.215 133.743 L
526.758 133.865 L
527.3 133.991 L
527.844 134.121 L
528.386 134.253 L
528.93 134.389 L
529.472 134.528 L
530.016 134.67 L
530.558 134.815 L
531.102 134.963 L
531.645 135.114 L
532.188 135.268 L
532.73 135.425 L
533.273 135.584 L
533.817 135.746 L
534.359 135.911 L
534.903 136.078 L
535.445 136.248 L
535.989 136.42 L
536.531 136.595 L
537.075 136.772 L
537.617 136.951 L
538.16 137.132 L
538.703 137.315 L
539.247 137.5 L
539.789 137.688 L
540.333 137.876 L
540.875 138.067 L
541.419 138.259 L
541.961 138.453 L
542.505 138.649 L
543.047 138.845 L
543.591 139.044 L
544.133 139.243 L
544.677 139.443 L
545.219 139.645 L
545.763 139.847 L
546.306 140.05 L
546.849 140.255 L
547.391 140.459 L
547.935 140.665 L
548.477 140.87 L
549.021 141.076 L
549.563 141.283 L
550.107 141.489 L
550.649 141.696 L
551.193 141.902 L
551.736 142.109 L
552.279 142.315 L
552.821 142.521 L
553.365 142.726 L
553.908 142.931 L
554.451 143.135 L
554.993 143.338 L
555.536 143.54 L
556.08 143.741 L
556.622 143.941 L
557.166 144.14 L
557.708 144.338 L
558.251 144.534 L
558.794 144.728 L
559.338 144.921 L
559.88 145.112 L
560.424 145.301 L
560.966 145.488 L
561.51 145.673 L
562.052 145.855 L
562.596 146.036 L
563.138 146.214 L
563.682 146.389 L
564.224 146.562 L
564.768 146.732 L
565.31 146.899 L
565.854 147.063 L
566.396 147.225 L
566.94 147.383 L
567.482 147.538 L
568.026 147.689 L
568.568 147.838 L
569.112 147.983 L
569.654 148.124 L
570.198 148.262 L
570.74 148.396 L
571.284 148.526 L
571.826 148.653 L
572.37 148.776 L
572.912 148.895 L
573.456 149.01 L
573.999 149.121 L
574.542 149.228 L
575.084 149.331 L
575.628 149.43 L
576.17 149.525 L
576.714 149.616 L
577.257 149.702 L
577.799 149.785 L
578.342 149.863 L
578.885 149.937 L
579.429 150.007 L
579.971 150.072 L
580.514 150.134 L
581.057 150.191 L
581.601 150.244 L
582.143 150.293 L
582.687 150.338 L
583.229 150.379 L
583.773 150.416 L
584.315 150.449 L
584.859 150.478 L
585.401 150.503 L
585.944 150.524 L
586.487 150.542 L
587.031 150.555 L
587.573 150.565 L
588.117 150.572 L
588.659 150.575 L
589.203 150.574 L
589.745 150.57 L
590.289 150.563 L
590.831 150.552 L
591.375 150.539 L
591.917 150.522 L
592.461 150.502 L
593.003 150.48 L
593.547 150.454 L
594.09 150.426 L
594.633 150.395 L
595.175 150.362 L
595.719 150.326 L
596.261 150.288 L
596.805 150.248 L
597.347 150.206 L
597.891 150.161 L
598.433 150.115 L
598.977 150.067 L
599.52 150.017 L
600.063 149.966 L
600.605 149.913 L
601.148 149.858 L
601.692 149.803 L
602.234 149.746 L
602.778 149.688 L
603.32 149.628 L
603.864 149.568 L
604.406 149.508 L
604.95 149.446 L
605.492 149.384 L
606.035 149.321 L
606.578 149.258 L
607.122 149.195 L
607.664 149.131 L
608.208 149.067 L
608.75 149.003 L
609.294 148.939 L
609.836 148.875 L
610.38 148.811 L
610.922 148.748 L
611.466 148.685 L
612.008 148.622 L
612.552 148.56 L
613.094 148.498 L
613.638 148.437 L
614.181 148.377 L
614.724 148.318 L
615.266 148.259 L
615.81 148.201 L
616.352 148.145 L
616.896 148.089 L
617.438 148.035 L
617.982 147.981 L
618.524 147.929 L
619.068 147.879 L
619.611 147.829 L
620.154 147.781 L
620.696 147.735 L
621.24 147.69 L
621.783 147.646 L
622.326 147.604 L
622.868 147.564 L
623.411 147.525 L
623.955 147.488 L
624.497 147.453 L
625.041 147.419 L
625.583 147.388 L
626.126 147.358 L
626.669 147.33 L
627.213 147.304 L
627.755 147.279 L
628.299 147.257 L
628.841 147.237 L
629.385 147.219 L
629.927 147.202 L
630.471 147.188 L
631.013 147.176 L
631.557 147.165 L
632.099 147.157 L
632.643 147.151 L
633.185 147.147 L
633.729 147.145 L
S
GR
%%Trailer
%%Pages: 1
%%EOF
