%!PS-Adobe-3.0 EPSF-3.0
%%Creator: (MATLAB, The Mathworks, Inc. Version 9.0.0.341360 \(R2016a\). Operating System: Windows 8)
%%Title: ./mag_response_for_length_31.eps
%%CreationDate: 2017-12-06T11:35:45
%%Pages: (atend)
%%BoundingBox:    18     2   387   295
%%LanguageLevel: 3
%%EndComments
%%BeginProlog
%%BeginResource: procset (Apache XML Graphics Std ProcSet) 1.2 0
%%Version: 1.2 0
%%Copyright: (Copyright 2001-2003,2010 The Apache Software Foundation. License terms: http://www.apache.org/licenses/LICENSE-2.0)
/bd{bind def}bind def
/ld{load def}bd
/GR/grestore ld
/M/moveto ld
/LJ/setlinejoin ld
/C/curveto ld
/f/fill ld
/LW/setlinewidth ld
/GC/setgray ld
/t/show ld
/N/newpath ld
/CT/concat ld
/cp/closepath ld
/S/stroke ld
/L/lineto ld
/CC/setcmykcolor ld
/A/ashow ld
/GS/gsave ld
/RC/setrgbcolor ld
/RM/rmoveto ld
/ML/setmiterlimit ld
/re {4 2 roll M
1 index 0 rlineto
0 exch rlineto
neg 0 rlineto
cp } bd
/_ctm matrix def
/_tm matrix def
/BT { _ctm currentmatrix pop matrix _tm copy pop 0 0 moveto } bd
/ET { _ctm setmatrix } bd
/iTm { _ctm setmatrix _tm concat } bd
/Tm { _tm astore pop iTm 0 0 moveto } bd
/ux 0.0 def
/uy 0.0 def
/F {
  /Tp exch def
  /Tf exch def
  Tf findfont Tp scalefont setfont
  /cf Tf def  /cs Tp def
} bd
/ULS {currentpoint /uy exch def /ux exch def} bd
/ULE {
  /Tcx currentpoint pop def
  gsave
  newpath
  cf findfont cs scalefont dup
  /FontMatrix get 0 get /Ts exch def /FontInfo get dup
  /UnderlinePosition get Ts mul /To exch def
  /UnderlineThickness get Ts mul /Tt exch def
  ux uy To add moveto  Tcx uy To add lineto
  Tt setlinewidth stroke
  grestore
} bd
/OLE {
  /Tcx currentpoint pop def
  gsave
  newpath
  cf findfont cs scalefont dup
  /FontMatrix get 0 get /Ts exch def /FontInfo get dup
  /UnderlinePosition get Ts mul /To exch def
  /UnderlineThickness get Ts mul /Tt exch def
  ux uy To add cs add moveto Tcx uy To add cs add lineto
  Tt setlinewidth stroke
  grestore
} bd
/SOE {
  /Tcx currentpoint pop def
  gsave
  newpath
  cf findfont cs scalefont dup
  /FontMatrix get 0 get /Ts exch def /FontInfo get dup
  /UnderlinePosition get Ts mul /To exch def
  /UnderlineThickness get Ts mul /Tt exch def
  ux uy To add cs 10 mul 26 idiv add moveto Tcx uy To add cs 10 mul 26 idiv add lineto
  Tt setlinewidth stroke
  grestore
} bd
/QT {
/Y22 exch store
/X22 exch store
/Y21 exch store
/X21 exch store
currentpoint
/Y21 load 2 mul add 3 div exch
/X21 load 2 mul add 3 div exch
/X21 load 2 mul /X22 load add 3 div
/Y21 load 2 mul /Y22 load add 3 div
/X22 load /Y22 load curveto
} bd
/SSPD {
dup length /d exch dict def
{
/v exch def
/k exch def
currentpagedevice k known {
/cpdv currentpagedevice k get def
v cpdv ne {
/upd false def
/nullv v type /nulltype eq def
/nullcpdv cpdv type /nulltype eq def
nullv nullcpdv or
{
/upd true def
} {
/sametype v type cpdv type eq def
sametype {
v type /arraytype eq {
/vlen v length def
/cpdvlen cpdv length def
vlen cpdvlen eq {
0 1 vlen 1 sub {
/i exch def
/obj v i get def
/cpdobj cpdv i get def
obj cpdobj ne {
/upd true def
exit
} if
} for
} {
/upd true def
} ifelse
} {
v type /dicttype eq {
v {
/dv exch def
/dk exch def
/cpddv cpdv dk get def
dv cpddv ne {
/upd true def
exit
} if
} forall
} {
/upd true def
} ifelse
} ifelse
} if
} ifelse
upd true eq {
d k v put
} if
} if
} if
} forall
d length 0 gt {
d setpagedevice
} if
} bd
%%EndResource
%%BeginResource: procset (Apache XML Graphics EPS ProcSet) 1.0 0
%%Version: 1.0 0
%%Copyright: (Copyright 2002-2003 The Apache Software Foundation. License terms: http://www.apache.org/licenses/LICENSE-2.0)
/BeginEPSF { %def
/b4_Inc_state save def         % Save state for cleanup
/dict_count countdictstack def % Count objects on dict stack
/op_count count 1 sub def      % Count objects on operand stack
userdict begin                 % Push userdict on dict stack
/showpage { } def              % Redefine showpage, { } = null proc
0 setgray 0 setlinecap         % Prepare graphics state
1 setlinewidth 0 setlinejoin
10 setmiterlimit [ ] 0 setdash newpath
/languagelevel where           % If level not equal to 1 then
{pop languagelevel             % set strokeadjust and
1 ne                           % overprint to their defaults.
{false setstrokeadjust false setoverprint
} if
} if
} bd
/EndEPSF { %def
count op_count sub {pop} repeat            % Clean up stacks
countdictstack dict_count sub {end} repeat
b4_Inc_state restore
} bd
%%EndResource
%FOPBeginFontDict
%%IncludeResource: font Courier-Bold
%%IncludeResource: font Helvetica
%%IncludeResource: font Courier-BoldOblique
%%IncludeResource: font Courier-Oblique
%%IncludeResource: font Times-Roman
%%IncludeResource: font Helvetica-BoldOblique
%%IncludeResource: font Helvetica-Bold
%%IncludeResource: font Helvetica-Oblique
%%IncludeResource: font Times-BoldItalic
%%IncludeResource: font Courier
%%IncludeResource: font Times-Italic
%%IncludeResource: font Times-Bold
%%IncludeResource: font Symbol
%%IncludeResource: font ZapfDingbats
%FOPEndFontDict
%%BeginResource: encoding WinAnsiEncoding
/WinAnsiEncoding [
/.notdef /.notdef /.notdef /.notdef /.notdef
/.notdef /.notdef /.notdef /.notdef /.notdef
/.notdef /.notdef /.notdef /.notdef /.notdef
/.notdef /.notdef /.notdef /.notdef /.notdef
/.notdef /.notdef /.notdef /.notdef /.notdef
/.notdef /.notdef /.notdef /.notdef /.notdef
/.notdef /.notdef /space /exclam /quotedbl
/numbersign /dollar /percent /ampersand /quotesingle
/parenleft /parenright /asterisk /plus /comma
/hyphen /period /slash /zero /one
/two /three /four /five /six
/seven /eight /nine /colon /semicolon
/less /equal /greater /question /at
/A /B /C /D /E
/F /G /H /I /J
/K /L /M /N /O
/P /Q /R /S /T
/U /V /W /X /Y
/Z /bracketleft /backslash /bracketright /asciicircum
/underscore /quoteleft /a /b /c
/d /e /f /g /h
/i /j /k /l /m
/n /o /p /q /r
/s /t /u /v /w
/x /y /z /braceleft /bar
/braceright /asciitilde /bullet /Euro /bullet
/quotesinglbase /florin /quotedblbase /ellipsis /dagger
/daggerdbl /circumflex /perthousand /Scaron /guilsinglleft
/OE /bullet /Zcaron /bullet /bullet
/quoteleft /quoteright /quotedblleft /quotedblright /bullet
/endash /emdash /asciitilde /trademark /scaron
/guilsinglright /oe /bullet /zcaron /Ydieresis
/space /exclamdown /cent /sterling /currency
/yen /brokenbar /section /dieresis /copyright
/ordfeminine /guillemotleft /logicalnot /sfthyphen /registered
/macron /degree /plusminus /twosuperior /threesuperior
/acute /mu /paragraph /middot /cedilla
/onesuperior /ordmasculine /guillemotright /onequarter /onehalf
/threequarters /questiondown /Agrave /Aacute /Acircumflex
/Atilde /Adieresis /Aring /AE /Ccedilla
/Egrave /Eacute /Ecircumflex /Edieresis /Igrave
/Iacute /Icircumflex /Idieresis /Eth /Ntilde
/Ograve /Oacute /Ocircumflex /Otilde /Odieresis
/multiply /Oslash /Ugrave /Uacute /Ucircumflex
/Udieresis /Yacute /Thorn /germandbls /agrave
/aacute /acircumflex /atilde /adieresis /aring
/ae /ccedilla /egrave /eacute /ecircumflex
/edieresis /igrave /iacute /icircumflex /idieresis
/eth /ntilde /ograve /oacute /ocircumflex
/otilde /odieresis /divide /oslash /ugrave
/uacute /ucircumflex /udieresis /yacute /thorn
/ydieresis
] def
%%EndResource
%FOPBeginFontReencode
/Courier-Bold findfont
dup length dict begin
  {1 index /FID ne {def} {pop pop} ifelse} forall
  /Encoding WinAnsiEncoding def
  currentdict
end
/Courier-Bold exch definefont pop
/Helvetica findfont
dup length dict begin
  {1 index /FID ne {def} {pop pop} ifelse} forall
  /Encoding WinAnsiEncoding def
  currentdict
end
/Helvetica exch definefont pop
/Courier-BoldOblique findfont
dup length dict begin
  {1 index /FID ne {def} {pop pop} ifelse} forall
  /Encoding WinAnsiEncoding def
  currentdict
end
/Courier-BoldOblique exch definefont pop
/Courier-Oblique findfont
dup length dict begin
  {1 index /FID ne {def} {pop pop} ifelse} forall
  /Encoding WinAnsiEncoding def
  currentdict
end
/Courier-Oblique exch definefont pop
/Times-Roman findfont
dup length dict begin
  {1 index /FID ne {def} {pop pop} ifelse} forall
  /Encoding WinAnsiEncoding def
  currentdict
end
/Times-Roman exch definefont pop
/Helvetica-BoldOblique findfont
dup length dict begin
  {1 index /FID ne {def} {pop pop} ifelse} forall
  /Encoding WinAnsiEncoding def
  currentdict
end
/Helvetica-BoldOblique exch definefont pop
/Helvetica-Bold findfont
dup length dict begin
  {1 index /FID ne {def} {pop pop} ifelse} forall
  /Encoding WinAnsiEncoding def
  currentdict
end
/Helvetica-Bold exch definefont pop
/Helvetica-Oblique findfont
dup length dict begin
  {1 index /FID ne {def} {pop pop} ifelse} forall
  /Encoding WinAnsiEncoding def
  currentdict
end
/Helvetica-Oblique exch definefont pop
/Times-BoldItalic findfont
dup length dict begin
  {1 index /FID ne {def} {pop pop} ifelse} forall
  /Encoding WinAnsiEncoding def
  currentdict
end
/Times-BoldItalic exch definefont pop
/Courier findfont
dup length dict begin
  {1 index /FID ne {def} {pop pop} ifelse} forall
  /Encoding WinAnsiEncoding def
  currentdict
end
/Courier exch definefont pop
/Times-Italic findfont
dup length dict begin
  {1 index /FID ne {def} {pop pop} ifelse} forall
  /Encoding WinAnsiEncoding def
  currentdict
end
/Times-Italic exch definefont pop
/Times-Bold findfont
dup length dict begin
  {1 index /FID ne {def} {pop pop} ifelse} forall
  /Encoding WinAnsiEncoding def
  currentdict
end
/Times-Bold exch definefont pop
%FOPEndFontReencode
%%EndProlog
%%Page: 1 1
%%PageBoundingBox: 0 0 420 315
%%BeginPageSetup
[1 0 0 -1 0 315] CT
%%EndPageSetup
GS
[0.6 0 0 0.6 0 0] CT
0.997 GC
N
0 0 700 525 re
f
GR
GS
[0.6 0 0 0.6 0 0] CT
0.997 GC
N
0 0 700 525 re
f
GR
GS
[0.6 0 0 0.6 0 0] CT
0.997 GC
N
91 467 M
634 467 L
634 39 L
91 39 L
cp
f
GR
GS
[0.6 0 0 0.6 0 0] CT
0.846 GC
1 LJ
0.833 LW
N
91 467 M
91 39 L
S
GR
GS
[0.6 0 0 0.6 0 0] CT
0.846 GC
1 LJ
0.833 LW
N
145.3 467 M
145.3 39 L
S
GR
GS
[0.6 0 0 0.6 0 0] CT
0.846 GC
1 LJ
0.833 LW
N
199.6 467 M
199.6 39 L
S
GR
GS
[0.6 0 0 0.6 0 0] CT
0.846 GC
1 LJ
0.833 LW
N
253.9 467 M
253.9 39 L
S
GR
GS
[0.6 0 0 0.6 0 0] CT
0.846 GC
1 LJ
0.833 LW
N
308.2 467 M
308.2 39 L
S
GR
GS
[0.6 0 0 0.6 0 0] CT
0.846 GC
1 LJ
0.833 LW
N
362.5 467 M
362.5 39 L
S
GR
GS
[0.6 0 0 0.6 0 0] CT
0.846 GC
1 LJ
0.833 LW
N
416.8 467 M
416.8 39 L
S
GR
GS
[0.6 0 0 0.6 0 0] CT
0.846 GC
1 LJ
0.833 LW
N
471.1 467 M
471.1 39 L
S
GR
GS
[0.6 0 0 0.6 0 0] CT
0.846 GC
1 LJ
0.833 LW
N
525.4 467 M
525.4 39 L
S
GR
GS
[0.6 0 0 0.6 0 0] CT
0.846 GC
1 LJ
0.833 LW
N
579.7 467 M
579.7 39 L
S
GR
GS
[0.6 0 0 0.6 0 0] CT
0.846 GC
1 LJ
0.833 LW
N
634 467 M
634 39 L
S
GR
GS
[0.6 0 0 0.6 0 0] CT
0.846 GC
1 LJ
0.833 LW
N
634 467 M
91 467 L
S
GR
GS
[0.6 0 0 0.6 0 0] CT
0.846 GC
1 LJ
0.833 LW
N
634 395.667 M
91 395.667 L
S
GR
GS
[0.6 0 0 0.6 0 0] CT
0.846 GC
1 LJ
0.833 LW
N
634 324.333 M
91 324.333 L
S
GR
GS
[0.6 0 0 0.6 0 0] CT
0.846 GC
1 LJ
0.833 LW
N
634 253 M
91 253 L
S
GR
GS
[0.6 0 0 0.6 0 0] CT
0.846 GC
1 LJ
0.833 LW
N
634 181.667 M
91 181.667 L
S
GR
GS
[0.6 0 0 0.6 0 0] CT
0.846 GC
1 LJ
0.833 LW
N
634 110.333 M
91 110.333 L
S
GR
GS
[0.6 0 0 0.6 0 0] CT
0.846 GC
1 LJ
0.833 LW
N
634 39 M
91 39 L
S
GR
GS
[0.6 0 0 0.6 0 0] CT
0 GC
2 setlinecap
1 LJ
0.833 LW
N
91 467 M
634 467 L
S
GR
GS
[0.6 0 0 0.6 0 0] CT
0 GC
2 setlinecap
1 LJ
0.833 LW
N
91 39 M
634 39 L
S
GR
GS
[0.6 0 0 0.6 0 0] CT
0 GC
2 setlinecap
1 LJ
0.833 LW
N
91 467 M
91 461.57 L
S
GR
GS
[0.6 0 0 0.6 0 0] CT
0 GC
2 setlinecap
1 LJ
0.833 LW
N
145.3 467 M
145.3 461.57 L
S
GR
GS
[0.6 0 0 0.6 0 0] CT
0 GC
2 setlinecap
1 LJ
0.833 LW
N
199.6 467 M
199.6 461.57 L
S
GR
GS
[0.6 0 0 0.6 0 0] CT
0 GC
2 setlinecap
1 LJ
0.833 LW
N
253.9 467 M
253.9 461.57 L
S
GR
GS
[0.6 0 0 0.6 0 0] CT
0 GC
2 setlinecap
1 LJ
0.833 LW
N
308.2 467 M
308.2 461.57 L
S
GR
GS
[0.6 0 0 0.6 0 0] CT
0 GC
2 setlinecap
1 LJ
0.833 LW
N
362.5 467 M
362.5 461.57 L
S
GR
GS
[0.6 0 0 0.6 0 0] CT
0 GC
2 setlinecap
1 LJ
0.833 LW
N
416.8 467 M
416.8 461.57 L
S
GR
GS
[0.6 0 0 0.6 0 0] CT
0 GC
2 setlinecap
1 LJ
0.833 LW
N
471.1 467 M
471.1 461.57 L
S
GR
GS
[0.6 0 0 0.6 0 0] CT
0 GC
2 setlinecap
1 LJ
0.833 LW
N
525.4 467 M
525.4 461.57 L
S
GR
GS
[0.6 0 0 0.6 0 0] CT
0 GC
2 setlinecap
1 LJ
0.833 LW
N
579.7 467 M
579.7 461.57 L
S
GR
GS
[0.6 0 0 0.6 0 0] CT
0 GC
2 setlinecap
1 LJ
0.833 LW
N
634 467 M
634 461.57 L
S
GR
GS
[0.6 0 0 0.6 0 0] CT
0 GC
2 setlinecap
1 LJ
0.833 LW
N
91 39 M
91 44.43 L
S
GR
GS
[0.6 0 0 0.6 0 0] CT
0 GC
2 setlinecap
1 LJ
0.833 LW
N
145.3 39 M
145.3 44.43 L
S
GR
GS
[0.6 0 0 0.6 0 0] CT
0 GC
2 setlinecap
1 LJ
0.833 LW
N
199.6 39 M
199.6 44.43 L
S
GR
GS
[0.6 0 0 0.6 0 0] CT
0 GC
2 setlinecap
1 LJ
0.833 LW
N
253.9 39 M
253.9 44.43 L
S
GR
GS
[0.6 0 0 0.6 0 0] CT
0 GC
2 setlinecap
1 LJ
0.833 LW
N
308.2 39 M
308.2 44.43 L
S
GR
GS
[0.6 0 0 0.6 0 0] CT
0 GC
2 setlinecap
1 LJ
0.833 LW
N
362.5 39 M
362.5 44.43 L
S
GR
GS
[0.6 0 0 0.6 0 0] CT
0 GC
2 setlinecap
1 LJ
0.833 LW
N
416.8 39 M
416.8 44.43 L
S
GR
GS
[0.6 0 0 0.6 0 0] CT
0 GC
2 setlinecap
1 LJ
0.833 LW
N
471.1 39 M
471.1 44.43 L
S
GR
GS
[0.6 0 0 0.6 0 0] CT
0 GC
2 setlinecap
1 LJ
0.833 LW
N
525.4 39 M
525.4 44.43 L
S
GR
GS
[0.6 0 0 0.6 0 0] CT
0 GC
2 setlinecap
1 LJ
0.833 LW
N
579.7 39 M
579.7 44.43 L
S
GR
GS
[0.6 0 0 0.6 0 0] CT
0 GC
2 setlinecap
1 LJ
0.833 LW
N
634 39 M
634 44.43 L
S
GR
GS
[0.6 0 0 0.6 54.6 284.19999] CT
0 GC
/Helvetica 16.667 F
GS
[1 0 0 1 0 0] CT
-5 18 moveto 
1 -1 scale
(0) t 
GR
GR
GS
[0.6 0 0 0.6 87.18 284.19999] CT
0 GC
/Helvetica 16.667 F
GS
[1 0 0 1 0 0] CT
-17 18 moveto 
1 -1 scale
(0.05) t 
GR
GR
GS
[0.6 0 0 0.6 119.76 284.19999] CT
0 GC
/Helvetica 16.667 F
GS
[1 0 0 1 0 0] CT
-12 18 moveto 
1 -1 scale
(0.1) t 
GR
GR
GS
[0.6 0 0 0.6 152.34001 284.19999] CT
0 GC
/Helvetica 16.667 F
GS
[1 0 0 1 0 0] CT
-17 18 moveto 
1 -1 scale
(0.15) t 
GR
GR
GS
[0.6 0 0 0.6 184.92001 284.19999] CT
0 GC
/Helvetica 16.667 F
GS
[1 0 0 1 0 0] CT
-12 18 moveto 
1 -1 scale
(0.2) t 
GR
GR
GS
[0.6 0 0 0.6 217.5 284.19999] CT
0 GC
/Helvetica 16.667 F
GS
[1 0 0 1 0 0] CT
-17 18 moveto 
1 -1 scale
(0.25) t 
GR
GR
GS
[0.6 0 0 0.6 250.08001 284.19999] CT
0 GC
/Helvetica 16.667 F
GS
[1 0 0 1 0 0] CT
-12 18 moveto 
1 -1 scale
(0.3) t 
GR
GR
GS
[0.6 0 0 0.6 282.66 284.19999] CT
0 GC
/Helvetica 16.667 F
GS
[1 0 0 1 0 0] CT
-17 18 moveto 
1 -1 scale
(0.35) t 
GR
GR
GS
[0.6 0 0 0.6 315.24001 284.19999] CT
0 GC
/Helvetica 16.667 F
GS
[1 0 0 1 0 0] CT
-12 18 moveto 
1 -1 scale
(0.4) t 
GR
GR
GS
[0.6 0 0 0.6 347.82001 284.19999] CT
0 GC
/Helvetica 16.667 F
GS
[1 0 0 1 0 0] CT
-17 18 moveto 
1 -1 scale
(0.45) t 
GR
GR
GS
[0.6 0 0 0.6 380.4 284.19999] CT
0 GC
/Helvetica 16.667 F
GS
[1 0 0 1 0 0] CT
-12 18 moveto 
1 -1 scale
(0.5) t 
GR
GR
GS
[0.6 0 0 0.6 217.50015 298.40001] CT
0 GC
/Helvetica 18.333 F
GS
[1 0 0 1 0 0] CT
-77 19 moveto 
1 -1 scale
(frequency in cycles) t 
GR
GR
GS
[0.6 0 0 0.6 0 0] CT
0 GC
2 setlinecap
1 LJ
0.833 LW
N
91 467 M
91 39 L
S
GR
GS
[0.6 0 0 0.6 0 0] CT
0 GC
2 setlinecap
1 LJ
0.833 LW
N
634 467 M
634 39 L
S
GR
GS
[0.6 0 0 0.6 0 0] CT
0 GC
2 setlinecap
1 LJ
0.833 LW
N
91 467 M
96.43 467 L
S
GR
GS
[0.6 0 0 0.6 0 0] CT
0 GC
2 setlinecap
1 LJ
0.833 LW
N
91 395.667 M
96.43 395.667 L
S
GR
GS
[0.6 0 0 0.6 0 0] CT
0 GC
2 setlinecap
1 LJ
0.833 LW
N
91 324.333 M
96.43 324.333 L
S
GR
GS
[0.6 0 0 0.6 0 0] CT
0 GC
2 setlinecap
1 LJ
0.833 LW
N
91 253 M
96.43 253 L
S
GR
GS
[0.6 0 0 0.6 0 0] CT
0 GC
2 setlinecap
1 LJ
0.833 LW
N
91 181.667 M
96.43 181.667 L
S
GR
GS
[0.6 0 0 0.6 0 0] CT
0 GC
2 setlinecap
1 LJ
0.833 LW
N
91 110.333 M
96.43 110.333 L
S
GR
GS
[0.6 0 0 0.6 0 0] CT
0 GC
2 setlinecap
1 LJ
0.833 LW
N
91 39 M
96.43 39 L
S
GR
GS
[0.6 0 0 0.6 0 0] CT
0 GC
2 setlinecap
1 LJ
0.833 LW
N
634 467 M
628.57 467 L
S
GR
GS
[0.6 0 0 0.6 0 0] CT
0 GC
2 setlinecap
1 LJ
0.833 LW
N
634 395.667 M
628.57 395.667 L
S
GR
GS
[0.6 0 0 0.6 0 0] CT
0 GC
2 setlinecap
1 LJ
0.833 LW
N
634 324.333 M
628.57 324.333 L
S
GR
GS
[0.6 0 0 0.6 0 0] CT
0 GC
2 setlinecap
1 LJ
0.833 LW
N
634 253 M
628.57 253 L
S
GR
GS
[0.6 0 0 0.6 0 0] CT
0 GC
2 setlinecap
1 LJ
0.833 LW
N
634 181.667 M
628.57 181.667 L
S
GR
GS
[0.6 0 0 0.6 0 0] CT
0 GC
2 setlinecap
1 LJ
0.833 LW
N
634 110.333 M
628.57 110.333 L
S
GR
GS
[0.6 0 0 0.6 0 0] CT
0 GC
2 setlinecap
1 LJ
0.833 LW
N
634 39 M
628.57 39 L
S
GR
GS
[0.6 0 0 0.6 50.6 280.2] CT
0 GC
/Helvetica 16.667 F
GS
[1 0 0 1 0 0] CT
-25 7 moveto 
1 -1 scale
(-50) t 
GR
GR
GS
[0.6 0 0 0.6 50.6 237.39999] CT
0 GC
/Helvetica 16.667 F
GS
[1 0 0 1 0 0] CT
-25 7 moveto 
1 -1 scale
(-40) t 
GR
GR
GS
[0.6 0 0 0.6 50.6 194.60001] CT
0 GC
/Helvetica 16.667 F
GS
[1 0 0 1 0 0] CT
-25 7 moveto 
1 -1 scale
(-30) t 
GR
GR
GS
[0.6 0 0 0.6 50.6 151.8] CT
0 GC
/Helvetica 16.667 F
GS
[1 0 0 1 0 0] CT
-25 7 moveto 
1 -1 scale
(-20) t 
GR
GR
GS
[0.6 0 0 0.6 50.6 109] CT
0 GC
/Helvetica 16.667 F
GS
[1 0 0 1 0 0] CT
-25 7 moveto 
1 -1 scale
(-10) t 
GR
GR
GS
[0.6 0 0 0.6 50.6 66.2] CT
0 GC
/Helvetica 16.667 F
GS
[1 0 0 1 0 0] CT
-10 7 moveto 
1 -1 scale
(0) t 
GR
GR
GS
[0.6 0 0 0.6 50.6 23.4] CT
0 GC
/Helvetica 16.667 F
GS
[1 0 0 1 0 0] CT
-19 7 moveto 
1 -1 scale
(10) t 
GR
GR
GS
[0 -0.6 0.6 0 30 203.4] CT
0 GC
/Helvetica 18.333 F
GS
[1 0 0 1 0 0] CT
0 0 moveto 
1 -1 scale
(20  log \( | H\(e) t 
GR
GR
GS
[0 -0.6 0.6 0 24.6 138] CT
0 GC
/Helvetica 13.333 F
GS
[1 0 0 1 0 0] CT
0 0 moveto 
1 -1 scale
(j 2 pi f) t 
GR
GR
GS
[0 -0.6 0.6 0 30 117] CT
0 GC
/Helvetica 18.333 F
GS
[1 0 0 1 0 0] CT
0 0 moveto 
1 -1 scale
(\) | \)) t 
GR
GR
GS
[0.6 0 0 0.6 0 0] CT
0 GC
1 LJ
0.833 LW
N
221.079 38.957 M
221.592 39.467 L
222.135 40.012 L
222.678 40.561 L
223.22 41.114 L
223.764 41.671 L
224.307 42.233 L
224.85 42.799 L
225.393 43.369 L
225.936 43.943 L
226.479 44.522 L
227.021 45.106 L
227.564 45.694 L
228.107 46.286 L
228.651 46.883 L
229.193 47.485 L
229.736 48.091 L
230.28 48.702 L
230.822 49.318 L
231.366 49.939 L
231.908 50.565 L
232.452 51.196 L
232.995 51.832 L
233.537 52.473 L
234.081 53.119 L
234.623 53.77 L
235.167 54.427 L
235.71 55.089 L
236.253 55.756 L
236.796 56.429 L
237.338 57.108 L
237.882 57.792 L
238.424 58.482 L
238.967 59.177 L
239.51 59.879 L
240.054 60.586 L
240.596 61.3 L
241.139 62.019 L
241.682 62.745 L
242.225 63.477 L
242.769 64.215 L
243.311 64.96 L
243.855 65.711 L
244.398 66.469 L
244.94 67.234 L
245.484 68.006 L
246.026 68.784 L
246.57 69.57 L
247.113 70.362 L
247.656 71.162 L
248.199 71.97 L
248.741 72.784 L
249.285 73.607 L
249.827 74.437 L
250.37 75.275 L
250.913 76.12 L
251.457 76.974 L
251.999 77.837 L
252.543 78.707 L
253.085 79.586 L
253.628 80.474 L
254.172 81.371 L
254.714 82.276 L
255.258 83.191 L
255.8 84.115 L
256.344 85.049 L
256.887 85.992 L
257.43 86.945 L
257.973 87.907 L
258.516 88.88 L
259.059 89.864 L
259.602 90.858 L
260.145 91.862 L
260.688 92.878 L
261.23 93.905 L
261.773 94.943 L
262.316 95.993 L
262.859 97.054 L
263.402 98.128 L
263.945 99.214 L
264.488 100.313 L
265.031 101.424 L
265.574 102.548 L
266.117 103.686 L
266.66 104.838 L
267.203 106.003 L
267.747 107.182 L
268.289 108.376 L
268.832 109.585 L
269.375 110.809 L
269.918 112.048 L
270.462 113.303 L
271.004 114.574 L
271.548 115.861 L
272.09 117.165 L
272.634 118.486 L
273.177 119.824 L
273.719 121.179 L
274.263 122.553 L
274.806 123.945 L
275.349 125.356 L
275.892 126.785 L
276.435 128.233 L
276.978 129.701 L
277.521 131.189 L
278.064 132.697 L
278.607 134.224 L
279.15 135.772 L
279.693 137.341 L
280.236 138.93 L
280.779 140.539 L
281.322 142.168 L
281.865 143.818 L
282.408 145.488 L
282.951 147.177 L
283.493 148.884 L
284.036 150.61 L
284.579 152.353 L
285.122 154.113 L
285.665 155.886 L
286.208 157.673 L
286.751 159.47 L
287.294 161.275 L
287.837 163.086 L
288.38 164.899 L
288.923 166.709 L
289.466 168.513 L
290.009 170.304 L
290.552 172.078 L
291.095 173.827 L
291.639 175.544 L
292.181 177.221 L
292.724 178.848 L
293.267 180.417 L
293.81 181.916 L
294.354 183.335 L
294.896 184.664 L
295.44 185.891 L
295.983 187.006 L
296.526 187.999 L
297.069 188.862 L
297.611 189.586 L
298.155 190.166 L
298.698 190.598 L
299.241 190.881 L
299.784 191.014 L
300.327 191.001 L
300.87 190.845 L
301.413 190.555 L
301.956 190.136 L
302.499 189.6 L
303.042 188.956 L
303.585 188.215 L
304.128 187.388 L
304.671 186.485 L
305.214 185.517 L
305.757 184.495 L
306.299 183.426 L
306.842 182.322 L
307.385 181.188 L
307.928 180.032 L
308.471 178.861 L
309.014 177.681 L
309.557 176.496 L
310.1 175.311 L
310.643 174.129 L
311.186 172.954 L
311.729 171.788 L
312.272 170.635 L
312.815 169.495 L
313.358 168.37 L
313.901 167.263 L
314.444 166.173 L
314.987 165.103 L
315.531 164.051 L
316.073 163.02 L
316.616 162.009 L
317.16 161.019 L
317.702 160.049 L
318.246 159.101 L
318.788 158.173 L
319.332 157.266 L
319.875 156.38 L
320.418 155.514 L
320.961 154.668 L
321.503 153.843 L
322.047 153.037 L
322.59 152.251 L
323.133 151.485 L
323.676 150.737 L
324.219 150.008 L
324.762 149.298 L
325.305 148.605 L
325.848 147.931 L
326.391 147.273 L
326.934 146.633 L
327.477 146.01 L
328.02 145.404 L
328.563 144.813 L
329.105 144.239 L
329.648 143.68 L
330.191 143.136 L
330.734 142.608 L
331.277 142.095 L
331.82 141.596 L
332.363 141.111 L
332.906 140.64 L
333.449 140.183 L
333.992 139.74 L
334.535 139.31 L
335.078 138.893 L
335.622 138.489 L
336.164 138.097 L
336.707 137.718 L
337.25 137.351 L
337.793 136.997 L
338.337 136.653 L
338.879 136.322 L
339.423 136.002 L
339.965 135.693 L
340.509 135.396 L
341.052 135.109 L
341.594 134.833 L
342.138 134.568 L
342.681 134.313 L
343.224 134.068 L
343.767 133.834 L
344.31 133.61 L
344.853 133.395 L
345.396 133.191 L
345.939 132.995 L
346.482 132.81 L
347.025 132.634 L
347.568 132.467 L
348.111 132.309 L
348.654 132.16 L
349.197 132.021 L
349.74 131.89 L
350.283 131.768 L
350.826 131.654 L
351.368 131.549 L
351.911 131.453 L
352.454 131.365 L
352.997 131.285 L
353.54 131.213 L
354.083 131.15 L
354.626 131.094 L
355.169 131.047 L
355.712 131.007 L
356.255 130.976 L
356.798 130.952 L
357.341 130.935 L
357.884 130.927 L
358.427 130.926 L
358.97 130.932 L
359.514 130.946 L
360.056 130.968 L
360.599 130.997 L
361.142 131.033 L
361.685 131.076 L
362.229 131.126 L
362.772 131.184 L
363.315 131.249 L
363.858 131.321 L
364.4 131.4 L
364.943 131.486 L
365.487 131.578 L
366.03 131.678 L
366.573 131.785 L
367.115 131.898 L
367.659 132.018 L
368.202 132.146 L
368.745 132.279 L
369.288 132.42 L
369.83 132.567 L
370.374 132.721 L
370.917 132.881 L
371.46 133.048 L
372.003 133.222 L
372.545 133.402 L
373.089 133.589 L
373.632 133.783 L
374.174 133.982 L
374.717 134.189 L
375.261 134.401 L
375.803 134.621 L
376.346 134.846 L
376.889 135.078 L
377.432 135.317 L
377.976 135.561 L
378.518 135.813 L
379.061 136.07 L
379.604 136.334 L
380.148 136.604 L
380.691 136.881 L
381.233 137.164 L
381.776 137.453 L
382.319 137.748 L
382.863 138.05 L
383.406 138.358 L
383.948 138.672 L
384.491 138.992 L
385.034 139.319 L
385.578 139.652 L
386.121 139.991 L
386.663 140.337 L
387.206 140.688 L
387.75 141.046 L
388.293 141.41 L
388.836 141.78 L
389.378 142.156 L
389.921 142.539 L
390.465 142.927 L
391.008 143.322 L
391.551 143.723 L
392.094 144.13 L
392.636 144.543 L
393.18 144.963 L
393.723 145.388 L
394.266 145.819 L
394.809 146.257 L
395.352 146.7 L
395.895 147.15 L
396.438 147.605 L
396.98 148.067 L
397.523 148.534 L
398.066 149.007 L
398.609 149.487 L
399.152 149.972 L
399.695 150.463 L
400.239 150.96 L
400.781 151.462 L
401.324 151.971 L
401.867 152.485 L
402.41 153.004 L
402.954 153.53 L
403.497 154.06 L
404.039 154.597 L
404.582 155.138 L
405.125 155.686 L
405.669 156.238 L
406.212 156.796 L
406.754 157.358 L
407.297 157.926 L
407.841 158.499 L
408.384 159.077 L
408.927 159.659 L
409.469 160.246 L
410.012 160.838 L
410.556 161.433 L
411.099 162.034 L
411.642 162.638 L
412.184 163.246 L
412.727 163.858 L
413.271 164.474 L
413.814 165.093 L
414.357 165.715 L
414.899 166.34 L
415.443 166.968 L
415.986 167.599 L
416.529 168.232 L
417.072 168.867 L
417.614 169.503 L
418.158 170.141 L
418.701 170.781 L
419.243 171.421 L
419.786 172.061 L
420.33 172.702 L
420.872 173.342 L
421.415 173.982 L
421.958 174.621 L
422.501 175.258 L
423.045 175.893 L
423.587 176.526 L
424.13 177.156 L
424.673 177.782 L
425.216 178.405 L
425.76 179.023 L
426.302 179.636 L
426.845 180.243 L
427.388 180.844 L
427.932 181.439 L
428.475 182.026 L
429.017 182.604 L
429.56 183.174 L
430.103 183.735 L
430.647 184.285 L
431.19 184.825 L
431.733 185.354 L
432.275 185.87 L
432.818 186.373 L
433.362 186.863 L
433.905 187.339 L
434.448 187.8 L
434.99 188.245 L
435.534 188.675 L
436.077 189.088 L
436.62 189.483 L
437.163 189.861 L
437.705 190.22 L
438.249 190.56 L
438.792 190.881 L
439.335 191.182 L
439.878 191.463 L
440.42 191.724 L
440.964 191.963 L
441.507 192.182 L
442.049 192.38 L
442.592 192.556 L
443.136 192.711 L
443.678 192.844 L
444.221 192.956 L
444.764 193.047 L
445.307 193.116 L
445.851 193.164 L
446.393 193.192 L
446.936 193.199 L
447.479 193.187 L
448.023 193.154 L
448.566 193.102 L
449.108 193.031 L
449.651 192.942 L
450.194 192.835 L
450.738 192.711 L
451.281 192.57 L
451.823 192.414 L
452.366 192.241 L
452.909 192.054 L
453.453 191.853 L
453.996 191.639 L
454.538 191.412 L
455.081 191.172 L
455.625 190.922 L
456.168 190.66 L
456.711 190.389 L
457.253 190.108 L
457.796 189.818 L
458.34 189.521 L
458.883 189.215 L
459.426 188.903 L
459.969 188.585 L
460.511 188.261 L
461.055 187.932 L
461.598 187.599 L
462.141 187.261 L
462.684 186.92 L
463.227 186.576 L
463.77 186.23 L
464.313 185.881 L
464.855 185.531 L
465.398 185.18 L
465.941 184.827 L
466.484 184.475 L
467.027 184.122 L
467.57 183.77 L
468.114 183.419 L
468.656 183.068 L
469.199 182.719 L
469.742 182.371 L
470.285 182.025 L
470.829 181.681 L
471.372 181.339 L
471.914 181 L
472.457 180.664 L
473 180.331 L
473.544 180.001 L
474.087 179.674 L
474.629 179.351 L
475.172 179.031 L
475.716 178.715 L
476.259 178.403 L
476.802 178.095 L
477.344 177.791 L
477.887 177.492 L
478.431 177.196 L
478.974 176.906 L
479.517 176.62 L
480.059 176.338 L
480.602 176.061 L
481.146 175.79 L
481.689 175.522 L
482.232 175.26 L
482.774 175.003 L
483.318 174.751 L
483.861 174.503 L
484.404 174.261 L
484.947 174.024 L
485.489 173.792 L
486.033 173.566 L
486.576 173.344 L
487.118 173.128 L
487.661 172.917 L
488.205 172.711 L
488.747 172.51 L
489.29 172.315 L
489.833 172.125 L
490.376 171.94 L
490.92 171.761 L
491.462 171.587 L
492.005 171.418 L
492.548 171.254 L
493.091 171.096 L
493.635 170.943 L
494.177 170.795 L
494.72 170.652 L
495.263 170.515 L
495.807 170.383 L
496.35 170.256 L
496.892 170.135 L
497.435 170.018 L
497.978 169.907 L
498.522 169.801 L
499.065 169.699 L
499.608 169.604 L
500.15 169.513 L
500.693 169.427 L
501.237 169.346 L
501.78 169.271 L
502.323 169.2 L
502.865 169.134 L
503.409 169.074 L
503.952 169.018 L
504.495 168.967 L
505.038 168.921 L
505.58 168.88 L
506.124 168.843 L
506.667 168.812 L
507.21 168.785 L
507.753 168.763 L
508.295 168.746 L
508.839 168.734 L
509.382 168.726 L
509.924 168.722 L
510.467 168.724 L
511.011 168.73 L
511.553 168.74 L
512.096 168.755 L
512.639 168.775 L
513.182 168.798 L
513.726 168.827 L
514.268 168.859 L
514.812 168.896 L
515.354 168.938 L
515.898 168.983 L
516.44 169.033 L
516.984 169.087 L
517.526 169.146 L
518.069 169.208 L
518.612 169.274 L
519.156 169.345 L
519.698 169.419 L
520.242 169.498 L
520.784 169.58 L
521.328 169.666 L
521.87 169.756 L
522.414 169.85 L
522.956 169.948 L
523.5 170.049 L
524.042 170.154 L
524.586 170.263 L
525.128 170.375 L
525.672 170.491 L
526.215 170.61 L
526.758 170.732 L
527.3 170.858 L
527.844 170.988 L
528.386 171.12 L
528.93 171.256 L
529.472 171.395 L
530.016 171.537 L
530.558 171.682 L
531.102 171.83 L
531.645 171.981 L
532.188 172.135 L
532.73 172.292 L
533.273 172.451 L
533.817 172.613 L
534.359 172.778 L
534.903 172.946 L
535.445 173.115 L
535.989 173.288 L
536.531 173.462 L
537.075 173.639 L
537.617 173.818 L
538.16 173.999 L
538.703 174.182 L
539.247 174.368 L
539.789 174.555 L
540.333 174.744 L
540.875 174.934 L
541.419 175.127 L
541.961 175.32 L
542.505 175.516 L
543.047 175.713 L
543.591 175.911 L
544.133 176.11 L
544.677 176.31 L
545.219 176.512 L
545.763 176.714 L
546.306 176.918 L
546.849 177.122 L
547.391 177.326 L
547.935 177.532 L
548.477 177.737 L
549.021 177.944 L
549.563 178.15 L
550.107 178.356 L
550.649 178.563 L
551.193 178.77 L
551.736 178.976 L
552.279 179.182 L
552.821 179.388 L
553.365 179.593 L
553.908 179.798 L
554.451 180.002 L
554.993 180.205 L
555.536 180.407 L
556.08 180.608 L
556.622 180.809 L
557.166 181.007 L
557.708 181.205 L
558.251 181.401 L
558.794 181.595 L
559.338 181.788 L
559.88 181.979 L
560.424 182.168 L
560.966 182.355 L
561.51 182.54 L
562.052 182.723 L
562.596 182.903 L
563.138 183.081 L
563.682 183.256 L
564.224 183.429 L
564.768 183.599 L
565.31 183.766 L
565.854 183.931 L
566.396 184.092 L
566.94 184.25 L
567.482 184.405 L
568.026 184.557 L
568.568 184.705 L
569.112 184.85 L
569.654 184.991 L
570.198 185.129 L
570.74 185.263 L
571.284 185.394 L
571.826 185.52 L
572.37 185.643 L
572.912 185.762 L
573.456 185.877 L
573.999 185.988 L
574.542 186.095 L
575.084 186.198 L
575.628 186.297 L
576.17 186.392 L
576.714 186.483 L
577.257 186.569 L
577.799 186.652 L
578.342 186.73 L
578.885 186.804 L
579.429 186.874 L
579.971 186.939 L
580.514 187.001 L
581.057 187.058 L
581.601 187.111 L
582.143 187.16 L
582.687 187.205 L
583.229 187.246 L
583.773 187.283 L
584.315 187.316 L
584.859 187.345 L
585.401 187.37 L
585.944 187.391 L
586.487 187.409 L
587.031 187.422 L
587.573 187.433 L
588.117 187.439 L
588.659 187.442 L
589.203 187.441 L
589.745 187.437 L
590.289 187.43 L
590.831 187.419 L
591.375 187.406 L
591.917 187.389 L
592.461 187.369 L
593.003 187.347 L
593.547 187.321 L
594.09 187.293 L
594.633 187.262 L
595.175 187.229 L
595.719 187.193 L
596.261 187.155 L
596.805 187.115 L
597.347 187.073 L
597.891 187.029 L
598.433 186.982 L
598.977 186.934 L
599.52 186.884 L
600.063 186.833 L
600.605 186.78 L
601.148 186.725 L
601.692 186.67 L
602.234 186.613 L
602.778 186.555 L
603.32 186.495 L
603.864 186.435 L
604.406 186.375 L
604.95 186.313 L
605.492 186.251 L
606.035 186.188 L
606.578 186.125 L
607.122 186.061 L
607.664 185.998 L
608.208 185.934 L
608.75 185.87 L
609.294 185.806 L
609.836 185.742 L
610.38 185.678 L
610.922 185.615 L
611.466 185.552 L
612.008 185.489 L
612.552 185.427 L
613.094 185.365 L
613.638 185.304 L
614.181 185.244 L
614.724 185.185 L
615.266 185.126 L
615.81 185.068 L
616.352 185.012 L
616.896 184.956 L
617.438 184.902 L
617.982 184.848 L
618.524 184.796 L
619.068 184.746 L
619.611 184.696 L
620.154 184.648 L
620.696 184.601 L
621.24 184.556 L
621.783 184.513 L
622.326 184.471 L
622.868 184.431 L
623.411 184.392 L
623.955 184.355 L
624.497 184.32 L
625.041 184.286 L
625.583 184.254 L
626.126 184.225 L
626.669 184.197 L
627.213 184.171 L
627.755 184.146 L
628.299 184.124 L
628.841 184.104 L
629.385 184.086 L
629.927 184.069 L
630.471 184.055 L
631.013 184.043 L
631.557 184.032 L
632.099 184.024 L
632.643 184.018 L
633.185 184.014 L
633.729 184.012 L
S
GR
%%Trailer
%%Pages: 1
%%EOF
