To, Assignment Name, Value

westbound_red, 	Location, PIN_M24
westbound_green,	Location, PIN_W22
westbound_amber,  Location, PIN_U24

eastbound_red,		Location, PIN_V21
eastbound_green, 	Location, PIN_AA21
eastbound_amber,	Location, PIN_Y19

southbound_red, 	Location, PIN_AD18
southbound_green, Location, PIN_AH19
southbound_amber, Location, PIN_AH18

left_turn[0], Location, PIN_AC18
left_turn[1], Location, PIN_AB18

left_turn_request,Location, PIN_M21


northbound_red, 	Location, PIN_AD17
northbound_green, Location, PIN_AH17
northbound_amber, Location, PIN_AA14


reset_bar,			Location, PIN_M23
clk_27,		 		Location, PIN_B14
enable_fast_clk,  Location, PIN_AB25