Signal Legend:

Key        Signal Name

0        = counter[6..0]
1        = periodic_impulse[11..0]
2        = impulse_response[17..0]
3        = modified_system_under_test:SUT_1|h1[23..0]

Data Table:

Signals-> 0   1    2     3       

sample

-128      100 0    16384 0       
-127      101 0    16384 0       
-126      102 0    16384 0       
-125      103 0    16384 0       
-124      104 0    16384 0       
-123      105 0    16384 0       
-122      106 0    16384 0       
-121      107 0    16384 0       
-120      108 0    16384 0       
-119      109 0    16384 0       
-118      110 0    16384 0       
-117      111 0    16384 0       
-116      112 0    16384 0       
-115      113 0    16384 0       
-114      114 0    16384 0       
-113      115 0    16384 0       
-112      116 0    16384 0       
-111      117 0    16384 0       
-110      118 0    16384 0       
-109      119 0    16384 0       
-108      120 0    16384 0       
-107      121 0    16384 0       
-106      122 0    16384 0       
-105      123 0    16384 0       
-104      124 0    16384 0       
-103      125 0    16384 0       
-102      126 0    16384 0       
-101      127 0    16384 0       
-100      0   2047 16384 2096128 
-99       1   0    16384 0       
-98       2   0    32760 0       
-97       3   0    16384 0       
-96       4   0    16384 0       
-95       5   0    16384 0       
-94       6   0    16384 0       
-93       7   0    16384 0       
-92       8   0    16384 0       
-91       9   0    16384 0       
-90       10  0    16384 0       
-89       11  0    16384 0       
-88       12  0    16384 0       
-87       13  0    16384 0       
-86       14  0    16384 0       
-85       15  0    16384 0       
-84       16  0    16384 0       
-83       17  0    16384 0       
-82       18  0    16384 0       
-81       19  0    16384 0       
-80       20  0    16384 0       
-79       21  0    16384 0       
-78       22  0    16384 0       
-77       23  0    16384 0       
-76       24  0    16384 0       
-75       25  0    16384 0       
-74       26  0    16384 0       
-73       27  0    16384 0       
-72       28  0    16384 0       
-71       29  0    16384 0       
-70       30  0    16384 0       
-69       31  0    16384 0       
-68       32  0    16384 0       
-67       33  0    16384 0       
-66       34  0    16384 0       
-65       35  0    16384 0       
-64       36  0    16384 0       
-63       37  0    16384 0       
-62       38  0    16384 0       
-61       39  0    16384 0       
-60       40  0    16384 0       
-59       41  0    16384 0       
-58       42  0    16384 0       
-57       43  0    16384 0       
-56       44  0    16384 0       
-55       45  0    16384 0       
-54       46  0    16384 0       
-53       47  0    16384 0       
-52       48  0    16384 0       
-51       49  0    16384 0       
-50       50  0    16384 0       
-49       51  0    16384 0       
-48       52  0    16384 0       
-47       53  0    16384 0       
-46       54  0    16384 0       
-45       55  0    16384 0       
-44       56  0    16384 0       
-43       57  0    16384 0       
-42       58  0    16384 0       
-41       59  0    16384 0       
-40       60  0    16384 0       
-39       61  0    16384 0       
-38       62  0    16384 0       
-37       63  0    16384 0       
-36       64  0    16384 0       
-35       65  0    16384 0       
-34       66  0    16384 0       
-33       67  0    16384 0       
-32       68  0    16384 0       
-31       69  0    16384 0       
-30       70  0    16384 0       
-29       71  0    16384 0       
-28       72  0    16384 0       
-27       73  0    16384 0       
-26       74  0    16384 0       
-25       75  0    16384 0       
-24       76  0    16384 0       
-23       77  0    16384 0       
-22       78  0    16384 0       
-21       79  0    16384 0       
-20       80  0    16384 0       
-19       81  0    16384 0       
-18       82  0    16384 0       
-17       83  0    16384 0       
-16       84  0    16384 0       
-15       85  0    16384 0       
-14       86  0    16384 0       
-13       87  0    16384 0       
-12       88  0    16384 0       
-11       89  0    16384 0       
-10       90  0    16384 0       
-9        91  0    16384 0       
-8        92  0    16384 0       
-7        93  0    16384 0       
-6        94  0    16384 0       
-5        95  0    16384 0       
-4        96  0    16384 0       
-3        97  0    16384 0       
-2        98  0    16384 0       
-1        99  0    16384 0       
0         100 0    16384 0       
1         101 0    16384 0       
2         102 0    16384 0       
3         103 0    16384 0       
4         104 0    16384 0       
5         105 0    16384 0       
6         106 0    16384 0       
7         107 0    16384 0       
8         108 0    16384 0       
9         109 0    16384 0       
10        110 0    16384 0       
11        111 0    16384 0       
12        112 0    16384 0       
13        113 0    16384 0       
14        114 0    16384 0       
15        115 0    16384 0       
16        116 0    16384 0       
17        117 0    16384 0       
18        118 0    16384 0       
19        119 0    16384 0       
20        120 0    16384 0       
21        121 0    16384 0       
22        122 0    16384 0       
23        123 0    16384 0       
24        124 0    16384 0       
25        125 0    16384 0       
26        126 0    16384 0       
27        127 0    16384 0       
28        0   2047 16384 2096128 
29        1   0    16384 0       
30        2   0    32760 0       
31        3   0    16384 0       
32        4   0    16384 0       
33        5   0    16384 0       
34        6   0    16384 0       
35        7   0    16384 0       
36        8   0    16384 0       
37        9   0    16384 0       
38        10  0    16384 0       
39        11  0    16384 0       
40        12  0    16384 0       
41        13  0    16384 0       
42        14  0    16384 0       
43        15  0    16384 0       
44        16  0    16384 0       
45        17  0    16384 0       
46        18  0    16384 0       
47        19  0    16384 0       
48        20  0    16384 0       
49        21  0    16384 0       
50        22  0    16384 0       
51        23  0    16384 0       
52        24  0    16384 0       
53        25  0    16384 0       
54        26  0    16384 0       
55        27  0    16384 0       
56        28  0    16384 0       
57        29  0    16384 0       
58        30  0    16384 0       
59        31  0    16384 0       
60        32  0    16384 0       
61        33  0    16384 0       
62        34  0    16384 0       
63        35  0    16384 0       
64        36  0    16384 0       
65        37  0    16384 0       
66        38  0    16384 0       
67        39  0    16384 0       
68        40  0    16384 0       
69        41  0    16384 0       
70        42  0    16384 0       
71        43  0    16384 0       
72        44  0    16384 0       
73        45  0    16384 0       
74        46  0    16384 0       
75        47  0    16384 0       
76        48  0    16384 0       
77        49  0    16384 0       
78        50  0    16384 0       
79        51  0    16384 0       
80        52  0    16384 0       
81        53  0    16384 0       
82        54  0    16384 0       
83        55  0    16384 0       
84        56  0    16384 0       
85        57  0    16384 0       
86        58  0    16384 0       
87        59  0    16384 0       
88        60  0    16384 0       
89        61  0    16384 0       
90        62  0    16384 0       
91        63  0    16384 0       
92        64  0    16384 0       
93        65  0    16384 0       
94        66  0    16384 0       
95        67  0    16384 0       
96        68  0    16384 0       
97        69  0    16384 0       
98        70  0    16384 0       
99        71  0    16384 0       
100       72  0    16384 0       
101       73  0    16384 0       
102       74  0    16384 0       
103       75  0    16384 0       
104       76  0    16384 0       
105       77  0    16384 0       
106       78  0    16384 0       
107       79  0    16384 0       
108       80  0    16384 0       
109       81  0    16384 0       
110       82  0    16384 0       
111       83  0    16384 0       
112       84  0    16384 0       
113       85  0    16384 0       
114       86  0    16384 0       
115       87  0    16384 0       
116       88  0    16384 0       
117       89  0    16384 0       
118       90  0    16384 0       
119       91  0    16384 0       
120       92  0    16384 0       
121       93  0    16384 0       
122       94  0    16384 0       
123       95  0    16384 0       
124       96  0    16384 0       
125       97  0    16384 0       
126       98  0    16384 0       
127       99  0    16384 0       
128       100 0    16384 0       
129       101 0    16384 0       
130       102 0    16384 0       
131       103 0    16384 0       
132       104 0    16384 0       
133       105 0    16384 0       
134       106 0    16384 0       
135       107 0    16384 0       
136       108 0    16384 0       
137       109 0    16384 0       
138       110 0    16384 0       
139       111 0    16384 0       
140       112 0    16384 0       
141       113 0    16384 0       
142       114 0    16384 0       
143       115 0    16384 0       
144       116 0    16384 0       
145       117 0    16384 0       
146       118 0    16384 0       
147       119 0    16384 0       
148       120 0    16384 0       
149       121 0    16384 0       
150       122 0    16384 0       
151       123 0    16384 0       
152       124 0    16384 0       
153       125 0    16384 0       
154       126 0    16384 0       
155       127 0    16384 0       
156       0   2047 16384 2096128 
157       1   0    16384 0       
158       2   0    32760 0       
159       3   0    16384 0       
160       4   0    16384 0       
161       5   0    16384 0       
162       6   0    16384 0       
163       7   0    16384 0       
164       8   0    16384 0       
165       9   0    16384 0       
166       10  0    16384 0       
167       11  0    16384 0       
168       12  0    16384 0       
169       13  0    16384 0       
170       14  0    16384 0       
171       15  0    16384 0       
172       16  0    16384 0       
173       17  0    16384 0       
174       18  0    16384 0       
175       19  0    16384 0       
176       20  0    16384 0       
177       21  0    16384 0       
178       22  0    16384 0       
179       23  0    16384 0       
180       24  0    16384 0       
181       25  0    16384 0       
182       26  0    16384 0       
183       27  0    16384 0       
184       28  0    16384 0       
185       29  0    16384 0       
186       30  0    16384 0       
187       31  0    16384 0       
188       32  0    16384 0       
189       33  0    16384 0       
190       34  0    16384 0       
191       35  0    16384 0       
192       36  0    16384 0       
193       37  0    16384 0       
194       38  0    16384 0       
195       39  0    16384 0       
196       40  0    16384 0       
197       41  0    16384 0       
198       42  0    16384 0       
199       43  0    16384 0       
200       44  0    16384 0       
201       45  0    16384 0       
202       46  0    16384 0       
203       47  0    16384 0       
204       48  0    16384 0       
205       49  0    16384 0       
206       50  0    16384 0       
207       51  0    16384 0       
208       52  0    16384 0       
209       53  0    16384 0       
210       54  0    16384 0       
211       55  0    16384 0       
212       56  0    16384 0       
213       57  0    16384 0       
214       58  0    16384 0       
215       59  0    16384 0       
216       60  0    16384 0       
217       61  0    16384 0       
218       62  0    16384 0       
219       63  0    16384 0       
220       64  0    16384 0       
221       65  0    16384 0       
222       66  0    16384 0       
223       67  0    16384 0       
224       68  0    16384 0       
225       69  0    16384 0       
226       70  0    16384 0       
227       71  0    16384 0       
228       72  0    16384 0       
229       73  0    16384 0       
230       74  0    16384 0       
231       75  0    16384 0       
232       76  0    16384 0       
233       77  0    16384 0       
234       78  0    16384 0       
235       79  0    16384 0       
236       80  0    16384 0       
237       81  0    16384 0       
238       82  0    16384 0       
239       83  0    16384 0       
240       84  0    16384 0       
241       85  0    16384 0       
242       86  0    16384 0       
243       87  0    16384 0       
244       88  0    16384 0       
245       89  0    16384 0       
246       90  0    16384 0       
247       91  0    16384 0       
248       92  0    16384 0       
249       93  0    16384 0       
250       94  0    16384 0       
251       95  0    16384 0       
252       96  0    16384 0       
253       97  0    16384 0       
254       98  0    16384 0       
255       99  0    16384 0       
256       100 0    16384 0       
257       101 0    16384 0       
258       102 0    16384 0       
259       103 0    16384 0       
260       104 0    16384 0       
261       105 0    16384 0       
262       106 0    16384 0       
263       107 0    16384 0       
264       108 0    16384 0       
265       109 0    16384 0       
266       110 0    16384 0       
267       111 0    16384 0       
268       112 0    16384 0       
269       113 0    16384 0       
270       114 0    16384 0       
271       115 0    16384 0       
272       116 0    16384 0       
273       117 0    16384 0       
274       118 0    16384 0       
275       119 0    16384 0       
276       120 0    16384 0       
277       121 0    16384 0       
278       122 0    16384 0       
279       123 0    16384 0       
280       124 0    16384 0       
281       125 0    16384 0       
282       126 0    16384 0       
283       127 0    16384 0       
284       0   2047 16384 2096128 
285       1   0    16384 0       
286       2   0    32760 0       
287       3   0    16384 0       
288       4   0    16384 0       
289       5   0    16384 0       
290       6   0    16384 0       
291       7   0    16384 0       
292       8   0    16384 0       
293       9   0    16384 0       
294       10  0    16384 0       
295       11  0    16384 0       
296       12  0    16384 0       
297       13  0    16384 0       
298       14  0    16384 0       
299       15  0    16384 0       
300       16  0    16384 0       
301       17  0    16384 0       
302       18  0    16384 0       
303       19  0    16384 0       
304       20  0    16384 0       
305       21  0    16384 0       
306       22  0    16384 0       
307       23  0    16384 0       
308       24  0    16384 0       
309       25  0    16384 0       
310       26  0    16384 0       
311       27  0    16384 0       
312       28  0    16384 0       
313       29  0    16384 0       
314       30  0    16384 0       
315       31  0    16384 0       
316       32  0    16384 0       
317       33  0    16384 0       
318       34  0    16384 0       
319       35  0    16384 0       
320       36  0    16384 0       
321       37  0    16384 0       
322       38  0    16384 0       
323       39  0    16384 0       
324       40  0    16384 0       
325       41  0    16384 0       
326       42  0    16384 0       
327       43  0    16384 0       
328       44  0    16384 0       
329       45  0    16384 0       
330       46  0    16384 0       
331       47  0    16384 0       
332       48  0    16384 0       
333       49  0    16384 0       
334       50  0    16384 0       
335       51  0    16384 0       
336       52  0    16384 0       
337       53  0    16384 0       
338       54  0    16384 0       
339       55  0    16384 0       
340       56  0    16384 0       
341       57  0    16384 0       
342       58  0    16384 0       
343       59  0    16384 0       
344       60  0    16384 0       
345       61  0    16384 0       
346       62  0    16384 0       
347       63  0    16384 0       
348       64  0    16384 0       
349       65  0    16384 0       
350       66  0    16384 0       
351       67  0    16384 0       
352       68  0    16384 0       
353       69  0    16384 0       
354       70  0    16384 0       
355       71  0    16384 0       
356       72  0    16384 0       
357       73  0    16384 0       
358       74  0    16384 0       
359       75  0    16384 0       
360       76  0    16384 0       
361       77  0    16384 0       
362       78  0    16384 0       
363       79  0    16384 0       
364       80  0    16384 0       
365       81  0    16384 0       
366       82  0    16384 0       
367       83  0    16384 0       
368       84  0    16384 0       
369       85  0    16384 0       
370       86  0    16384 0       
371       87  0    16384 0       
372       88  0    16384 0       
373       89  0    16384 0       
374       90  0    16384 0       
375       91  0    16384 0       
376       92  0    16384 0       
377       93  0    16384 0       
378       94  0    16384 0       
379       95  0    16384 0       
380       96  0    16384 0       
381       97  0    16384 0       
382       98  0    16384 0       
383       99  0    16384 0       
384       100 0    16384 0       
385       101 0    16384 0       
386       102 0    16384 0       
387       103 0    16384 0       
388       104 0    16384 0       
389       105 0    16384 0       
390       106 0    16384 0       
391       107 0    16384 0       
392       108 0    16384 0       
393       109 0    16384 0       
394       110 0    16384 0       
395       111 0    16384 0       
396       112 0    16384 0       
397       113 0    16384 0       
398       114 0    16384 0       
399       115 0    16384 0       
400       116 0    16384 0       
401       117 0    16384 0       
402       118 0    16384 0       
403       119 0    16384 0       
404       120 0    16384 0       
405       121 0    16384 0       
406       122 0    16384 0       
407       123 0    16384 0       
408       124 0    16384 0       
409       125 0    16384 0       
410       126 0    16384 0       
411       127 0    16384 0       
412       0   2047 16384 2096128 
413       1   0    16384 0       
414       2   0    32760 0       
415       3   0    16384 0       
416       4   0    16384 0       
417       5   0    16384 0       
418       6   0    16384 0       
419       7   0    16384 0       
420       8   0    16384 0       
421       9   0    16384 0       
422       10  0    16384 0       
423       11  0    16384 0       
424       12  0    16384 0       
425       13  0    16384 0       
426       14  0    16384 0       
427       15  0    16384 0       
428       16  0    16384 0       
429       17  0    16384 0       
430       18  0    16384 0       
431       19  0    16384 0       
432       20  0    16384 0       
433       21  0    16384 0       
434       22  0    16384 0       
435       23  0    16384 0       
436       24  0    16384 0       
437       25  0    16384 0       
438       26  0    16384 0       
439       27  0    16384 0       
440       28  0    16384 0       
441       29  0    16384 0       
442       30  0    16384 0       
443       31  0    16384 0       
444       32  0    16384 0       
445       33  0    16384 0       
446       34  0    16384 0       
447       35  0    16384 0       
448       36  0    16384 0       
449       37  0    16384 0       
450       38  0    16384 0       
451       39  0    16384 0       
452       40  0    16384 0       
453       41  0    16384 0       
454       42  0    16384 0       
455       43  0    16384 0       
456       44  0    16384 0       
457       45  0    16384 0       
458       46  0    16384 0       
459       47  0    16384 0       
460       48  0    16384 0       
461       49  0    16384 0       
462       50  0    16384 0       
463       51  0    16384 0       
464       52  0    16384 0       
465       53  0    16384 0       
466       54  0    16384 0       
467       55  0    16384 0       
468       56  0    16384 0       
469       57  0    16384 0       
470       58  0    16384 0       
471       59  0    16384 0       
472       60  0    16384 0       
473       61  0    16384 0       
474       62  0    16384 0       
475       63  0    16384 0       
476       64  0    16384 0       
477       65  0    16384 0       
478       66  0    16384 0       
479       67  0    16384 0       
480       68  0    16384 0       
481       69  0    16384 0       
482       70  0    16384 0       
483       71  0    16384 0       
484       72  0    16384 0       
485       73  0    16384 0       
486       74  0    16384 0       
487       75  0    16384 0       
488       76  0    16384 0       
489       77  0    16384 0       
490       78  0    16384 0       
491       79  0    16384 0       
492       80  0    16384 0       
493       81  0    16384 0       
494       82  0    16384 0       
495       83  0    16384 0       
496       84  0    16384 0       
497       85  0    16384 0       
498       86  0    16384 0       
499       87  0    16384 0       
500       88  0    16384 0       
501       89  0    16384 0       
502       90  0    16384 0       
503       91  0    16384 0       
504       92  0    16384 0       
505       93  0    16384 0       
506       94  0    16384 0       
507       95  0    16384 0       
508       96  0    16384 0       
509       97  0    16384 0       
510       98  0    16384 0       
511       99  0    16384 0       
512       100 0    16384 0       
513       101 0    16384 0       
514       102 0    16384 0       
515       103 0    16384 0       
516       104 0    16384 0       
517       105 0    16384 0       
518       106 0    16384 0       
519       107 0    16384 0       
520       108 0    16384 0       
521       109 0    16384 0       
522       110 0    16384 0       
523       111 0    16384 0       
524       112 0    16384 0       
525       113 0    16384 0       
526       114 0    16384 0       
527       115 0    16384 0       
528       116 0    16384 0       
529       117 0    16384 0       
530       118 0    16384 0       
531       119 0    16384 0       
532       120 0    16384 0       
533       121 0    16384 0       
534       122 0    16384 0       
535       123 0    16384 0       
536       124 0    16384 0       
537       125 0    16384 0       
538       126 0    16384 0       
539       127 0    16384 0       
540       0   2047 16384 2096128 
541       1   0    16384 0       
542       2   0    32760 0       
543       3   0    16384 0       
544       4   0    16384 0       
545       5   0    16384 0       
546       6   0    16384 0       
547       7   0    16384 0       
548       8   0    16384 0       
549       9   0    16384 0       
550       10  0    16384 0       
551       11  0    16384 0       
552       12  0    16384 0       
553       13  0    16384 0       
554       14  0    16384 0       
555       15  0    16384 0       
556       16  0    16384 0       
557       17  0    16384 0       
558       18  0    16384 0       
559       19  0    16384 0       
560       20  0    16384 0       
561       21  0    16384 0       
562       22  0    16384 0       
563       23  0    16384 0       
564       24  0    16384 0       
565       25  0    16384 0       
566       26  0    16384 0       
567       27  0    16384 0       
568       28  0    16384 0       
569       29  0    16384 0       
570       30  0    16384 0       
571       31  0    16384 0       
572       32  0    16384 0       
573       33  0    16384 0       
574       34  0    16384 0       
575       35  0    16384 0       
576       36  0    16384 0       
577       37  0    16384 0       
578       38  0    16384 0       
579       39  0    16384 0       
580       40  0    16384 0       
581       41  0    16384 0       
582       42  0    16384 0       
583       43  0    16384 0       
584       44  0    16384 0       
585       45  0    16384 0       
586       46  0    16384 0       
587       47  0    16384 0       
588       48  0    16384 0       
589       49  0    16384 0       
590       50  0    16384 0       
591       51  0    16384 0       
592       52  0    16384 0       
593       53  0    16384 0       
594       54  0    16384 0       
595       55  0    16384 0       
596       56  0    16384 0       
597       57  0    16384 0       
598       58  0    16384 0       
599       59  0    16384 0       
600       60  0    16384 0       
601       61  0    16384 0       
602       62  0    16384 0       
603       63  0    16384 0       
604       64  0    16384 0       
605       65  0    16384 0       
606       66  0    16384 0       
607       67  0    16384 0       
608       68  0    16384 0       
609       69  0    16384 0       
610       70  0    16384 0       
611       71  0    16384 0       
612       72  0    16384 0       
613       73  0    16384 0       
614       74  0    16384 0       
615       75  0    16384 0       
616       76  0    16384 0       
617       77  0    16384 0       
618       78  0    16384 0       
619       79  0    16384 0       
620       80  0    16384 0       
621       81  0    16384 0       
622       82  0    16384 0       
623       83  0    16384 0       
624       84  0    16384 0       
625       85  0    16384 0       
626       86  0    16384 0       
627       87  0    16384 0       
628       88  0    16384 0       
629       89  0    16384 0       
630       90  0    16384 0       
631       91  0    16384 0       
632       92  0    16384 0       
633       93  0    16384 0       
634       94  0    16384 0       
635       95  0    16384 0       
636       96  0    16384 0       
637       97  0    16384 0       
638       98  0    16384 0       
639       99  0    16384 0       
640       100 0    16384 0       
641       101 0    16384 0       
642       102 0    16384 0       
643       103 0    16384 0       
644       104 0    16384 0       
645       105 0    16384 0       
646       106 0    16384 0       
647       107 0    16384 0       
648       108 0    16384 0       
649       109 0    16384 0       
650       110 0    16384 0       
651       111 0    16384 0       
652       112 0    16384 0       
653       113 0    16384 0       
654       114 0    16384 0       
655       115 0    16384 0       
656       116 0    16384 0       
657       117 0    16384 0       
658       118 0    16384 0       
659       119 0    16384 0       
660       120 0    16384 0       
661       121 0    16384 0       
662       122 0    16384 0       
663       123 0    16384 0       
664       124 0    16384 0       
665       125 0    16384 0       
666       126 0    16384 0       
667       127 0    16384 0       
668       0   2047 16384 2096128 
669       1   0    16384 0       
670       2   0    32760 0       
671       3   0    16384 0       
672       4   0    16384 0       
673       5   0    16384 0       
674       6   0    16384 0       
675       7   0    16384 0       
676       8   0    16384 0       
677       9   0    16384 0       
678       10  0    16384 0       
679       11  0    16384 0       
680       12  0    16384 0       
681       13  0    16384 0       
682       14  0    16384 0       
683       15  0    16384 0       
684       16  0    16384 0       
685       17  0    16384 0       
686       18  0    16384 0       
687       19  0    16384 0       
688       20  0    16384 0       
689       21  0    16384 0       
690       22  0    16384 0       
691       23  0    16384 0       
692       24  0    16384 0       
693       25  0    16384 0       
694       26  0    16384 0       
695       27  0    16384 0       
696       28  0    16384 0       
697       29  0    16384 0       
698       30  0    16384 0       
699       31  0    16384 0       
700       32  0    16384 0       
701       33  0    16384 0       
702       34  0    16384 0       
703       35  0    16384 0       
704       36  0    16384 0       
705       37  0    16384 0       
706       38  0    16384 0       
707       39  0    16384 0       
708       40  0    16384 0       
709       41  0    16384 0       
710       42  0    16384 0       
711       43  0    16384 0       
712       44  0    16384 0       
713       45  0    16384 0       
714       46  0    16384 0       
715       47  0    16384 0       
716       48  0    16384 0       
717       49  0    16384 0       
718       50  0    16384 0       
719       51  0    16384 0       
720       52  0    16384 0       
721       53  0    16384 0       
722       54  0    16384 0       
723       55  0    16384 0       
724       56  0    16384 0       
725       57  0    16384 0       
726       58  0    16384 0       
727       59  0    16384 0       
728       60  0    16384 0       
729       61  0    16384 0       
730       62  0    16384 0       
731       63  0    16384 0       
732       64  0    16384 0       
733       65  0    16384 0       
734       66  0    16384 0       
735       67  0    16384 0       
736       68  0    16384 0       
737       69  0    16384 0       
738       70  0    16384 0       
739       71  0    16384 0       
740       72  0    16384 0       
741       73  0    16384 0       
742       74  0    16384 0       
743       75  0    16384 0       
744       76  0    16384 0       
745       77  0    16384 0       
746       78  0    16384 0       
747       79  0    16384 0       
748       80  0    16384 0       
749       81  0    16384 0       
750       82  0    16384 0       
751       83  0    16384 0       
752       84  0    16384 0       
753       85  0    16384 0       
754       86  0    16384 0       
755       87  0    16384 0       
756       88  0    16384 0       
757       89  0    16384 0       
758       90  0    16384 0       
759       91  0    16384 0       
760       92  0    16384 0       
761       93  0    16384 0       
762       94  0    16384 0       
763       95  0    16384 0       
764       96  0    16384 0       
765       97  0    16384 0       
766       98  0    16384 0       
767       99  0    16384 0       
768       100 0    16384 0       
769       101 0    16384 0       
770       102 0    16384 0       
771       103 0    16384 0       
772       104 0    16384 0       
773       105 0    16384 0       
774       106 0    16384 0       
775       107 0    16384 0       
776       108 0    16384 0       
777       109 0    16384 0       
778       110 0    16384 0       
779       111 0    16384 0       
780       112 0    16384 0       
781       113 0    16384 0       
782       114 0    16384 0       
783       115 0    16384 0       
784       116 0    16384 0       
785       117 0    16384 0       
786       118 0    16384 0       
787       119 0    16384 0       
788       120 0    16384 0       
789       121 0    16384 0       
790       122 0    16384 0       
791       123 0    16384 0       
792       124 0    16384 0       
793       125 0    16384 0       
794       126 0    16384 0       
795       127 0    16384 0       
796       0   2047 16384 2096128 
797       1   0    16384 0       
798       2   0    32760 0       
799       3   0    16384 0       
800       4   0    16384 0       
801       5   0    16384 0       
802       6   0    16384 0       
803       7   0    16384 0       
804       8   0    16384 0       
805       9   0    16384 0       
806       10  0    16384 0       
807       11  0    16384 0       
808       12  0    16384 0       
809       13  0    16384 0       
810       14  0    16384 0       
811       15  0    16384 0       
812       16  0    16384 0       
813       17  0    16384 0       
814       18  0    16384 0       
815       19  0    16384 0       
816       20  0    16384 0       
817       21  0    16384 0       
818       22  0    16384 0       
819       23  0    16384 0       
820       24  0    16384 0       
821       25  0    16384 0       
822       26  0    16384 0       
823       27  0    16384 0       
824       28  0    16384 0       
825       29  0    16384 0       
826       30  0    16384 0       
827       31  0    16384 0       
828       32  0    16384 0       
829       33  0    16384 0       
830       34  0    16384 0       
831       35  0    16384 0       
832       36  0    16384 0       
833       37  0    16384 0       
834       38  0    16384 0       
835       39  0    16384 0       
836       40  0    16384 0       
837       41  0    16384 0       
838       42  0    16384 0       
839       43  0    16384 0       
840       44  0    16384 0       
841       45  0    16384 0       
842       46  0    16384 0       
843       47  0    16384 0       
844       48  0    16384 0       
845       49  0    16384 0       
846       50  0    16384 0       
847       51  0    16384 0       
848       52  0    16384 0       
849       53  0    16384 0       
850       54  0    16384 0       
851       55  0    16384 0       
852       56  0    16384 0       
853       57  0    16384 0       
854       58  0    16384 0       
855       59  0    16384 0       
856       60  0    16384 0       
857       61  0    16384 0       
858       62  0    16384 0       
859       63  0    16384 0       
860       64  0    16384 0       
861       65  0    16384 0       
862       66  0    16384 0       
863       67  0    16384 0       
864       68  0    16384 0       
865       69  0    16384 0       
866       70  0    16384 0       
867       71  0    16384 0       
868       72  0    16384 0       
869       73  0    16384 0       
870       74  0    16384 0       
871       75  0    16384 0       
872       76  0    16384 0       
873       77  0    16384 0       
874       78  0    16384 0       
875       79  0    16384 0       
876       80  0    16384 0       
877       81  0    16384 0       
878       82  0    16384 0       
879       83  0    16384 0       
880       84  0    16384 0       
881       85  0    16384 0       
882       86  0    16384 0       
883       87  0    16384 0       
884       88  0    16384 0       
885       89  0    16384 0       
886       90  0    16384 0       
887       91  0    16384 0       
888       92  0    16384 0       
889       93  0    16384 0       
890       94  0    16384 0       
891       95  0    16384 0       
892       96  0    16384 0       
893       97  0    16384 0       
894       98  0    16384 0       
895       99  0    16384 0       
