%!PS-Adobe-3.0 EPSF-3.0
%%Creator: (MATLAB, The Mathworks, Inc. Version 9.0.0.341360 \(R2016a\). Operating System: Windows 8)
%%Title: ./mag_response_with_practical_coefficients.eps
%%CreationDate: 2018-01-12T12:06:25
%%Pages: (atend)
%%BoundingBox:    14     2   387   295
%%LanguageLevel: 3
%%EndComments
%%BeginProlog
%%BeginResource: procset (Apache XML Graphics Std ProcSet) 1.2 0
%%Version: 1.2 0
%%Copyright: (Copyright 2001-2003,2010 The Apache Software Foundation. License terms: http://www.apache.org/licenses/LICENSE-2.0)
/bd{bind def}bind def
/ld{load def}bd
/GR/grestore ld
/M/moveto ld
/LJ/setlinejoin ld
/C/curveto ld
/f/fill ld
/LW/setlinewidth ld
/GC/setgray ld
/t/show ld
/N/newpath ld
/CT/concat ld
/cp/closepath ld
/S/stroke ld
/L/lineto ld
/CC/setcmykcolor ld
/A/ashow ld
/GS/gsave ld
/RC/setrgbcolor ld
/RM/rmoveto ld
/ML/setmiterlimit ld
/re {4 2 roll M
1 index 0 rlineto
0 exch rlineto
neg 0 rlineto
cp } bd
/_ctm matrix def
/_tm matrix def
/BT { _ctm currentmatrix pop matrix _tm copy pop 0 0 moveto } bd
/ET { _ctm setmatrix } bd
/iTm { _ctm setmatrix _tm concat } bd
/Tm { _tm astore pop iTm 0 0 moveto } bd
/ux 0.0 def
/uy 0.0 def
/F {
  /Tp exch def
  /Tf exch def
  Tf findfont Tp scalefont setfont
  /cf Tf def  /cs Tp def
} bd
/ULS {currentpoint /uy exch def /ux exch def} bd
/ULE {
  /Tcx currentpoint pop def
  gsave
  newpath
  cf findfont cs scalefont dup
  /FontMatrix get 0 get /Ts exch def /FontInfo get dup
  /UnderlinePosition get Ts mul /To exch def
  /UnderlineThickness get Ts mul /Tt exch def
  ux uy To add moveto  Tcx uy To add lineto
  Tt setlinewidth stroke
  grestore
} bd
/OLE {
  /Tcx currentpoint pop def
  gsave
  newpath
  cf findfont cs scalefont dup
  /FontMatrix get 0 get /Ts exch def /FontInfo get dup
  /UnderlinePosition get Ts mul /To exch def
  /UnderlineThickness get Ts mul /Tt exch def
  ux uy To add cs add moveto Tcx uy To add cs add lineto
  Tt setlinewidth stroke
  grestore
} bd
/SOE {
  /Tcx currentpoint pop def
  gsave
  newpath
  cf findfont cs scalefont dup
  /FontMatrix get 0 get /Ts exch def /FontInfo get dup
  /UnderlinePosition get Ts mul /To exch def
  /UnderlineThickness get Ts mul /Tt exch def
  ux uy To add cs 10 mul 26 idiv add moveto Tcx uy To add cs 10 mul 26 idiv add lineto
  Tt setlinewidth stroke
  grestore
} bd
/QT {
/Y22 exch store
/X22 exch store
/Y21 exch store
/X21 exch store
currentpoint
/Y21 load 2 mul add 3 div exch
/X21 load 2 mul add 3 div exch
/X21 load 2 mul /X22 load add 3 div
/Y21 load 2 mul /Y22 load add 3 div
/X22 load /Y22 load curveto
} bd
/SSPD {
dup length /d exch dict def
{
/v exch def
/k exch def
currentpagedevice k known {
/cpdv currentpagedevice k get def
v cpdv ne {
/upd false def
/nullv v type /nulltype eq def
/nullcpdv cpdv type /nulltype eq def
nullv nullcpdv or
{
/upd true def
} {
/sametype v type cpdv type eq def
sametype {
v type /arraytype eq {
/vlen v length def
/cpdvlen cpdv length def
vlen cpdvlen eq {
0 1 vlen 1 sub {
/i exch def
/obj v i get def
/cpdobj cpdv i get def
obj cpdobj ne {
/upd true def
exit
} if
} for
} {
/upd true def
} ifelse
} {
v type /dicttype eq {
v {
/dv exch def
/dk exch def
/cpddv cpdv dk get def
dv cpddv ne {
/upd true def
exit
} if
} forall
} {
/upd true def
} ifelse
} ifelse
} if
} ifelse
upd true eq {
d k v put
} if
} if
} if
} forall
d length 0 gt {
d setpagedevice
} if
} bd
%%EndResource
%%BeginResource: procset (Apache XML Graphics EPS ProcSet) 1.0 0
%%Version: 1.0 0
%%Copyright: (Copyright 2002-2003 The Apache Software Foundation. License terms: http://www.apache.org/licenses/LICENSE-2.0)
/BeginEPSF { %def
/b4_Inc_state save def         % Save state for cleanup
/dict_count countdictstack def % Count objects on dict stack
/op_count count 1 sub def      % Count objects on operand stack
userdict begin                 % Push userdict on dict stack
/showpage { } def              % Redefine showpage, { } = null proc
0 setgray 0 setlinecap         % Prepare graphics state
1 setlinewidth 0 setlinejoin
10 setmiterlimit [ ] 0 setdash newpath
/languagelevel where           % If level not equal to 1 then
{pop languagelevel             % set strokeadjust and
1 ne                           % overprint to their defaults.
{false setstrokeadjust false setoverprint
} if
} if
} bd
/EndEPSF { %def
count op_count sub {pop} repeat            % Clean up stacks
countdictstack dict_count sub {end} repeat
b4_Inc_state restore
} bd
%%EndResource
%FOPBeginFontDict
%%IncludeResource: font Courier-Bold
%%IncludeResource: font Helvetica
%%IncludeResource: font Courier-BoldOblique
%%IncludeResource: font Courier-Oblique
%%IncludeResource: font Times-Roman
%%IncludeResource: font Helvetica-BoldOblique
%%IncludeResource: font Helvetica-Bold
%%IncludeResource: font Helvetica-Oblique
%%IncludeResource: font Times-BoldItalic
%%IncludeResource: font Courier
%%IncludeResource: font Times-Italic
%%IncludeResource: font Times-Bold
%%IncludeResource: font Symbol
%%IncludeResource: font ZapfDingbats
%FOPEndFontDict
%%BeginResource: encoding WinAnsiEncoding
/WinAnsiEncoding [
/.notdef /.notdef /.notdef /.notdef /.notdef
/.notdef /.notdef /.notdef /.notdef /.notdef
/.notdef /.notdef /.notdef /.notdef /.notdef
/.notdef /.notdef /.notdef /.notdef /.notdef
/.notdef /.notdef /.notdef /.notdef /.notdef
/.notdef /.notdef /.notdef /.notdef /.notdef
/.notdef /.notdef /space /exclam /quotedbl
/numbersign /dollar /percent /ampersand /quotesingle
/parenleft /parenright /asterisk /plus /comma
/hyphen /period /slash /zero /one
/two /three /four /five /six
/seven /eight /nine /colon /semicolon
/less /equal /greater /question /at
/A /B /C /D /E
/F /G /H /I /J
/K /L /M /N /O
/P /Q /R /S /T
/U /V /W /X /Y
/Z /bracketleft /backslash /bracketright /asciicircum
/underscore /quoteleft /a /b /c
/d /e /f /g /h
/i /j /k /l /m
/n /o /p /q /r
/s /t /u /v /w
/x /y /z /braceleft /bar
/braceright /asciitilde /bullet /Euro /bullet
/quotesinglbase /florin /quotedblbase /ellipsis /dagger
/daggerdbl /circumflex /perthousand /Scaron /guilsinglleft
/OE /bullet /Zcaron /bullet /bullet
/quoteleft /quoteright /quotedblleft /quotedblright /bullet
/endash /emdash /asciitilde /trademark /scaron
/guilsinglright /oe /bullet /zcaron /Ydieresis
/space /exclamdown /cent /sterling /currency
/yen /brokenbar /section /dieresis /copyright
/ordfeminine /guillemotleft /logicalnot /sfthyphen /registered
/macron /degree /plusminus /twosuperior /threesuperior
/acute /mu /paragraph /middot /cedilla
/onesuperior /ordmasculine /guillemotright /onequarter /onehalf
/threequarters /questiondown /Agrave /Aacute /Acircumflex
/Atilde /Adieresis /Aring /AE /Ccedilla
/Egrave /Eacute /Ecircumflex /Edieresis /Igrave
/Iacute /Icircumflex /Idieresis /Eth /Ntilde
/Ograve /Oacute /Ocircumflex /Otilde /Odieresis
/multiply /Oslash /Ugrave /Uacute /Ucircumflex
/Udieresis /Yacute /Thorn /germandbls /agrave
/aacute /acircumflex /atilde /adieresis /aring
/ae /ccedilla /egrave /eacute /ecircumflex
/edieresis /igrave /iacute /icircumflex /idieresis
/eth /ntilde /ograve /oacute /ocircumflex
/otilde /odieresis /divide /oslash /ugrave
/uacute /ucircumflex /udieresis /yacute /thorn
/ydieresis
] def
%%EndResource
%FOPBeginFontReencode
/Courier-Bold findfont
dup length dict begin
  {1 index /FID ne {def} {pop pop} ifelse} forall
  /Encoding WinAnsiEncoding def
  currentdict
end
/Courier-Bold exch definefont pop
/Helvetica findfont
dup length dict begin
  {1 index /FID ne {def} {pop pop} ifelse} forall
  /Encoding WinAnsiEncoding def
  currentdict
end
/Helvetica exch definefont pop
/Courier-BoldOblique findfont
dup length dict begin
  {1 index /FID ne {def} {pop pop} ifelse} forall
  /Encoding WinAnsiEncoding def
  currentdict
end
/Courier-BoldOblique exch definefont pop
/Courier-Oblique findfont
dup length dict begin
  {1 index /FID ne {def} {pop pop} ifelse} forall
  /Encoding WinAnsiEncoding def
  currentdict
end
/Courier-Oblique exch definefont pop
/Times-Roman findfont
dup length dict begin
  {1 index /FID ne {def} {pop pop} ifelse} forall
  /Encoding WinAnsiEncoding def
  currentdict
end
/Times-Roman exch definefont pop
/Helvetica-BoldOblique findfont
dup length dict begin
  {1 index /FID ne {def} {pop pop} ifelse} forall
  /Encoding WinAnsiEncoding def
  currentdict
end
/Helvetica-BoldOblique exch definefont pop
/Helvetica-Bold findfont
dup length dict begin
  {1 index /FID ne {def} {pop pop} ifelse} forall
  /Encoding WinAnsiEncoding def
  currentdict
end
/Helvetica-Bold exch definefont pop
/Helvetica-Oblique findfont
dup length dict begin
  {1 index /FID ne {def} {pop pop} ifelse} forall
  /Encoding WinAnsiEncoding def
  currentdict
end
/Helvetica-Oblique exch definefont pop
/Times-BoldItalic findfont
dup length dict begin
  {1 index /FID ne {def} {pop pop} ifelse} forall
  /Encoding WinAnsiEncoding def
  currentdict
end
/Times-BoldItalic exch definefont pop
/Courier findfont
dup length dict begin
  {1 index /FID ne {def} {pop pop} ifelse} forall
  /Encoding WinAnsiEncoding def
  currentdict
end
/Courier exch definefont pop
/Times-Italic findfont
dup length dict begin
  {1 index /FID ne {def} {pop pop} ifelse} forall
  /Encoding WinAnsiEncoding def
  currentdict
end
/Times-Italic exch definefont pop
/Times-Bold findfont
dup length dict begin
  {1 index /FID ne {def} {pop pop} ifelse} forall
  /Encoding WinAnsiEncoding def
  currentdict
end
/Times-Bold exch definefont pop
%FOPEndFontReencode
%%EndProlog
%%Page: 1 1
%%PageBoundingBox: 0 0 420 315
%%BeginPageSetup
[1 0 0 -1 0 315] CT
%%EndPageSetup
GS
[0.75 0 0 0.75 0 0] CT
0.997 GC
N
0 0 560 420 re
f
GR
GS
[0.75 0 0 0.75 0 0] CT
0.997 GC
N
0 0 560 420 re
f
GR
GS
[0.75 0 0 0.75 0 0] CT
0.997 GC
N
73 374 M
507 374 L
507 31 L
73 31 L
cp
f
GR
GS
[0.75 0 0 0.75 0 0] CT
0.846 GC
1 LJ
0.667 LW
N
73 374 M
73 31 L
S
GR
GS
[0.75 0 0 0.75 0 0] CT
0.846 GC
1 LJ
0.667 LW
N
116.4 374 M
116.4 31 L
S
GR
GS
[0.75 0 0 0.75 0 0] CT
0.846 GC
1 LJ
0.667 LW
N
159.8 374 M
159.8 31 L
S
GR
GS
[0.75 0 0 0.75 0 0] CT
0.846 GC
1 LJ
0.667 LW
N
203.2 374 M
203.2 31 L
S
GR
GS
[0.75 0 0 0.75 0 0] CT
0.846 GC
1 LJ
0.667 LW
N
246.6 374 M
246.6 31 L
S
GR
GS
[0.75 0 0 0.75 0 0] CT
0.846 GC
1 LJ
0.667 LW
N
290 374 M
290 31 L
S
GR
GS
[0.75 0 0 0.75 0 0] CT
0.846 GC
1 LJ
0.667 LW
N
333.4 374 M
333.4 31 L
S
GR
GS
[0.75 0 0 0.75 0 0] CT
0.846 GC
1 LJ
0.667 LW
N
376.8 374 M
376.8 31 L
S
GR
GS
[0.75 0 0 0.75 0 0] CT
0.846 GC
1 LJ
0.667 LW
N
420.2 374 M
420.2 31 L
S
GR
GS
[0.75 0 0 0.75 0 0] CT
0.846 GC
1 LJ
0.667 LW
N
463.6 374 M
463.6 31 L
S
GR
GS
[0.75 0 0 0.75 0 0] CT
0.846 GC
1 LJ
0.667 LW
N
507 374 M
507 31 L
S
GR
GS
[0.75 0 0 0.75 0 0] CT
0.846 GC
1 LJ
0.667 LW
N
507 374 M
73 374 L
S
GR
GS
[0.75 0 0 0.75 0 0] CT
0.846 GC
1 LJ
0.667 LW
N
507 316.833 M
73 316.833 L
S
GR
GS
[0.75 0 0 0.75 0 0] CT
0.846 GC
1 LJ
0.667 LW
N
507 259.667 M
73 259.667 L
S
GR
GS
[0.75 0 0 0.75 0 0] CT
0.846 GC
1 LJ
0.667 LW
N
507 202.5 M
73 202.5 L
S
GR
GS
[0.75 0 0 0.75 0 0] CT
0.846 GC
1 LJ
0.667 LW
N
507 145.333 M
73 145.333 L
S
GR
GS
[0.75 0 0 0.75 0 0] CT
0.846 GC
1 LJ
0.667 LW
N
507 88.167 M
73 88.167 L
S
GR
GS
[0.75 0 0 0.75 0 0] CT
0.846 GC
1 LJ
0.667 LW
N
507 31 M
73 31 L
S
GR
GS
[0.75 0 0 0.75 0 0] CT
0 GC
2 setlinecap
1 LJ
0.667 LW
N
73 374 M
507 374 L
S
GR
GS
[0.75 0 0 0.75 0 0] CT
0 GC
2 setlinecap
1 LJ
0.667 LW
N
73 31 M
507 31 L
S
GR
GS
[0.75 0 0 0.75 0 0] CT
0 GC
2 setlinecap
1 LJ
0.667 LW
N
73 374 M
73 369.66 L
S
GR
GS
[0.75 0 0 0.75 0 0] CT
0 GC
2 setlinecap
1 LJ
0.667 LW
N
116.4 374 M
116.4 369.66 L
S
GR
GS
[0.75 0 0 0.75 0 0] CT
0 GC
2 setlinecap
1 LJ
0.667 LW
N
159.8 374 M
159.8 369.66 L
S
GR
GS
[0.75 0 0 0.75 0 0] CT
0 GC
2 setlinecap
1 LJ
0.667 LW
N
203.2 374 M
203.2 369.66 L
S
GR
GS
[0.75 0 0 0.75 0 0] CT
0 GC
2 setlinecap
1 LJ
0.667 LW
N
246.6 374 M
246.6 369.66 L
S
GR
GS
[0.75 0 0 0.75 0 0] CT
0 GC
2 setlinecap
1 LJ
0.667 LW
N
290 374 M
290 369.66 L
S
GR
GS
[0.75 0 0 0.75 0 0] CT
0 GC
2 setlinecap
1 LJ
0.667 LW
N
333.4 374 M
333.4 369.66 L
S
GR
GS
[0.75 0 0 0.75 0 0] CT
0 GC
2 setlinecap
1 LJ
0.667 LW
N
376.8 374 M
376.8 369.66 L
S
GR
GS
[0.75 0 0 0.75 0 0] CT
0 GC
2 setlinecap
1 LJ
0.667 LW
N
420.2 374 M
420.2 369.66 L
S
GR
GS
[0.75 0 0 0.75 0 0] CT
0 GC
2 setlinecap
1 LJ
0.667 LW
N
463.6 374 M
463.6 369.66 L
S
GR
GS
[0.75 0 0 0.75 0 0] CT
0 GC
2 setlinecap
1 LJ
0.667 LW
N
507 374 M
507 369.66 L
S
GR
GS
[0.75 0 0 0.75 0 0] CT
0 GC
2 setlinecap
1 LJ
0.667 LW
N
73 31 M
73 35.34 L
S
GR
GS
[0.75 0 0 0.75 0 0] CT
0 GC
2 setlinecap
1 LJ
0.667 LW
N
116.4 31 M
116.4 35.34 L
S
GR
GS
[0.75 0 0 0.75 0 0] CT
0 GC
2 setlinecap
1 LJ
0.667 LW
N
159.8 31 M
159.8 35.34 L
S
GR
GS
[0.75 0 0 0.75 0 0] CT
0 GC
2 setlinecap
1 LJ
0.667 LW
N
203.2 31 M
203.2 35.34 L
S
GR
GS
[0.75 0 0 0.75 0 0] CT
0 GC
2 setlinecap
1 LJ
0.667 LW
N
246.6 31 M
246.6 35.34 L
S
GR
GS
[0.75 0 0 0.75 0 0] CT
0 GC
2 setlinecap
1 LJ
0.667 LW
N
290 31 M
290 35.34 L
S
GR
GS
[0.75 0 0 0.75 0 0] CT
0 GC
2 setlinecap
1 LJ
0.667 LW
N
333.4 31 M
333.4 35.34 L
S
GR
GS
[0.75 0 0 0.75 0 0] CT
0 GC
2 setlinecap
1 LJ
0.667 LW
N
376.8 31 M
376.8 35.34 L
S
GR
GS
[0.75 0 0 0.75 0 0] CT
0 GC
2 setlinecap
1 LJ
0.667 LW
N
420.2 31 M
420.2 35.34 L
S
GR
GS
[0.75 0 0 0.75 0 0] CT
0 GC
2 setlinecap
1 LJ
0.667 LW
N
463.6 31 M
463.6 35.34 L
S
GR
GS
[0.75 0 0 0.75 0 0] CT
0 GC
2 setlinecap
1 LJ
0.667 LW
N
507 31 M
507 35.34 L
S
GR
GS
[0.75 0 0 0.75 54.75 284.50001] CT
0 GC
/Helvetica 13.333 F
GS
[1 0 0 1 0 0] CT
-4 14 moveto 
1 -1 scale
(0) t 
GR
GR
GS
[0.75 0 0 0.75 87.3 284.50001] CT
0 GC
/Helvetica 13.333 F
GS
[1 0 0 1 0 0] CT
-13 14 moveto 
1 -1 scale
(0.05) t 
GR
GR
GS
[0.75 0 0 0.75 119.85 284.50001] CT
0 GC
/Helvetica 13.333 F
GS
[1 0 0 1 0 0] CT
-9.5 14 moveto 
1 -1 scale
(0.1) t 
GR
GR
GS
[0.75 0 0 0.75 152.40001 284.50001] CT
0 GC
/Helvetica 13.333 F
GS
[1 0 0 1 0 0] CT
-13 14 moveto 
1 -1 scale
(0.15) t 
GR
GR
GS
[0.75 0 0 0.75 184.95 284.50001] CT
0 GC
/Helvetica 13.333 F
GS
[1 0 0 1 0 0] CT
-9.5 14 moveto 
1 -1 scale
(0.2) t 
GR
GR
GS
[0.75 0 0 0.75 217.5 284.50001] CT
0 GC
/Helvetica 13.333 F
GS
[1 0 0 1 0 0] CT
-13 14 moveto 
1 -1 scale
(0.25) t 
GR
GR
GS
[0.75 0 0 0.75 250.05002 284.50001] CT
0 GC
/Helvetica 13.333 F
GS
[1 0 0 1 0 0] CT
-9.5 14 moveto 
1 -1 scale
(0.3) t 
GR
GR
GS
[0.75 0 0 0.75 282.59999 284.50001] CT
0 GC
/Helvetica 13.333 F
GS
[1 0 0 1 0 0] CT
-13 14 moveto 
1 -1 scale
(0.35) t 
GR
GR
GS
[0.75 0 0 0.75 315.15001 284.50001] CT
0 GC
/Helvetica 13.333 F
GS
[1 0 0 1 0 0] CT
-9.5 14 moveto 
1 -1 scale
(0.4) t 
GR
GR
GS
[0.75 0 0 0.75 347.69998 284.50001] CT
0 GC
/Helvetica 13.333 F
GS
[1 0 0 1 0 0] CT
-13 14 moveto 
1 -1 scale
(0.45) t 
GR
GR
GS
[0.75 0 0 0.75 380.25 284.50001] CT
0 GC
/Helvetica 13.333 F
GS
[1 0 0 1 0 0] CT
-9.5 14 moveto 
1 -1 scale
(0.5) t 
GR
GR
GS
[0.75 0 0 0.75 217.50016 298.24999] CT
0 GC
/Helvetica 14.667 F
GS
[1 0 0 1 0 0] CT
-64 16 moveto 
1 -1 scale
(frequency in cycles) t 
GR
GR
GS
[0.75 0 0 0.75 0 0] CT
0 GC
2 setlinecap
1 LJ
0.667 LW
N
73 374 M
73 31 L
S
GR
GS
[0.75 0 0 0.75 0 0] CT
0 GC
2 setlinecap
1 LJ
0.667 LW
N
507 374 M
507 31 L
S
GR
GS
[0.75 0 0 0.75 0 0] CT
0 GC
2 setlinecap
1 LJ
0.667 LW
N
73 374 M
77.34 374 L
S
GR
GS
[0.75 0 0 0.75 0 0] CT
0 GC
2 setlinecap
1 LJ
0.667 LW
N
73 316.833 M
77.34 316.833 L
S
GR
GS
[0.75 0 0 0.75 0 0] CT
0 GC
2 setlinecap
1 LJ
0.667 LW
N
73 259.667 M
77.34 259.667 L
S
GR
GS
[0.75 0 0 0.75 0 0] CT
0 GC
2 setlinecap
1 LJ
0.667 LW
N
73 202.5 M
77.34 202.5 L
S
GR
GS
[0.75 0 0 0.75 0 0] CT
0 GC
2 setlinecap
1 LJ
0.667 LW
N
73 145.333 M
77.34 145.333 L
S
GR
GS
[0.75 0 0 0.75 0 0] CT
0 GC
2 setlinecap
1 LJ
0.667 LW
N
73 88.167 M
77.34 88.167 L
S
GR
GS
[0.75 0 0 0.75 0 0] CT
0 GC
2 setlinecap
1 LJ
0.667 LW
N
73 31 M
77.34 31 L
S
GR
GS
[0.75 0 0 0.75 0 0] CT
0 GC
2 setlinecap
1 LJ
0.667 LW
N
507 374 M
502.66 374 L
S
GR
GS
[0.75 0 0 0.75 0 0] CT
0 GC
2 setlinecap
1 LJ
0.667 LW
N
507 316.833 M
502.66 316.833 L
S
GR
GS
[0.75 0 0 0.75 0 0] CT
0 GC
2 setlinecap
1 LJ
0.667 LW
N
507 259.667 M
502.66 259.667 L
S
GR
GS
[0.75 0 0 0.75 0 0] CT
0 GC
2 setlinecap
1 LJ
0.667 LW
N
507 202.5 M
502.66 202.5 L
S
GR
GS
[0.75 0 0 0.75 0 0] CT
0 GC
2 setlinecap
1 LJ
0.667 LW
N
507 145.333 M
502.66 145.333 L
S
GR
GS
[0.75 0 0 0.75 0 0] CT
0 GC
2 setlinecap
1 LJ
0.667 LW
N
507 88.167 M
502.66 88.167 L
S
GR
GS
[0.75 0 0 0.75 0 0] CT
0 GC
2 setlinecap
1 LJ
0.667 LW
N
507 31 M
502.66 31 L
S
GR
GS
[0.75 0 0 0.75 50.75 280.5] CT
0 GC
/Helvetica 13.333 F
GS
[1 0 0 1 0 0] CT
-19 5.5 moveto 
1 -1 scale
(-50) t 
GR
GR
GS
[0.75 0 0 0.75 50.75 237.62501] CT
0 GC
/Helvetica 13.333 F
GS
[1 0 0 1 0 0] CT
-19 5.5 moveto 
1 -1 scale
(-40) t 
GR
GR
GS
[0.75 0 0 0.75 50.75 194.74999] CT
0 GC
/Helvetica 13.333 F
GS
[1 0 0 1 0 0] CT
-19 5.5 moveto 
1 -1 scale
(-30) t 
GR
GR
GS
[0.75 0 0 0.75 50.75 151.875] CT
0 GC
/Helvetica 13.333 F
GS
[1 0 0 1 0 0] CT
-19 5.5 moveto 
1 -1 scale
(-20) t 
GR
GR
GS
[0.75 0 0 0.75 50.75 109] CT
0 GC
/Helvetica 13.333 F
GS
[1 0 0 1 0 0] CT
-19 5.5 moveto 
1 -1 scale
(-10) t 
GR
GR
GS
[0.75 0 0 0.75 50.75 66.125] CT
0 GC
/Helvetica 13.333 F
GS
[1 0 0 1 0 0] CT
-8 5.5 moveto 
1 -1 scale
(0) t 
GR
GR
GS
[0.75 0 0 0.75 50.75 23.25] CT
0 GC
/Helvetica 13.333 F
GS
[1 0 0 1 0 0] CT
-15 5.5 moveto 
1 -1 scale
(10) t 
GR
GR
GS
[0 -0.75 0.75 0 26.25 213.75] CT
0 GC
/Helvetica 14.667 F
GS
[1 0 0 1 0 0] CT
0 0 moveto 
1 -1 scale
(20  log \( | H) t 
GR
GR
GS
[0 -0.75 0.75 0 31.5 155.25] CT
0 GC
/Helvetica 10.667 F
GS
[1 0 0 1 0 0] CT
0 0 moveto 
1 -1 scale
(final) t 
GR
GR
GS
[0 -0.75 0.75 0 26.25 139.5] CT
0 GC
/Helvetica 14.667 F
GS
[1 0 0 1 0 0] CT
0 0 moveto 
1 -1 scale
(\(e) t 
GR
GR
GS
[0 -0.75 0.75 0 21 129] CT
0 GC
/Helvetica 10.667 F
GS
[1 0 0 1 0 0] CT
0 0 moveto 
1 -1 scale
(j 2 pi f) t 
GR
GR
GS
[0 -0.75 0.75 0 26.25 106.5] CT
0 GC
/Helvetica 14.667 F
GS
[1 0 0 1 0 0] CT
0 0 moveto 
1 -1 scale
(\) | \)) t 
GR
GR
GS
[0.75 0 0 0.75 0 0] CT
0 GC
1 LJ
0.667 LW
N
73.217 61.033 M
73.651 61.027 L
74.085 61.014 L
74.519 60.995 L
74.953 60.97 L
75.387 60.939 L
75.821 60.902 L
76.255 60.859 L
76.689 60.809 L
77.123 60.755 L
77.557 60.694 L
77.991 60.629 L
78.425 60.558 L
78.859 60.482 L
79.293 60.401 L
79.727 60.316 L
80.161 60.226 L
80.595 60.132 L
81.029 60.035 L
81.463 59.934 L
81.897 59.829 L
82.331 59.722 L
82.765 59.611 L
83.199 59.498 L
83.633 59.383 L
84.067 59.267 L
84.501 59.148 L
84.935 59.029 L
85.369 58.908 L
85.803 58.786 L
86.237 58.665 L
86.671 58.543 L
87.105 58.421 L
87.539 58.3 L
87.973 58.18 L
88.407 58.061 L
88.841 57.944 L
89.275 57.828 L
89.709 57.714 L
90.143 57.602 L
90.577 57.493 L
91.011 57.387 L
91.445 57.284 L
91.879 57.184 L
92.313 57.088 L
92.747 56.995 L
93.181 56.906 L
93.615 56.822 L
94.049 56.742 L
94.483 56.667 L
94.917 56.596 L
95.351 56.53 L
95.785 56.47 L
96.219 56.414 L
96.653 56.364 L
97.087 56.32 L
97.521 56.281 L
97.955 56.248 L
98.389 56.221 L
98.823 56.2 L
99.257 56.185 L
99.691 56.175 L
100.125 56.172 L
100.559 56.175 L
100.993 56.185 L
101.427 56.2 L
101.861 56.222 L
102.295 56.249 L
102.729 56.283 L
103.163 56.323 L
103.597 56.369 L
104.031 56.421 L
104.465 56.479 L
104.899 56.542 L
105.333 56.611 L
105.767 56.686 L
106.201 56.766 L
106.635 56.852 L
107.069 56.942 L
107.503 57.038 L
107.937 57.138 L
108.371 57.243 L
108.805 57.352 L
109.239 57.466 L
109.673 57.583 L
110.107 57.704 L
110.541 57.828 L
110.975 57.956 L
111.409 58.086 L
111.843 58.219 L
112.277 58.355 L
112.711 58.492 L
113.145 58.631 L
113.579 58.771 L
114.013 58.912 L
114.447 59.054 L
114.881 59.197 L
115.315 59.339 L
115.749 59.48 L
116.183 59.621 L
116.617 59.761 L
117.051 59.9 L
117.485 60.036 L
117.919 60.17 L
118.353 60.302 L
118.787 60.43 L
119.221 60.555 L
119.655 60.676 L
120.089 60.794 L
120.523 60.906 L
120.957 61.014 L
121.391 61.116 L
121.825 61.213 L
122.259 61.305 L
122.693 61.389 L
123.127 61.468 L
123.561 61.539 L
123.995 61.604 L
124.429 61.661 L
124.863 61.71 L
125.297 61.752 L
125.731 61.786 L
126.165 61.811 L
126.599 61.829 L
127.033 61.837 L
127.467 61.837 L
127.901 61.828 L
128.335 61.811 L
128.769 61.784 L
129.203 61.749 L
129.637 61.705 L
130.071 61.652 L
130.505 61.59 L
130.939 61.52 L
131.373 61.441 L
131.807 61.353 L
132.241 61.257 L
132.675 61.153 L
133.109 61.041 L
133.543 60.922 L
133.977 60.794 L
134.411 60.66 L
134.845 60.519 L
135.279 60.371 L
135.713 60.217 L
136.147 60.057 L
136.581 59.891 L
137.015 59.72 L
137.449 59.545 L
137.883 59.365 L
138.317 59.181 L
138.751 58.993 L
139.185 58.803 L
139.619 58.609 L
140.053 58.414 L
140.487 58.217 L
140.921 58.018 L
141.355 57.819 L
141.789 57.62 L
142.223 57.421 L
142.657 57.222 L
143.091 57.025 L
143.525 56.829 L
143.959 56.635 L
144.393 56.444 L
144.827 56.257 L
145.261 56.072 L
145.695 55.892 L
146.129 55.716 L
146.563 55.546 L
146.997 55.381 L
147.431 55.221 L
147.865 55.068 L
148.299 54.922 L
148.733 54.783 L
149.167 54.652 L
149.601 54.53 L
150.035 54.415 L
150.469 54.31 L
150.903 54.214 L
151.337 54.128 L
151.771 54.052 L
152.205 53.987 L
152.639 53.933 L
153.073 53.89 L
153.507 53.859 L
153.941 53.84 L
154.375 53.833 L
154.809 53.84 L
155.243 53.86 L
155.677 53.893 L
156.111 53.94 L
156.545 54.002 L
156.979 54.078 L
157.413 54.169 L
157.847 54.276 L
158.281 54.398 L
158.715 54.536 L
159.149 54.691 L
159.583 54.862 L
160.017 55.05 L
160.451 55.255 L
160.885 55.479 L
161.319 55.72 L
161.753 55.979 L
162.187 56.257 L
162.621 56.553 L
163.055 56.869 L
163.489 57.205 L
163.923 57.561 L
164.357 57.937 L
164.791 58.333 L
165.225 58.751 L
165.659 59.189 L
166.093 59.65 L
166.527 60.132 L
166.961 60.637 L
167.395 61.165 L
167.829 61.716 L
168.263 62.291 L
168.697 62.889 L
169.131 63.512 L
169.565 64.16 L
169.999 64.834 L
170.433 65.533 L
170.867 66.258 L
171.301 67.01 L
171.735 67.79 L
172.169 68.597 L
172.603 69.432 L
173.037 70.297 L
173.471 71.191 L
173.905 72.115 L
174.339 73.07 L
174.773 74.057 L
175.207 75.075 L
175.641 76.127 L
176.075 77.212 L
176.509 78.333 L
176.943 79.488 L
177.377 80.68 L
177.811 81.91 L
178.245 83.177 L
178.679 84.485 L
179.113 85.833 L
179.547 87.222 L
179.981 88.656 L
180.415 90.133 L
180.849 91.657 L
181.283 93.229 L
181.717 94.85 L
182.151 96.522 L
182.585 98.248 L
183.019 100.03 L
183.453 101.869 L
183.887 103.768 L
184.321 105.731 L
184.755 107.759 L
185.189 109.857 L
185.623 112.029 L
186.057 114.277 L
186.491 116.606 L
186.925 119.022 L
187.359 121.53 L
187.793 124.135 L
188.227 126.845 L
188.661 129.667 L
189.095 132.61 L
189.529 135.684 L
189.963 138.901 L
190.397 142.273 L
190.831 145.816 L
191.265 149.55 L
191.699 153.494 L
192.133 157.676 L
192.567 162.126 L
193.001 166.886 L
193.435 172.003 L
193.869 177.54 L
194.303 183.581 L
194.737 190.236 L
195.171 197.66 L
195.605 206.076 L
196.039 215.827 L
196.473 227.476 L
196.907 242.05 L
197.341 261.76 L
197.775 293.01 L
198.164 374.034 L
S
GR
GS
[0.75 0 0 0.75 0 0] CT
0 GC
1 LJ
0.667 LW
N
198.269 374.034 M
198.643 315.279 L
199.077 276.277 L
199.511 255.587 L
199.945 241.693 L
200.379 231.39 L
200.813 223.319 L
201.247 216.777 L
201.681 211.353 L
202.115 206.785 L
202.549 202.896 L
202.983 199.562 L
203.417 196.691 L
203.851 194.214 L
204.285 192.08 L
204.719 190.246 L
205.153 188.68 L
205.587 187.355 L
206.021 186.249 L
206.455 185.344 L
206.889 184.627 L
207.323 184.084 L
207.757 183.706 L
208.191 183.483 L
208.625 183.411 L
209.059 183.482 L
209.493 183.692 L
209.927 184.039 L
210.361 184.519 L
210.795 185.131 L
211.229 185.874 L
211.663 186.748 L
212.097 187.754 L
212.531 188.894 L
212.965 190.169 L
213.399 191.584 L
213.833 193.143 L
214.267 194.85 L
214.701 196.713 L
215.135 198.739 L
215.569 200.939 L
216.003 203.324 L
216.437 205.907 L
216.871 208.706 L
217.305 211.741 L
217.739 215.036 L
218.173 218.622 L
218.607 222.537 L
219.041 226.829 L
219.475 231.56 L
219.909 236.81 L
220.343 242.688 L
220.777 249.348 L
221.211 257.009 L
221.645 266.009 L
222.079 276.902 L
222.513 290.699 L
222.947 309.555 L
223.381 339.658 L
223.557 374.034 L
S
GR
GS
[0.75 0 0 0.75 0 0] CT
0 GC
1 LJ
0.667 LW
N
224.173 374.034 M
224.249 363.421 L
224.683 322.864 L
225.117 301.302 L
225.551 286.686 L
225.985 275.722 L
226.419 267.026 L
226.853 259.882 L
227.287 253.873 L
227.721 248.733 L
228.155 244.284 L
228.589 240.4 L
229.023 236.989 L
229.457 233.98 L
229.891 231.321 L
230.325 228.969 L
230.759 226.891 L
231.193 225.059 L
231.627 223.452 L
232.061 222.051 L
232.495 220.84 L
232.929 219.808 L
233.363 218.944 L
233.797 218.238 L
234.231 217.683 L
234.665 217.274 L
235.099 217.005 L
235.533 216.872 L
235.967 216.873 L
236.401 217.004 L
236.835 217.264 L
237.269 217.652 L
237.703 218.168 L
238.137 218.813 L
238.571 219.587 L
239.005 220.493 L
239.439 221.533 L
239.873 222.711 L
240.307 224.032 L
240.741 225.5 L
241.175 227.122 L
241.609 228.907 L
242.043 230.864 L
242.477 233.004 L
242.911 235.34 L
243.345 237.89 L
243.779 240.672 L
244.213 243.712 L
244.647 247.037 L
245.081 250.685 L
245.515 254.702 L
245.949 259.147 L
246.383 264.096 L
246.817 269.653 L
247.251 275.962 L
247.685 283.228 L
248.119 291.763 L
248.553 302.072 L
248.987 315.055 L
249.421 332.57 L
249.855 359.59 L
249.955 374.034 L
S
GR
GS
[0.75 0 0 0.75 0 0] CT
0 GC
1 LJ
0.667 LW
N
250.978 374.034 M
251.157 354.046 L
251.591 330.361 L
252.025 314.669 L
252.459 303.008 L
252.893 293.793 L
253.327 286.23 L
253.761 279.862 L
254.195 274.404 L
254.629 269.664 L
255.063 265.51 L
255.497 261.843 L
255.931 258.591 L
256.365 255.697 L
256.799 253.119 L
257.233 250.82 L
257.667 248.773 L
258.101 246.954 L
258.535 245.345 L
258.969 243.93 L
259.403 242.695 L
259.837 241.63 L
260.271 240.726 L
260.705 239.974 L
261.139 239.368 L
261.573 238.903 L
262.007 238.575 L
262.441 238.381 L
262.875 238.316 L
263.309 238.381 L
263.743 238.572 L
264.177 238.891 L
264.611 239.337 L
265.045 239.91 L
265.479 240.613 L
265.913 241.447 L
266.347 242.416 L
266.781 243.524 L
267.215 244.774 L
267.649 246.173 L
268.083 247.728 L
268.517 249.447 L
268.951 251.34 L
269.385 253.419 L
269.819 255.698 L
270.253 258.194 L
270.687 260.927 L
271.121 263.923 L
271.555 267.211 L
271.989 270.832 L
272.423 274.832 L
272.857 279.274 L
273.291 284.24 L
273.725 289.839 L
274.159 296.226 L
274.593 303.624 L
275.027 312.374 L
275.461 323.039 L
275.895 336.648 L
276.329 355.411 L
276.595 374.034 L
S
GR
GS
[0.75 0 0 0.75 0 0] CT
0 GC
1 LJ
0.667 LW
N
277.98 374.034 M
278.065 366.189 L
278.499 344.624 L
278.933 329.86 L
279.367 318.696 L
279.801 309.774 L
280.235 302.391 L
280.669 296.135 L
281.103 290.745 L
281.537 286.042 L
281.971 281.902 L
282.405 278.234 L
282.839 274.968 L
283.273 272.052 L
283.707 269.442 L
284.141 267.107 L
284.575 265.018 L
285.009 263.153 L
285.443 261.495 L
285.877 260.028 L
286.311 258.739 L
286.745 257.618 L
287.179 256.656 L
287.613 255.845 L
288.047 255.179 L
288.481 254.653 L
288.915 254.262 L
289.349 254.005 L
289.783 253.876 L
290.217 253.876 L
290.651 254.003 L
291.085 254.256 L
291.519 254.636 L
291.953 255.144 L
292.387 255.78 L
292.821 256.547 L
293.255 257.449 L
293.689 258.489 L
294.123 259.671 L
294.557 261.002 L
294.991 262.488 L
295.425 264.137 L
295.859 265.961 L
296.293 267.969 L
296.727 270.177 L
297.161 272.6 L
297.595 275.261 L
298.029 278.182 L
298.463 281.395 L
298.897 284.938 L
299.331 288.857 L
299.765 293.216 L
300.199 298.094 L
300.633 303.599 L
301.067 309.883 L
301.501 317.165 L
301.935 325.779 L
302.369 336.273 L
302.803 349.643 L
303.237 368.007 L
303.326 374.034 L
S
GR
GS
[0.75 0 0 0.75 0 0] CT
0 GC
1 LJ
0.667 LW
N
305.109 374.034 M
305.407 358.871 L
305.841 343.816 L
306.275 332.458 L
306.709 323.389 L
307.143 315.884 L
307.577 309.522 L
308.011 304.037 L
308.445 299.246 L
308.879 295.024 L
309.313 291.277 L
309.747 287.936 L
310.181 284.946 L
310.615 282.266 L
311.049 279.86 L
311.483 277.703 L
311.917 275.771 L
312.351 274.047 L
312.785 272.514 L
313.219 271.16 L
313.653 269.974 L
314.087 268.948 L
314.521 268.073 L
314.955 267.344 L
315.389 266.754 L
315.823 266.301 L
316.257 265.98 L
316.691 265.789 L
317.125 265.725 L
317.559 265.789 L
317.993 265.979 L
318.427 266.295 L
318.861 266.738 L
319.295 267.31 L
319.729 268.012 L
320.163 268.848 L
320.597 269.821 L
321.031 270.936 L
321.465 272.198 L
321.899 273.615 L
322.333 275.193 L
322.767 276.944 L
323.201 278.877 L
323.635 281.008 L
324.069 283.351 L
324.503 285.927 L
324.937 288.76 L
325.371 291.88 L
325.805 295.321 L
326.239 299.132 L
326.673 303.37 L
327.107 308.112 L
327.541 313.462 L
327.975 319.561 L
328.409 326.616 L
328.843 334.937 L
329.277 345.025 L
329.711 357.776 L
330.12 374.034 L
S
GR
GS
[0.75 0 0 0.75 0 0] CT
0 GC
1 LJ
0.667 LW
N
332.283 374.034 M
332.315 372.248 L
332.749 356.308 L
333.183 344.422 L
333.617 334.994 L
334.051 327.223 L
334.485 320.652 L
334.919 314.994 L
335.353 310.057 L
335.787 305.707 L
336.221 301.845 L
336.655 298.399 L
337.089 295.313 L
337.523 292.542 L
337.957 290.052 L
338.391 287.814 L
338.825 285.805 L
339.259 284.006 L
339.693 282.401 L
340.127 280.977 L
340.561 279.723 L
340.995 278.63 L
341.429 277.689 L
341.863 276.894 L
342.297 276.24 L
342.731 275.723 L
343.165 275.339 L
343.599 275.085 L
344.033 274.958 L
344.467 274.959 L
344.901 275.086 L
345.335 275.338 L
345.769 275.718 L
346.203 276.225 L
346.637 276.863 L
347.071 277.633 L
347.505 278.539 L
347.939 279.586 L
348.373 280.779 L
348.807 282.123 L
349.241 283.628 L
349.675 285.302 L
350.109 287.156 L
350.543 289.204 L
350.977 291.46 L
351.411 293.943 L
351.845 296.677 L
352.279 299.689 L
352.713 303.014 L
353.147 306.695 L
353.581 310.787 L
354.015 315.362 L
354.449 320.516 L
354.883 326.38 L
355.317 333.139 L
355.751 341.074 L
356.185 350.624 L
356.619 362.557 L
356.934 374.034 L
S
GR
GS
[0.75 0 0 0.75 0 0] CT
0 GC
1 LJ
0.667 LW
N
359.504 374.034 M
359.657 367.895 L
360.091 355.163 L
360.525 345.182 L
360.959 337.018 L
361.393 330.147 L
361.827 324.25 L
362.261 319.115 L
362.695 314.596 L
363.129 310.589 L
363.563 307.013 L
363.997 303.81 L
364.431 300.932 L
364.865 298.344 L
365.299 296.013 L
365.733 293.918 L
366.167 292.036 L
366.601 290.353 L
367.035 288.853 L
367.469 287.526 L
367.903 286.362 L
368.337 285.353 L
368.771 284.491 L
369.205 283.771 L
369.639 283.189 L
370.073 282.74 L
370.507 282.422 L
370.941 282.233 L
371.375 282.17 L
371.809 282.234 L
372.243 282.424 L
372.677 282.74 L
373.111 283.183 L
373.545 283.756 L
373.979 284.461 L
374.413 285.301 L
374.847 286.28 L
375.281 287.403 L
375.715 288.676 L
376.149 290.107 L
376.583 291.705 L
377.017 293.479 L
377.451 295.442 L
377.885 297.609 L
378.319 299.999 L
378.753 302.631 L
379.187 305.534 L
379.621 308.738 L
380.055 312.285 L
380.489 316.226 L
380.923 320.628 L
381.357 325.578 L
381.791 331.196 L
382.225 337.649 L
382.659 345.185 L
383.093 354.187 L
383.527 365.304 L
383.789 374.034 L
S
GR
GS
[0.75 0 0 0.75 0 0] CT
0 GC
1 LJ
0.667 LW
N
386.706 374.034 M
386.999 364.711 L
387.433 354.041 L
387.867 345.397 L
388.301 338.169 L
388.735 331.992 L
389.169 326.63 L
389.603 321.921 L
390.037 317.75 L
390.471 314.031 L
390.905 310.7 L
391.339 307.707 L
391.773 305.013 L
392.207 302.585 L
392.641 300.398 L
393.075 298.431 L
393.509 296.666 L
393.943 295.088 L
394.377 293.686 L
394.811 292.45 L
395.245 291.37 L
395.679 290.44 L
396.113 289.654 L
396.547 289.006 L
396.981 288.493 L
397.415 288.111 L
397.849 287.858 L
398.283 287.733 L
398.717 287.733 L
399.151 287.86 L
399.585 288.113 L
400.019 288.492 L
400.453 289.001 L
400.887 289.64 L
401.321 290.413 L
401.755 291.324 L
402.189 292.377 L
402.623 293.578 L
403.057 294.935 L
403.491 296.454 L
403.925 298.147 L
404.359 300.025 L
404.793 302.102 L
405.227 304.394 L
405.661 306.923 L
406.095 309.712 L
406.529 312.792 L
406.963 316.2 L
407.397 319.984 L
407.831 324.206 L
408.265 328.944 L
408.699 334.307 L
409.133 340.445 L
409.567 347.574 L
410.001 356.025 L
410.435 366.339 L
410.689 374.034 L
S
GR
GS
[0.75 0 0 0.75 0 0] CT
0 GC
1 LJ
0.667 LW
N
413.892 374.034 M
413.907 373.499 L
414.341 361.947 L
414.775 352.709 L
415.209 345.048 L
415.643 338.539 L
416.077 332.912 L
416.511 327.983 L
416.945 323.626 L
417.379 319.746 L
417.813 316.273 L
418.247 313.152 L
418.681 310.342 L
419.115 307.809 L
419.549 305.523 L
419.983 303.464 L
420.417 301.613 L
420.851 299.953 L
421.285 298.473 L
421.719 297.161 L
422.153 296.009 L
422.587 295.008 L
423.021 294.153 L
423.455 293.438 L
423.889 292.859 L
424.323 292.412 L
424.757 292.094 L
425.191 291.904 L
425.625 291.841 L
426.059 291.904 L
426.493 292.092 L
426.927 292.407 L
427.361 292.85 L
427.795 293.423 L
428.229 294.129 L
428.663 294.97 L
429.097 295.953 L
429.531 297.081 L
429.965 298.362 L
430.399 299.803 L
430.833 301.413 L
431.267 303.204 L
431.701 305.189 L
432.135 307.383 L
432.569 309.805 L
433.003 312.478 L
433.437 315.431 L
433.871 318.698 L
434.305 322.323 L
434.739 326.362 L
435.173 330.886 L
435.607 335.994 L
436.041 341.816 L
436.475 348.543 L
436.909 356.457 L
437.343 366.009 L
437.634 374.034 L
S
GR
GS
[0.75 0 0 0.75 0 0] CT
0 GC
1 LJ
0.667 LW
N
441.081 374.034 M
441.249 369.133 L
441.683 359.162 L
442.117 350.983 L
442.551 344.083 L
442.985 338.147 L
443.419 332.968 L
443.853 328.4 L
444.287 324.34 L
444.721 320.71 L
445.155 317.45 L
445.589 314.514 L
446.023 311.866 L
446.457 309.475 L
446.891 307.319 L
447.325 305.375 L
447.759 303.63 L
448.193 302.067 L
448.627 300.677 L
449.061 299.449 L
449.495 298.375 L
449.929 297.449 L
450.363 296.665 L
450.797 296.018 L
451.231 295.504 L
451.665 295.121 L
452.099 294.866 L
452.533 294.738 L
452.967 294.736 L
453.401 294.859 L
453.835 295.109 L
454.269 295.486 L
454.703 295.992 L
455.137 296.63 L
455.571 297.402 L
456.005 298.313 L
456.439 299.368 L
456.873 300.573 L
457.307 301.935 L
457.741 303.463 L
458.175 305.167 L
458.609 307.059 L
459.043 309.154 L
459.477 311.47 L
459.911 314.029 L
460.345 316.855 L
460.779 319.982 L
461.213 323.448 L
461.647 327.306 L
462.081 331.62 L
462.515 336.477 L
462.949 341.994 L
463.383 348.336 L
463.817 355.745 L
464.251 364.594 L
464.626 374.034 L
S
GR
GS
[0.75 0 0 0.75 0 0] CT
0 GC
1 LJ
0.667 LW
N
468.226 374.034 M
468.591 364.904 L
469.025 356.108 L
469.459 348.755 L
469.893 342.468 L
470.327 337.007 L
470.761 332.206 L
471.195 327.948 L
471.629 324.147 L
472.063 320.737 L
472.497 317.668 L
472.931 314.899 L
473.365 312.398 L
473.799 310.139 L
474.233 308.101 L
474.667 306.266 L
475.101 304.62 L
475.535 303.15 L
475.969 301.847 L
476.403 300.7 L
476.837 299.703 L
477.271 298.851 L
477.705 298.137 L
478.139 297.558 L
478.573 297.111 L
479.007 296.793 L
479.441 296.603 L
479.875 296.539 L
480.309 296.601 L
480.743 296.789 L
481.177 297.104 L
481.611 297.548 L
482.045 298.123 L
482.479 298.832 L
482.913 299.678 L
483.347 300.667 L
483.781 301.804 L
484.215 303.096 L
484.649 304.55 L
485.083 306.178 L
485.517 307.991 L
485.951 310.002 L
486.385 312.228 L
486.819 314.689 L
487.253 317.41 L
487.687 320.421 L
488.121 323.76 L
488.555 327.473 L
488.989 331.621 L
489.423 336.283 L
489.857 341.566 L
490.291 347.618 L
490.725 354.653 L
491.159 362.998 L
491.593 373.184 L
491.621 374.034 L
S
GR
GS
[0.75 0 0 0.75 0 0] CT
0 GC
1 LJ
0.667 LW
N
495.31 374.034 M
495.499 368.934 L
495.933 359.579 L
496.367 351.819 L
496.801 345.221 L
497.235 339.511 L
497.669 334.505 L
498.103 330.073 L
498.537 326.122 L
498.971 322.579 L
499.405 319.39 L
499.839 316.513 L
500.273 313.913 L
500.707 311.562 L
501.141 309.438 L
501.575 307.522 L
502.009 305.799 L
502.443 304.255 L
502.877 302.88 L
503.311 301.665 L
503.745 300.601 L
504.179 299.683 L
504.613 298.906 L
505.047 298.264 L
505.481 297.754 L
505.915 297.374 L
506.349 297.122 L
506.783 296.997 L
S
GR
%%Trailer
%%Pages: 1
%%EOF
