%!PS-Adobe-3.0 EPSF-3.0
%%Creator: (MATLAB, The Mathworks, Inc. Version 9.0.0.341360 \(R2016a\). Operating System: Windows 8)
%%Title: ./mag_response_for_length_31.eps
%%CreationDate: 2018-01-12T12:06:23
%%Pages: (atend)
%%BoundingBox:    19     2   387   295
%%LanguageLevel: 3
%%EndComments
%%BeginProlog
%%BeginResource: procset (Apache XML Graphics Std ProcSet) 1.2 0
%%Version: 1.2 0
%%Copyright: (Copyright 2001-2003,2010 The Apache Software Foundation. License terms: http://www.apache.org/licenses/LICENSE-2.0)
/bd{bind def}bind def
/ld{load def}bd
/GR/grestore ld
/M/moveto ld
/LJ/setlinejoin ld
/C/curveto ld
/f/fill ld
/LW/setlinewidth ld
/GC/setgray ld
/t/show ld
/N/newpath ld
/CT/concat ld
/cp/closepath ld
/S/stroke ld
/L/lineto ld
/CC/setcmykcolor ld
/A/ashow ld
/GS/gsave ld
/RC/setrgbcolor ld
/RM/rmoveto ld
/ML/setmiterlimit ld
/re {4 2 roll M
1 index 0 rlineto
0 exch rlineto
neg 0 rlineto
cp } bd
/_ctm matrix def
/_tm matrix def
/BT { _ctm currentmatrix pop matrix _tm copy pop 0 0 moveto } bd
/ET { _ctm setmatrix } bd
/iTm { _ctm setmatrix _tm concat } bd
/Tm { _tm astore pop iTm 0 0 moveto } bd
/ux 0.0 def
/uy 0.0 def
/F {
  /Tp exch def
  /Tf exch def
  Tf findfont Tp scalefont setfont
  /cf Tf def  /cs Tp def
} bd
/ULS {currentpoint /uy exch def /ux exch def} bd
/ULE {
  /Tcx currentpoint pop def
  gsave
  newpath
  cf findfont cs scalefont dup
  /FontMatrix get 0 get /Ts exch def /FontInfo get dup
  /UnderlinePosition get Ts mul /To exch def
  /UnderlineThickness get Ts mul /Tt exch def
  ux uy To add moveto  Tcx uy To add lineto
  Tt setlinewidth stroke
  grestore
} bd
/OLE {
  /Tcx currentpoint pop def
  gsave
  newpath
  cf findfont cs scalefont dup
  /FontMatrix get 0 get /Ts exch def /FontInfo get dup
  /UnderlinePosition get Ts mul /To exch def
  /UnderlineThickness get Ts mul /Tt exch def
  ux uy To add cs add moveto Tcx uy To add cs add lineto
  Tt setlinewidth stroke
  grestore
} bd
/SOE {
  /Tcx currentpoint pop def
  gsave
  newpath
  cf findfont cs scalefont dup
  /FontMatrix get 0 get /Ts exch def /FontInfo get dup
  /UnderlinePosition get Ts mul /To exch def
  /UnderlineThickness get Ts mul /Tt exch def
  ux uy To add cs 10 mul 26 idiv add moveto Tcx uy To add cs 10 mul 26 idiv add lineto
  Tt setlinewidth stroke
  grestore
} bd
/QT {
/Y22 exch store
/X22 exch store
/Y21 exch store
/X21 exch store
currentpoint
/Y21 load 2 mul add 3 div exch
/X21 load 2 mul add 3 div exch
/X21 load 2 mul /X22 load add 3 div
/Y21 load 2 mul /Y22 load add 3 div
/X22 load /Y22 load curveto
} bd
/SSPD {
dup length /d exch dict def
{
/v exch def
/k exch def
currentpagedevice k known {
/cpdv currentpagedevice k get def
v cpdv ne {
/upd false def
/nullv v type /nulltype eq def
/nullcpdv cpdv type /nulltype eq def
nullv nullcpdv or
{
/upd true def
} {
/sametype v type cpdv type eq def
sametype {
v type /arraytype eq {
/vlen v length def
/cpdvlen cpdv length def
vlen cpdvlen eq {
0 1 vlen 1 sub {
/i exch def
/obj v i get def
/cpdobj cpdv i get def
obj cpdobj ne {
/upd true def
exit
} if
} for
} {
/upd true def
} ifelse
} {
v type /dicttype eq {
v {
/dv exch def
/dk exch def
/cpddv cpdv dk get def
dv cpddv ne {
/upd true def
exit
} if
} forall
} {
/upd true def
} ifelse
} ifelse
} if
} ifelse
upd true eq {
d k v put
} if
} if
} if
} forall
d length 0 gt {
d setpagedevice
} if
} bd
%%EndResource
%%BeginResource: procset (Apache XML Graphics EPS ProcSet) 1.0 0
%%Version: 1.0 0
%%Copyright: (Copyright 2002-2003 The Apache Software Foundation. License terms: http://www.apache.org/licenses/LICENSE-2.0)
/BeginEPSF { %def
/b4_Inc_state save def         % Save state for cleanup
/dict_count countdictstack def % Count objects on dict stack
/op_count count 1 sub def      % Count objects on operand stack
userdict begin                 % Push userdict on dict stack
/showpage { } def              % Redefine showpage, { } = null proc
0 setgray 0 setlinecap         % Prepare graphics state
1 setlinewidth 0 setlinejoin
10 setmiterlimit [ ] 0 setdash newpath
/languagelevel where           % If level not equal to 1 then
{pop languagelevel             % set strokeadjust and
1 ne                           % overprint to their defaults.
{false setstrokeadjust false setoverprint
} if
} if
} bd
/EndEPSF { %def
count op_count sub {pop} repeat            % Clean up stacks
countdictstack dict_count sub {end} repeat
b4_Inc_state restore
} bd
%%EndResource
%FOPBeginFontDict
%%IncludeResource: font Courier-Bold
%%IncludeResource: font Helvetica
%%IncludeResource: font Courier-BoldOblique
%%IncludeResource: font Courier-Oblique
%%IncludeResource: font Times-Roman
%%IncludeResource: font Helvetica-BoldOblique
%%IncludeResource: font Helvetica-Bold
%%IncludeResource: font Helvetica-Oblique
%%IncludeResource: font Times-BoldItalic
%%IncludeResource: font Courier
%%IncludeResource: font Times-Italic
%%IncludeResource: font Times-Bold
%%IncludeResource: font Symbol
%%IncludeResource: font ZapfDingbats
%FOPEndFontDict
%%BeginResource: encoding WinAnsiEncoding
/WinAnsiEncoding [
/.notdef /.notdef /.notdef /.notdef /.notdef
/.notdef /.notdef /.notdef /.notdef /.notdef
/.notdef /.notdef /.notdef /.notdef /.notdef
/.notdef /.notdef /.notdef /.notdef /.notdef
/.notdef /.notdef /.notdef /.notdef /.notdef
/.notdef /.notdef /.notdef /.notdef /.notdef
/.notdef /.notdef /space /exclam /quotedbl
/numbersign /dollar /percent /ampersand /quotesingle
/parenleft /parenright /asterisk /plus /comma
/hyphen /period /slash /zero /one
/two /three /four /five /six
/seven /eight /nine /colon /semicolon
/less /equal /greater /question /at
/A /B /C /D /E
/F /G /H /I /J
/K /L /M /N /O
/P /Q /R /S /T
/U /V /W /X /Y
/Z /bracketleft /backslash /bracketright /asciicircum
/underscore /quoteleft /a /b /c
/d /e /f /g /h
/i /j /k /l /m
/n /o /p /q /r
/s /t /u /v /w
/x /y /z /braceleft /bar
/braceright /asciitilde /bullet /Euro /bullet
/quotesinglbase /florin /quotedblbase /ellipsis /dagger
/daggerdbl /circumflex /perthousand /Scaron /guilsinglleft
/OE /bullet /Zcaron /bullet /bullet
/quoteleft /quoteright /quotedblleft /quotedblright /bullet
/endash /emdash /asciitilde /trademark /scaron
/guilsinglright /oe /bullet /zcaron /Ydieresis
/space /exclamdown /cent /sterling /currency
/yen /brokenbar /section /dieresis /copyright
/ordfeminine /guillemotleft /logicalnot /sfthyphen /registered
/macron /degree /plusminus /twosuperior /threesuperior
/acute /mu /paragraph /middot /cedilla
/onesuperior /ordmasculine /guillemotright /onequarter /onehalf
/threequarters /questiondown /Agrave /Aacute /Acircumflex
/Atilde /Adieresis /Aring /AE /Ccedilla
/Egrave /Eacute /Ecircumflex /Edieresis /Igrave
/Iacute /Icircumflex /Idieresis /Eth /Ntilde
/Ograve /Oacute /Ocircumflex /Otilde /Odieresis
/multiply /Oslash /Ugrave /Uacute /Ucircumflex
/Udieresis /Yacute /Thorn /germandbls /agrave
/aacute /acircumflex /atilde /adieresis /aring
/ae /ccedilla /egrave /eacute /ecircumflex
/edieresis /igrave /iacute /icircumflex /idieresis
/eth /ntilde /ograve /oacute /ocircumflex
/otilde /odieresis /divide /oslash /ugrave
/uacute /ucircumflex /udieresis /yacute /thorn
/ydieresis
] def
%%EndResource
%FOPBeginFontReencode
/Courier-Bold findfont
dup length dict begin
  {1 index /FID ne {def} {pop pop} ifelse} forall
  /Encoding WinAnsiEncoding def
  currentdict
end
/Courier-Bold exch definefont pop
/Helvetica findfont
dup length dict begin
  {1 index /FID ne {def} {pop pop} ifelse} forall
  /Encoding WinAnsiEncoding def
  currentdict
end
/Helvetica exch definefont pop
/Courier-BoldOblique findfont
dup length dict begin
  {1 index /FID ne {def} {pop pop} ifelse} forall
  /Encoding WinAnsiEncoding def
  currentdict
end
/Courier-BoldOblique exch definefont pop
/Courier-Oblique findfont
dup length dict begin
  {1 index /FID ne {def} {pop pop} ifelse} forall
  /Encoding WinAnsiEncoding def
  currentdict
end
/Courier-Oblique exch definefont pop
/Times-Roman findfont
dup length dict begin
  {1 index /FID ne {def} {pop pop} ifelse} forall
  /Encoding WinAnsiEncoding def
  currentdict
end
/Times-Roman exch definefont pop
/Helvetica-BoldOblique findfont
dup length dict begin
  {1 index /FID ne {def} {pop pop} ifelse} forall
  /Encoding WinAnsiEncoding def
  currentdict
end
/Helvetica-BoldOblique exch definefont pop
/Helvetica-Bold findfont
dup length dict begin
  {1 index /FID ne {def} {pop pop} ifelse} forall
  /Encoding WinAnsiEncoding def
  currentdict
end
/Helvetica-Bold exch definefont pop
/Helvetica-Oblique findfont
dup length dict begin
  {1 index /FID ne {def} {pop pop} ifelse} forall
  /Encoding WinAnsiEncoding def
  currentdict
end
/Helvetica-Oblique exch definefont pop
/Times-BoldItalic findfont
dup length dict begin
  {1 index /FID ne {def} {pop pop} ifelse} forall
  /Encoding WinAnsiEncoding def
  currentdict
end
/Times-BoldItalic exch definefont pop
/Courier findfont
dup length dict begin
  {1 index /FID ne {def} {pop pop} ifelse} forall
  /Encoding WinAnsiEncoding def
  currentdict
end
/Courier exch definefont pop
/Times-Italic findfont
dup length dict begin
  {1 index /FID ne {def} {pop pop} ifelse} forall
  /Encoding WinAnsiEncoding def
  currentdict
end
/Times-Italic exch definefont pop
/Times-Bold findfont
dup length dict begin
  {1 index /FID ne {def} {pop pop} ifelse} forall
  /Encoding WinAnsiEncoding def
  currentdict
end
/Times-Bold exch definefont pop
%FOPEndFontReencode
%%EndProlog
%%Page: 1 1
%%PageBoundingBox: 0 0 420 315
%%BeginPageSetup
[1 0 0 -1 0 315] CT
%%EndPageSetup
GS
[0.75 0 0 0.75 0 0] CT
0.997 GC
N
0 0 560 420 re
f
GR
GS
[0.75 0 0 0.75 0 0] CT
0.997 GC
N
0 0 560 420 re
f
GR
GS
[0.75 0 0 0.75 0 0] CT
0.997 GC
N
73 374 M
507 374 L
507 31 L
73 31 L
cp
f
GR
GS
[0.75 0 0 0.75 0 0] CT
0.846 GC
1 LJ
0.667 LW
N
73 374 M
73 31 L
S
GR
GS
[0.75 0 0 0.75 0 0] CT
0.846 GC
1 LJ
0.667 LW
N
116.4 374 M
116.4 31 L
S
GR
GS
[0.75 0 0 0.75 0 0] CT
0.846 GC
1 LJ
0.667 LW
N
159.8 374 M
159.8 31 L
S
GR
GS
[0.75 0 0 0.75 0 0] CT
0.846 GC
1 LJ
0.667 LW
N
203.2 374 M
203.2 31 L
S
GR
GS
[0.75 0 0 0.75 0 0] CT
0.846 GC
1 LJ
0.667 LW
N
246.6 374 M
246.6 31 L
S
GR
GS
[0.75 0 0 0.75 0 0] CT
0.846 GC
1 LJ
0.667 LW
N
290 374 M
290 31 L
S
GR
GS
[0.75 0 0 0.75 0 0] CT
0.846 GC
1 LJ
0.667 LW
N
333.4 374 M
333.4 31 L
S
GR
GS
[0.75 0 0 0.75 0 0] CT
0.846 GC
1 LJ
0.667 LW
N
376.8 374 M
376.8 31 L
S
GR
GS
[0.75 0 0 0.75 0 0] CT
0.846 GC
1 LJ
0.667 LW
N
420.2 374 M
420.2 31 L
S
GR
GS
[0.75 0 0 0.75 0 0] CT
0.846 GC
1 LJ
0.667 LW
N
463.6 374 M
463.6 31 L
S
GR
GS
[0.75 0 0 0.75 0 0] CT
0.846 GC
1 LJ
0.667 LW
N
507 374 M
507 31 L
S
GR
GS
[0.75 0 0 0.75 0 0] CT
0.846 GC
1 LJ
0.667 LW
N
507 374 M
73 374 L
S
GR
GS
[0.75 0 0 0.75 0 0] CT
0.846 GC
1 LJ
0.667 LW
N
507 316.833 M
73 316.833 L
S
GR
GS
[0.75 0 0 0.75 0 0] CT
0.846 GC
1 LJ
0.667 LW
N
507 259.667 M
73 259.667 L
S
GR
GS
[0.75 0 0 0.75 0 0] CT
0.846 GC
1 LJ
0.667 LW
N
507 202.5 M
73 202.5 L
S
GR
GS
[0.75 0 0 0.75 0 0] CT
0.846 GC
1 LJ
0.667 LW
N
507 145.333 M
73 145.333 L
S
GR
GS
[0.75 0 0 0.75 0 0] CT
0.846 GC
1 LJ
0.667 LW
N
507 88.167 M
73 88.167 L
S
GR
GS
[0.75 0 0 0.75 0 0] CT
0.846 GC
1 LJ
0.667 LW
N
507 31 M
73 31 L
S
GR
GS
[0.75 0 0 0.75 0 0] CT
0 GC
2 setlinecap
1 LJ
0.667 LW
N
73 374 M
507 374 L
S
GR
GS
[0.75 0 0 0.75 0 0] CT
0 GC
2 setlinecap
1 LJ
0.667 LW
N
73 31 M
507 31 L
S
GR
GS
[0.75 0 0 0.75 0 0] CT
0 GC
2 setlinecap
1 LJ
0.667 LW
N
73 374 M
73 369.66 L
S
GR
GS
[0.75 0 0 0.75 0 0] CT
0 GC
2 setlinecap
1 LJ
0.667 LW
N
116.4 374 M
116.4 369.66 L
S
GR
GS
[0.75 0 0 0.75 0 0] CT
0 GC
2 setlinecap
1 LJ
0.667 LW
N
159.8 374 M
159.8 369.66 L
S
GR
GS
[0.75 0 0 0.75 0 0] CT
0 GC
2 setlinecap
1 LJ
0.667 LW
N
203.2 374 M
203.2 369.66 L
S
GR
GS
[0.75 0 0 0.75 0 0] CT
0 GC
2 setlinecap
1 LJ
0.667 LW
N
246.6 374 M
246.6 369.66 L
S
GR
GS
[0.75 0 0 0.75 0 0] CT
0 GC
2 setlinecap
1 LJ
0.667 LW
N
290 374 M
290 369.66 L
S
GR
GS
[0.75 0 0 0.75 0 0] CT
0 GC
2 setlinecap
1 LJ
0.667 LW
N
333.4 374 M
333.4 369.66 L
S
GR
GS
[0.75 0 0 0.75 0 0] CT
0 GC
2 setlinecap
1 LJ
0.667 LW
N
376.8 374 M
376.8 369.66 L
S
GR
GS
[0.75 0 0 0.75 0 0] CT
0 GC
2 setlinecap
1 LJ
0.667 LW
N
420.2 374 M
420.2 369.66 L
S
GR
GS
[0.75 0 0 0.75 0 0] CT
0 GC
2 setlinecap
1 LJ
0.667 LW
N
463.6 374 M
463.6 369.66 L
S
GR
GS
[0.75 0 0 0.75 0 0] CT
0 GC
2 setlinecap
1 LJ
0.667 LW
N
507 374 M
507 369.66 L
S
GR
GS
[0.75 0 0 0.75 0 0] CT
0 GC
2 setlinecap
1 LJ
0.667 LW
N
73 31 M
73 35.34 L
S
GR
GS
[0.75 0 0 0.75 0 0] CT
0 GC
2 setlinecap
1 LJ
0.667 LW
N
116.4 31 M
116.4 35.34 L
S
GR
GS
[0.75 0 0 0.75 0 0] CT
0 GC
2 setlinecap
1 LJ
0.667 LW
N
159.8 31 M
159.8 35.34 L
S
GR
GS
[0.75 0 0 0.75 0 0] CT
0 GC
2 setlinecap
1 LJ
0.667 LW
N
203.2 31 M
203.2 35.34 L
S
GR
GS
[0.75 0 0 0.75 0 0] CT
0 GC
2 setlinecap
1 LJ
0.667 LW
N
246.6 31 M
246.6 35.34 L
S
GR
GS
[0.75 0 0 0.75 0 0] CT
0 GC
2 setlinecap
1 LJ
0.667 LW
N
290 31 M
290 35.34 L
S
GR
GS
[0.75 0 0 0.75 0 0] CT
0 GC
2 setlinecap
1 LJ
0.667 LW
N
333.4 31 M
333.4 35.34 L
S
GR
GS
[0.75 0 0 0.75 0 0] CT
0 GC
2 setlinecap
1 LJ
0.667 LW
N
376.8 31 M
376.8 35.34 L
S
GR
GS
[0.75 0 0 0.75 0 0] CT
0 GC
2 setlinecap
1 LJ
0.667 LW
N
420.2 31 M
420.2 35.34 L
S
GR
GS
[0.75 0 0 0.75 0 0] CT
0 GC
2 setlinecap
1 LJ
0.667 LW
N
463.6 31 M
463.6 35.34 L
S
GR
GS
[0.75 0 0 0.75 0 0] CT
0 GC
2 setlinecap
1 LJ
0.667 LW
N
507 31 M
507 35.34 L
S
GR
GS
[0.75 0 0 0.75 54.75 284.50001] CT
0 GC
/Helvetica 13.333 F
GS
[1 0 0 1 0 0] CT
-4 14 moveto 
1 -1 scale
(0) t 
GR
GR
GS
[0.75 0 0 0.75 87.3 284.50001] CT
0 GC
/Helvetica 13.333 F
GS
[1 0 0 1 0 0] CT
-13 14 moveto 
1 -1 scale
(0.05) t 
GR
GR
GS
[0.75 0 0 0.75 119.85 284.50001] CT
0 GC
/Helvetica 13.333 F
GS
[1 0 0 1 0 0] CT
-9.5 14 moveto 
1 -1 scale
(0.1) t 
GR
GR
GS
[0.75 0 0 0.75 152.40001 284.50001] CT
0 GC
/Helvetica 13.333 F
GS
[1 0 0 1 0 0] CT
-13 14 moveto 
1 -1 scale
(0.15) t 
GR
GR
GS
[0.75 0 0 0.75 184.95 284.50001] CT
0 GC
/Helvetica 13.333 F
GS
[1 0 0 1 0 0] CT
-9.5 14 moveto 
1 -1 scale
(0.2) t 
GR
GR
GS
[0.75 0 0 0.75 217.5 284.50001] CT
0 GC
/Helvetica 13.333 F
GS
[1 0 0 1 0 0] CT
-13 14 moveto 
1 -1 scale
(0.25) t 
GR
GR
GS
[0.75 0 0 0.75 250.05002 284.50001] CT
0 GC
/Helvetica 13.333 F
GS
[1 0 0 1 0 0] CT
-9.5 14 moveto 
1 -1 scale
(0.3) t 
GR
GR
GS
[0.75 0 0 0.75 282.59999 284.50001] CT
0 GC
/Helvetica 13.333 F
GS
[1 0 0 1 0 0] CT
-13 14 moveto 
1 -1 scale
(0.35) t 
GR
GR
GS
[0.75 0 0 0.75 315.15001 284.50001] CT
0 GC
/Helvetica 13.333 F
GS
[1 0 0 1 0 0] CT
-9.5 14 moveto 
1 -1 scale
(0.4) t 
GR
GR
GS
[0.75 0 0 0.75 347.69998 284.50001] CT
0 GC
/Helvetica 13.333 F
GS
[1 0 0 1 0 0] CT
-13 14 moveto 
1 -1 scale
(0.45) t 
GR
GR
GS
[0.75 0 0 0.75 380.25 284.50001] CT
0 GC
/Helvetica 13.333 F
GS
[1 0 0 1 0 0] CT
-9.5 14 moveto 
1 -1 scale
(0.5) t 
GR
GR
GS
[0.75 0 0 0.75 217.50016 298.24999] CT
0 GC
/Helvetica 14.667 F
GS
[1 0 0 1 0 0] CT
-64 16 moveto 
1 -1 scale
(frequency in cycles) t 
GR
GR
GS
[0.75 0 0 0.75 0 0] CT
0 GC
2 setlinecap
1 LJ
0.667 LW
N
73 374 M
73 31 L
S
GR
GS
[0.75 0 0 0.75 0 0] CT
0 GC
2 setlinecap
1 LJ
0.667 LW
N
507 374 M
507 31 L
S
GR
GS
[0.75 0 0 0.75 0 0] CT
0 GC
2 setlinecap
1 LJ
0.667 LW
N
73 374 M
77.34 374 L
S
GR
GS
[0.75 0 0 0.75 0 0] CT
0 GC
2 setlinecap
1 LJ
0.667 LW
N
73 316.833 M
77.34 316.833 L
S
GR
GS
[0.75 0 0 0.75 0 0] CT
0 GC
2 setlinecap
1 LJ
0.667 LW
N
73 259.667 M
77.34 259.667 L
S
GR
GS
[0.75 0 0 0.75 0 0] CT
0 GC
2 setlinecap
1 LJ
0.667 LW
N
73 202.5 M
77.34 202.5 L
S
GR
GS
[0.75 0 0 0.75 0 0] CT
0 GC
2 setlinecap
1 LJ
0.667 LW
N
73 145.333 M
77.34 145.333 L
S
GR
GS
[0.75 0 0 0.75 0 0] CT
0 GC
2 setlinecap
1 LJ
0.667 LW
N
73 88.167 M
77.34 88.167 L
S
GR
GS
[0.75 0 0 0.75 0 0] CT
0 GC
2 setlinecap
1 LJ
0.667 LW
N
73 31 M
77.34 31 L
S
GR
GS
[0.75 0 0 0.75 0 0] CT
0 GC
2 setlinecap
1 LJ
0.667 LW
N
507 374 M
502.66 374 L
S
GR
GS
[0.75 0 0 0.75 0 0] CT
0 GC
2 setlinecap
1 LJ
0.667 LW
N
507 316.833 M
502.66 316.833 L
S
GR
GS
[0.75 0 0 0.75 0 0] CT
0 GC
2 setlinecap
1 LJ
0.667 LW
N
507 259.667 M
502.66 259.667 L
S
GR
GS
[0.75 0 0 0.75 0 0] CT
0 GC
2 setlinecap
1 LJ
0.667 LW
N
507 202.5 M
502.66 202.5 L
S
GR
GS
[0.75 0 0 0.75 0 0] CT
0 GC
2 setlinecap
1 LJ
0.667 LW
N
507 145.333 M
502.66 145.333 L
S
GR
GS
[0.75 0 0 0.75 0 0] CT
0 GC
2 setlinecap
1 LJ
0.667 LW
N
507 88.167 M
502.66 88.167 L
S
GR
GS
[0.75 0 0 0.75 0 0] CT
0 GC
2 setlinecap
1 LJ
0.667 LW
N
507 31 M
502.66 31 L
S
GR
GS
[0.75 0 0 0.75 50.75 280.5] CT
0 GC
/Helvetica 13.333 F
GS
[1 0 0 1 0 0] CT
-19 5.5 moveto 
1 -1 scale
(-50) t 
GR
GR
GS
[0.75 0 0 0.75 50.75 237.62501] CT
0 GC
/Helvetica 13.333 F
GS
[1 0 0 1 0 0] CT
-19 5.5 moveto 
1 -1 scale
(-40) t 
GR
GR
GS
[0.75 0 0 0.75 50.75 194.74999] CT
0 GC
/Helvetica 13.333 F
GS
[1 0 0 1 0 0] CT
-19 5.5 moveto 
1 -1 scale
(-30) t 
GR
GR
GS
[0.75 0 0 0.75 50.75 151.875] CT
0 GC
/Helvetica 13.333 F
GS
[1 0 0 1 0 0] CT
-19 5.5 moveto 
1 -1 scale
(-20) t 
GR
GR
GS
[0.75 0 0 0.75 50.75 109] CT
0 GC
/Helvetica 13.333 F
GS
[1 0 0 1 0 0] CT
-19 5.5 moveto 
1 -1 scale
(-10) t 
GR
GR
GS
[0.75 0 0 0.75 50.75 66.125] CT
0 GC
/Helvetica 13.333 F
GS
[1 0 0 1 0 0] CT
-8 5.5 moveto 
1 -1 scale
(0) t 
GR
GR
GS
[0.75 0 0 0.75 50.75 23.25] CT
0 GC
/Helvetica 13.333 F
GS
[1 0 0 1 0 0] CT
-15 5.5 moveto 
1 -1 scale
(10) t 
GR
GR
GS
[0 -0.75 0.75 0 30.75 205.5] CT
0 GC
/Helvetica 14.667 F
GS
[1 0 0 1 0 0] CT
0 0 moveto 
1 -1 scale
(20  log \( | H\(e) t 
GR
GR
GS
[0 -0.75 0.75 0 25.5 137.25] CT
0 GC
/Helvetica 10.667 F
GS
[1 0 0 1 0 0] CT
0 0 moveto 
1 -1 scale
(j 2 pi f) t 
GR
GR
GS
[0 -0.75 0.75 0 30.75 114.75] CT
0 GC
/Helvetica 14.667 F
GS
[1 0 0 1 0 0] CT
0 0 moveto 
1 -1 scale
(\) | \)) t 
GR
GR
GS
[0.75 0 0 0.75 0 0] CT
0 GC
1 LJ
0.667 LW
N
73.217 90.579 M
73.651 90.572 L
74.085 90.56 L
74.519 90.541 L
74.953 90.516 L
75.387 90.484 L
75.821 90.447 L
76.255 90.404 L
76.689 90.355 L
77.123 90.3 L
77.557 90.24 L
77.991 90.174 L
78.425 90.103 L
78.859 90.027 L
79.293 89.946 L
79.727 89.861 L
80.161 89.771 L
80.595 89.678 L
81.029 89.58 L
81.463 89.479 L
81.897 89.374 L
82.331 89.267 L
82.765 89.157 L
83.199 89.044 L
83.633 88.929 L
84.067 88.812 L
84.501 88.693 L
84.935 88.574 L
85.369 88.453 L
85.803 88.332 L
86.237 88.21 L
86.671 88.088 L
87.105 87.967 L
87.539 87.846 L
87.973 87.725 L
88.407 87.606 L
88.841 87.489 L
89.275 87.373 L
89.709 87.259 L
90.143 87.148 L
90.577 87.038 L
91.011 86.932 L
91.445 86.829 L
91.879 86.729 L
92.313 86.633 L
92.747 86.54 L
93.181 86.451 L
93.615 86.367 L
94.049 86.287 L
94.483 86.212 L
94.917 86.141 L
95.351 86.075 L
95.785 86.015 L
96.219 85.959 L
96.653 85.909 L
97.087 85.865 L
97.521 85.826 L
97.955 85.793 L
98.389 85.766 L
98.823 85.745 L
99.257 85.73 L
99.691 85.72 L
100.125 85.717 L
100.559 85.72 L
100.993 85.73 L
101.427 85.745 L
101.861 85.767 L
102.295 85.794 L
102.729 85.828 L
103.163 85.868 L
103.597 85.914 L
104.031 85.966 L
104.465 86.024 L
104.899 86.087 L
105.333 86.156 L
105.767 86.231 L
106.201 86.311 L
106.635 86.397 L
107.069 86.487 L
107.503 86.583 L
107.937 86.683 L
108.371 86.788 L
108.805 86.897 L
109.239 87.011 L
109.673 87.128 L
110.107 87.249 L
110.541 87.373 L
110.975 87.501 L
111.409 87.631 L
111.843 87.764 L
112.277 87.9 L
112.711 88.037 L
113.145 88.176 L
113.579 88.316 L
114.013 88.457 L
114.447 88.599 L
114.881 88.742 L
115.315 88.884 L
115.749 89.025 L
116.183 89.166 L
116.617 89.306 L
117.051 89.445 L
117.485 89.581 L
117.919 89.715 L
118.353 89.847 L
118.787 89.975 L
119.221 90.1 L
119.655 90.222 L
120.089 90.339 L
120.523 90.451 L
120.957 90.559 L
121.391 90.662 L
121.825 90.759 L
122.259 90.85 L
122.693 90.935 L
123.127 91.013 L
123.561 91.085 L
123.995 91.149 L
124.429 91.206 L
124.863 91.256 L
125.297 91.297 L
125.731 91.331 L
126.165 91.357 L
126.599 91.374 L
127.033 91.382 L
127.467 91.382 L
127.901 91.374 L
128.335 91.356 L
128.769 91.33 L
129.203 91.295 L
129.637 91.25 L
130.071 91.197 L
130.505 91.136 L
130.939 91.065 L
131.373 90.986 L
131.807 90.899 L
132.241 90.803 L
132.675 90.699 L
133.109 90.587 L
133.543 90.467 L
133.977 90.34 L
134.411 90.206 L
134.845 90.064 L
135.279 89.916 L
135.713 89.762 L
136.147 89.602 L
136.581 89.437 L
137.015 89.266 L
137.449 89.09 L
137.883 88.91 L
138.317 88.726 L
138.751 88.539 L
139.185 88.348 L
139.619 88.155 L
140.053 87.959 L
140.487 87.762 L
140.921 87.564 L
141.355 87.365 L
141.789 87.165 L
142.223 86.966 L
142.657 86.768 L
143.091 86.57 L
143.525 86.375 L
143.959 86.181 L
144.393 85.99 L
144.827 85.802 L
145.261 85.618 L
145.695 85.438 L
146.129 85.262 L
146.563 85.091 L
146.997 84.926 L
147.431 84.767 L
147.865 84.614 L
148.299 84.468 L
148.733 84.329 L
149.167 84.198 L
149.601 84.075 L
150.035 83.961 L
150.469 83.855 L
150.903 83.759 L
151.337 83.673 L
151.771 83.597 L
152.205 83.532 L
152.639 83.478 L
153.073 83.435 L
153.507 83.404 L
153.941 83.385 L
154.375 83.379 L
154.809 83.385 L
155.243 83.405 L
155.677 83.438 L
156.111 83.486 L
156.545 83.547 L
156.979 83.623 L
157.413 83.715 L
157.847 83.821 L
158.281 83.943 L
158.715 84.082 L
159.149 84.236 L
159.583 84.407 L
160.017 84.595 L
160.451 84.801 L
160.885 85.024 L
161.319 85.265 L
161.753 85.524 L
162.187 85.802 L
162.621 86.099 L
163.055 86.415 L
163.489 86.75 L
163.923 87.106 L
164.357 87.482 L
164.791 87.878 L
165.225 88.296 L
165.659 88.735 L
166.093 89.195 L
166.527 89.678 L
166.961 90.183 L
167.395 90.71 L
167.829 91.261 L
168.263 91.836 L
168.697 92.435 L
169.131 93.058 L
169.565 93.705 L
169.999 94.379 L
170.433 95.078 L
170.867 95.803 L
171.301 96.555 L
171.735 97.335 L
172.169 98.142 L
172.603 98.977 L
173.037 99.842 L
173.471 100.736 L
173.905 101.66 L
174.339 102.615 L
174.773 103.602 L
175.207 104.62 L
175.641 105.672 L
176.075 106.758 L
176.509 107.878 L
176.943 109.033 L
177.377 110.225 L
177.811 111.455 L
178.245 112.722 L
178.679 114.03 L
179.113 115.378 L
179.547 116.768 L
179.981 118.201 L
180.415 119.679 L
180.849 121.202 L
181.283 122.774 L
181.717 124.395 L
182.151 126.068 L
182.585 127.794 L
183.019 129.575 L
183.453 131.414 L
183.887 133.313 L
184.321 135.276 L
184.755 137.305 L
185.189 139.403 L
185.623 141.574 L
186.057 143.822 L
186.491 146.152 L
186.925 148.568 L
187.359 151.075 L
187.793 153.681 L
188.227 156.391 L
188.661 159.213 L
189.095 162.156 L
189.529 165.23 L
189.963 168.447 L
190.397 171.82 L
190.831 175.363 L
191.265 179.097 L
191.699 183.041 L
192.133 187.223 L
192.567 191.674 L
193.001 196.434 L
193.435 201.552 L
193.869 207.09 L
194.303 213.132 L
194.737 219.788 L
195.171 227.213 L
195.605 235.63 L
196.039 245.384 L
196.473 257.036 L
196.907 271.616 L
197.341 291.337 L
197.775 322.616 L
198.021 374.034 L
S
GR
GS
[0.75 0 0 0.75 0 0] CT
0 GC
1 LJ
0.667 LW
N
198.458 374.034 M
198.643 344.724 L
199.077 305.775 L
199.511 285.101 L
199.945 271.214 L
200.379 260.915 L
200.813 252.847 L
201.247 246.307 L
201.681 240.884 L
202.115 236.317 L
202.549 232.429 L
202.983 229.095 L
203.417 226.225 L
203.851 223.749 L
204.285 221.615 L
204.719 219.781 L
205.153 218.215 L
205.587 216.89 L
206.021 215.785 L
206.455 214.88 L
206.889 214.163 L
207.323 213.62 L
207.757 213.241 L
208.191 213.019 L
208.625 212.947 L
209.059 213.018 L
209.493 213.228 L
209.927 213.575 L
210.361 214.055 L
210.795 214.667 L
211.229 215.41 L
211.663 216.284 L
212.097 217.29 L
212.531 218.429 L
212.965 219.704 L
213.399 221.119 L
213.833 222.677 L
214.267 224.384 L
214.701 226.247 L
215.135 228.273 L
215.569 230.472 L
216.003 232.857 L
216.437 235.439 L
216.871 238.238 L
217.305 241.272 L
217.739 244.566 L
218.173 248.152 L
218.607 252.066 L
219.041 256.357 L
219.475 261.086 L
219.909 266.334 L
220.343 272.211 L
220.777 278.867 L
221.211 286.525 L
221.645 295.52 L
222.079 306.406 L
222.513 320.191 L
222.947 339.026 L
223.381 369.072 L
223.407 374.034 L
S
GR
GS
[0.75 0 0 0.75 0 0] CT
0 GC
1 LJ
0.667 LW
N
224.453 374.034 M
224.683 352.492 L
225.117 330.898 L
225.551 316.267 L
225.985 305.295 L
226.419 296.593 L
226.853 289.445 L
227.287 283.433 L
227.721 278.291 L
228.155 273.841 L
228.589 269.955 L
229.023 266.542 L
229.457 263.533 L
229.891 260.873 L
230.325 258.52 L
230.759 256.441 L
231.193 254.608 L
231.627 253 L
232.061 251.599 L
232.495 250.388 L
232.929 249.355 L
233.363 248.49 L
233.797 247.784 L
234.231 247.229 L
234.665 246.819 L
235.099 246.55 L
235.533 246.417 L
235.967 246.417 L
236.401 246.547 L
236.835 246.807 L
237.269 247.195 L
237.703 247.71 L
238.137 248.355 L
238.571 249.129 L
239.005 250.034 L
239.439 251.074 L
239.873 252.252 L
240.307 253.572 L
240.741 255.039 L
241.175 256.661 L
241.609 258.445 L
242.043 260.402 L
242.477 262.541 L
242.911 264.877 L
243.345 267.426 L
243.779 270.207 L
244.213 273.246 L
244.647 276.57 L
245.081 280.217 L
245.515 284.232 L
245.949 288.675 L
246.383 293.622 L
246.817 299.177 L
247.251 305.483 L
247.685 312.744 L
248.119 321.274 L
248.553 331.574 L
248.987 344.544 L
249.421 362.035 L
249.614 374.034 L
S
GR
GS
[0.75 0 0 0.75 0 0] CT
0 GC
1 LJ
0.667 LW
N
251.334 374.034 M
251.591 359.983 L
252.025 344.271 L
252.459 332.598 L
252.893 323.375 L
253.327 315.806 L
253.761 309.434 L
254.195 303.973 L
254.629 299.231 L
255.063 295.075 L
255.497 291.406 L
255.931 288.153 L
256.365 285.258 L
256.799 282.679 L
257.233 280.379 L
257.667 278.331 L
258.101 276.511 L
258.535 274.902 L
258.969 273.486 L
259.403 272.251 L
259.837 271.185 L
260.271 270.28 L
260.705 269.528 L
261.139 268.922 L
261.573 268.457 L
262.007 268.129 L
262.441 267.934 L
262.875 267.869 L
263.309 267.933 L
263.743 268.125 L
264.177 268.443 L
264.611 268.888 L
265.045 269.462 L
265.479 270.164 L
265.913 270.999 L
266.347 271.967 L
266.781 273.074 L
267.215 274.325 L
267.649 275.724 L
268.083 277.278 L
268.517 278.997 L
268.951 280.89 L
269.385 282.969 L
269.819 285.247 L
270.253 287.743 L
270.687 290.476 L
271.121 293.472 L
271.555 296.761 L
271.989 300.381 L
272.423 304.381 L
272.857 308.823 L
273.291 313.788 L
273.725 319.388 L
274.159 325.774 L
274.593 333.172 L
275.027 341.922 L
275.461 352.587 L
275.895 366.195 L
276.076 374.034 L
S
GR
GS
[0.75 0 0 0.75 0 0] CT
0 GC
1 LJ
0.667 LW
N
278.503 374.034 M
278.933 359.409 L
279.367 348.245 L
279.801 339.323 L
280.235 331.94 L
280.669 325.684 L
281.103 320.293 L
281.537 315.59 L
281.971 311.451 L
282.405 307.782 L
282.839 304.516 L
283.273 301.6 L
283.707 298.99 L
284.141 296.654 L
284.575 294.565 L
285.009 292.701 L
285.443 291.043 L
285.877 289.575 L
286.311 288.287 L
286.745 287.165 L
287.179 286.203 L
287.613 285.392 L
288.047 284.726 L
288.481 284.2 L
288.915 283.81 L
289.349 283.552 L
289.783 283.424 L
290.217 283.424 L
290.651 283.551 L
291.085 283.804 L
291.519 284.184 L
291.953 284.691 L
292.387 285.327 L
292.821 286.095 L
293.255 286.996 L
293.689 288.036 L
294.123 289.219 L
294.557 290.549 L
294.991 292.036 L
295.425 293.685 L
295.859 295.509 L
296.293 297.517 L
296.727 299.725 L
297.161 302.149 L
297.595 304.81 L
298.029 307.731 L
298.463 310.945 L
298.897 314.488 L
299.331 318.408 L
299.765 322.767 L
300.199 327.646 L
300.633 333.152 L
301.067 339.438 L
301.501 346.722 L
301.935 355.338 L
302.369 365.836 L
302.635 374.034 L
S
GR
GS
[0.75 0 0 0.75 0 0] CT
0 GC
1 LJ
0.667 LW
N
305.821 374.034 M
305.841 373.333 L
306.275 361.979 L
306.709 352.913 L
307.143 345.411 L
307.577 339.051 L
308.011 333.566 L
308.445 328.776 L
308.879 324.555 L
309.313 320.809 L
309.747 317.468 L
310.181 314.479 L
310.615 311.798 L
311.049 309.393 L
311.483 307.236 L
311.917 305.304 L
312.351 303.58 L
312.785 302.047 L
313.219 300.693 L
313.653 299.507 L
314.087 298.481 L
314.521 297.606 L
314.955 296.876 L
315.389 296.287 L
315.823 295.833 L
316.257 295.512 L
316.691 295.32 L
317.125 295.257 L
317.559 295.32 L
317.993 295.51 L
318.427 295.825 L
318.861 296.268 L
319.295 296.839 L
319.729 297.541 L
320.163 298.377 L
320.597 299.349 L
321.031 300.464 L
321.465 301.725 L
321.899 303.141 L
322.333 304.719 L
322.767 306.468 L
323.201 308.401 L
323.635 310.53 L
324.069 312.872 L
324.503 315.447 L
324.937 318.278 L
325.371 321.395 L
325.805 324.835 L
326.239 328.643 L
326.673 332.878 L
327.107 337.616 L
327.541 342.961 L
327.975 349.055 L
328.409 356.103 L
328.843 364.413 L
329.258 374.034 L
S
GR
GS
[0.75 0 0 0.75 0 0] CT
0 GC
1 LJ
0.667 LW
N
333.183 374.034 M
333.617 364.601 L
334.051 356.82 L
334.485 350.242 L
334.919 344.578 L
335.353 339.637 L
335.787 335.283 L
336.221 331.418 L
336.655 327.97 L
337.089 324.881 L
337.523 322.109 L
337.957 319.617 L
338.391 317.377 L
338.825 315.367 L
339.259 313.566 L
339.693 311.96 L
340.127 310.535 L
340.561 309.28 L
340.995 308.186 L
341.429 307.244 L
341.863 306.449 L
342.297 305.794 L
342.731 305.276 L
343.165 304.891 L
343.599 304.636 L
344.033 304.509 L
344.467 304.509 L
344.901 304.636 L
345.335 304.888 L
345.769 305.267 L
346.203 305.773 L
346.637 306.41 L
347.071 307.18 L
347.505 308.085 L
347.939 309.131 L
348.373 310.323 L
348.807 311.668 L
349.241 313.172 L
349.675 314.845 L
350.109 316.698 L
350.543 318.744 L
350.977 321 L
351.411 323.482 L
351.845 326.215 L
352.279 329.226 L
352.713 332.549 L
353.147 336.228 L
353.581 340.319 L
354.015 344.892 L
354.449 350.043 L
354.883 355.903 L
355.317 362.659 L
355.751 370.587 L
355.908 374.034 L
S
GR
GS
[0.75 0 0 0.75 0 0] CT
0 GC
1 LJ
0.667 LW
N
360.564 374.034 M
360.959 366.597 L
361.393 359.722 L
361.827 353.821 L
362.261 348.683 L
362.695 344.163 L
363.129 340.153 L
363.563 336.576 L
363.997 333.371 L
364.431 330.492 L
364.865 327.902 L
365.299 325.571 L
365.733 323.474 L
366.167 321.592 L
366.601 319.907 L
367.035 318.407 L
367.469 317.079 L
367.903 315.914 L
368.337 314.904 L
368.771 314.041 L
369.205 313.321 L
369.639 312.738 L
370.073 312.288 L
370.507 311.97 L
370.941 311.78 L
371.375 311.716 L
371.809 311.779 L
372.243 311.968 L
372.677 312.284 L
373.111 312.726 L
373.545 313.299 L
373.979 314.002 L
374.413 314.841 L
374.847 315.819 L
375.281 316.941 L
375.715 318.213 L
376.149 319.643 L
376.583 321.239 L
377.017 323.012 L
377.451 324.974 L
377.885 327.139 L
378.319 329.527 L
378.753 332.157 L
379.187 335.057 L
379.621 338.258 L
380.055 341.802 L
380.489 345.74 L
380.923 350.137 L
381.357 355.081 L
381.791 360.691 L
382.225 367.136 L
382.623 374.034 L
S
GR
GS
[0.75 0 0 0.75 0 0] CT
0 GC
1 LJ
0.667 LW
N
387.927 374.034 M
388.301 367.796 L
388.735 361.61 L
389.169 356.241 L
389.603 351.527 L
390.037 347.351 L
390.471 343.628 L
390.905 340.294 L
391.339 337.299 L
391.773 334.602 L
392.207 332.172 L
392.641 329.983 L
393.075 328.014 L
393.509 326.247 L
393.943 324.668 L
394.377 323.265 L
394.811 322.028 L
395.245 320.947 L
395.679 320.016 L
396.113 319.228 L
396.547 318.579 L
396.981 318.065 L
397.415 317.683 L
397.849 317.429 L
398.283 317.303 L
398.717 317.303 L
399.151 317.429 L
399.585 317.681 L
400.019 318.06 L
400.453 318.567 L
400.887 319.206 L
401.321 319.978 L
401.755 320.888 L
402.189 321.94 L
402.623 323.141 L
403.057 324.496 L
403.491 326.015 L
403.925 327.707 L
404.359 329.584 L
404.793 331.66 L
405.227 333.951 L
405.661 336.478 L
406.095 339.265 L
406.529 342.343 L
406.963 345.75 L
407.397 349.532 L
407.831 353.75 L
408.265 358.486 L
408.699 363.845 L
409.133 369.977 L
409.38 374.034 L
S
GR
GS
[0.75 0 0 0.75 0 0] CT
0 GC
1 LJ
0.667 LW
N
415.251 374.034 M
415.643 368.156 L
416.077 362.523 L
416.511 357.591 L
416.945 353.231 L
417.379 349.349 L
417.813 345.874 L
418.247 342.752 L
418.681 339.941 L
419.115 337.406 L
419.549 335.12 L
419.983 333.06 L
420.417 331.208 L
420.851 329.548 L
421.285 328.067 L
421.719 326.755 L
422.153 325.602 L
422.587 324.602 L
423.021 323.746 L
423.455 323.031 L
423.889 322.452 L
424.323 322.004 L
424.757 321.687 L
425.191 321.498 L
425.625 321.435 L
426.059 321.498 L
426.493 321.686 L
426.927 322.002 L
427.361 322.445 L
427.795 323.019 L
428.229 323.725 L
428.663 324.567 L
429.097 325.55 L
429.531 326.679 L
429.965 327.961 L
430.399 329.403 L
430.833 331.015 L
431.267 332.807 L
431.701 334.793 L
432.135 336.989 L
432.569 339.413 L
433.003 342.089 L
433.437 345.044 L
433.871 348.314 L
434.305 351.943 L
434.739 355.985 L
435.173 360.515 L
435.607 365.628 L
436.041 371.458 L
436.207 374.034 L
S
GR
GS
[0.75 0 0 0.75 0 0] CT
0 GC
1 LJ
0.667 LW
N
442.523 374.034 M
442.551 373.597 L
442.985 367.67 L
443.419 362.497 L
443.853 357.935 L
444.287 353.88 L
444.721 350.254 L
445.155 346.997 L
445.589 344.065 L
446.023 341.42 L
446.457 339.032 L
446.891 336.877 L
447.325 334.936 L
447.759 333.193 L
448.193 331.633 L
448.627 330.244 L
449.061 329.018 L
449.495 327.947 L
449.929 327.023 L
450.363 326.24 L
450.797 325.595 L
451.231 325.083 L
451.665 324.702 L
452.099 324.449 L
452.533 324.323 L
452.967 324.323 L
453.401 324.449 L
453.835 324.701 L
454.269 325.081 L
454.703 325.589 L
455.137 326.23 L
455.571 327.005 L
456.005 327.919 L
456.439 328.978 L
456.873 330.186 L
457.307 331.552 L
457.741 333.084 L
458.175 334.793 L
458.609 336.691 L
459.043 338.792 L
459.477 341.115 L
459.911 343.681 L
460.345 346.516 L
460.779 349.652 L
461.213 353.131 L
461.647 357.002 L
462.081 361.333 L
462.515 366.21 L
462.949 371.752 L
463.104 374.034 L
S
GR
GS
[0.75 0 0 0.75 0 0] CT
0 GC
1 LJ
0.667 LW
N
469.736 374.034 M
469.893 371.771 L
470.327 366.334 L
470.761 361.553 L
471.195 357.312 L
471.629 353.524 L
472.063 350.125 L
472.497 347.065 L
472.931 344.304 L
473.365 341.811 L
473.799 339.558 L
474.233 337.526 L
474.667 335.696 L
475.101 334.054 L
475.535 332.588 L
475.969 331.288 L
476.403 330.144 L
476.837 329.15 L
477.271 328.3 L
477.705 327.588 L
478.139 327.011 L
478.573 326.566 L
479.007 326.249 L
479.441 326.06 L
479.875 325.997 L
480.309 326.06 L
480.743 326.249 L
481.177 326.565 L
481.611 327.009 L
482.045 327.584 L
482.479 328.293 L
482.913 329.139 L
483.347 330.127 L
483.781 331.263 L
484.215 332.554 L
484.649 334.008 L
485.083 335.634 L
485.517 337.445 L
485.951 339.454 L
486.385 341.677 L
486.819 344.136 L
487.253 346.853 L
487.687 349.86 L
488.121 353.193 L
488.555 356.9 L
488.989 361.04 L
489.423 365.693 L
489.857 370.964 L
490.078 374.034 L
S
GR
GS
[0.75 0 0 0.75 0 0] CT
0 GC
1 LJ
0.667 LW
N
496.865 374.034 M
497.235 369.152 L
497.669 364.134 L
498.103 359.694 L
498.537 355.735 L
498.971 352.186 L
499.405 348.992 L
499.839 346.111 L
500.273 343.507 L
500.707 341.153 L
501.141 339.026 L
501.575 337.108 L
502.009 335.383 L
502.443 333.837 L
502.877 332.461 L
503.311 331.244 L
503.745 330.179 L
504.179 329.26 L
504.613 328.482 L
505.047 327.839 L
505.481 327.329 L
505.915 326.949 L
506.349 326.697 L
506.783 326.571 L
S
GR
%%Trailer
%%Pages: 1
%%EOF
