%!PS-Adobe-3.0 EPSF-3.0
%%Creator: (MATLAB, The Mathworks, Inc. Version 9.0.0.341360 \(R2016a\). Operating System: Windows 8)
%%Title: ./mag_response_with_practical_coefficients.eps
%%CreationDate: 2017-11-30T21:06:50
%%Pages: (atend)
%%BoundingBox:    14     2   387   295
%%LanguageLevel: 3
%%EndComments
%%BeginProlog
%%BeginResource: procset (Apache XML Graphics Std ProcSet) 1.2 0
%%Version: 1.2 0
%%Copyright: (Copyright 2001-2003,2010 The Apache Software Foundation. License terms: http://www.apache.org/licenses/LICENSE-2.0)
/bd{bind def}bind def
/ld{load def}bd
/GR/grestore ld
/M/moveto ld
/LJ/setlinejoin ld
/C/curveto ld
/f/fill ld
/LW/setlinewidth ld
/GC/setgray ld
/t/show ld
/N/newpath ld
/CT/concat ld
/cp/closepath ld
/S/stroke ld
/L/lineto ld
/CC/setcmykcolor ld
/A/ashow ld
/GS/gsave ld
/RC/setrgbcolor ld
/RM/rmoveto ld
/ML/setmiterlimit ld
/re {4 2 roll M
1 index 0 rlineto
0 exch rlineto
neg 0 rlineto
cp } bd
/_ctm matrix def
/_tm matrix def
/BT { _ctm currentmatrix pop matrix _tm copy pop 0 0 moveto } bd
/ET { _ctm setmatrix } bd
/iTm { _ctm setmatrix _tm concat } bd
/Tm { _tm astore pop iTm 0 0 moveto } bd
/ux 0.0 def
/uy 0.0 def
/F {
  /Tp exch def
  /Tf exch def
  Tf findfont Tp scalefont setfont
  /cf Tf def  /cs Tp def
} bd
/ULS {currentpoint /uy exch def /ux exch def} bd
/ULE {
  /Tcx currentpoint pop def
  gsave
  newpath
  cf findfont cs scalefont dup
  /FontMatrix get 0 get /Ts exch def /FontInfo get dup
  /UnderlinePosition get Ts mul /To exch def
  /UnderlineThickness get Ts mul /Tt exch def
  ux uy To add moveto  Tcx uy To add lineto
  Tt setlinewidth stroke
  grestore
} bd
/OLE {
  /Tcx currentpoint pop def
  gsave
  newpath
  cf findfont cs scalefont dup
  /FontMatrix get 0 get /Ts exch def /FontInfo get dup
  /UnderlinePosition get Ts mul /To exch def
  /UnderlineThickness get Ts mul /Tt exch def
  ux uy To add cs add moveto Tcx uy To add cs add lineto
  Tt setlinewidth stroke
  grestore
} bd
/SOE {
  /Tcx currentpoint pop def
  gsave
  newpath
  cf findfont cs scalefont dup
  /FontMatrix get 0 get /Ts exch def /FontInfo get dup
  /UnderlinePosition get Ts mul /To exch def
  /UnderlineThickness get Ts mul /Tt exch def
  ux uy To add cs 10 mul 26 idiv add moveto Tcx uy To add cs 10 mul 26 idiv add lineto
  Tt setlinewidth stroke
  grestore
} bd
/QT {
/Y22 exch store
/X22 exch store
/Y21 exch store
/X21 exch store
currentpoint
/Y21 load 2 mul add 3 div exch
/X21 load 2 mul add 3 div exch
/X21 load 2 mul /X22 load add 3 div
/Y21 load 2 mul /Y22 load add 3 div
/X22 load /Y22 load curveto
} bd
/SSPD {
dup length /d exch dict def
{
/v exch def
/k exch def
currentpagedevice k known {
/cpdv currentpagedevice k get def
v cpdv ne {
/upd false def
/nullv v type /nulltype eq def
/nullcpdv cpdv type /nulltype eq def
nullv nullcpdv or
{
/upd true def
} {
/sametype v type cpdv type eq def
sametype {
v type /arraytype eq {
/vlen v length def
/cpdvlen cpdv length def
vlen cpdvlen eq {
0 1 vlen 1 sub {
/i exch def
/obj v i get def
/cpdobj cpdv i get def
obj cpdobj ne {
/upd true def
exit
} if
} for
} {
/upd true def
} ifelse
} {
v type /dicttype eq {
v {
/dv exch def
/dk exch def
/cpddv cpdv dk get def
dv cpddv ne {
/upd true def
exit
} if
} forall
} {
/upd true def
} ifelse
} ifelse
} if
} ifelse
upd true eq {
d k v put
} if
} if
} if
} forall
d length 0 gt {
d setpagedevice
} if
} bd
%%EndResource
%%BeginResource: procset (Apache XML Graphics EPS ProcSet) 1.0 0
%%Version: 1.0 0
%%Copyright: (Copyright 2002-2003 The Apache Software Foundation. License terms: http://www.apache.org/licenses/LICENSE-2.0)
/BeginEPSF { %def
/b4_Inc_state save def         % Save state for cleanup
/dict_count countdictstack def % Count objects on dict stack
/op_count count 1 sub def      % Count objects on operand stack
userdict begin                 % Push userdict on dict stack
/showpage { } def              % Redefine showpage, { } = null proc
0 setgray 0 setlinecap         % Prepare graphics state
1 setlinewidth 0 setlinejoin
10 setmiterlimit [ ] 0 setdash newpath
/languagelevel where           % If level not equal to 1 then
{pop languagelevel             % set strokeadjust and
1 ne                           % overprint to their defaults.
{false setstrokeadjust false setoverprint
} if
} if
} bd
/EndEPSF { %def
count op_count sub {pop} repeat            % Clean up stacks
countdictstack dict_count sub {end} repeat
b4_Inc_state restore
} bd
%%EndResource
%FOPBeginFontDict
%%IncludeResource: font Courier-Bold
%%IncludeResource: font Helvetica
%%IncludeResource: font Courier-BoldOblique
%%IncludeResource: font Courier-Oblique
%%IncludeResource: font Times-Roman
%%IncludeResource: font Helvetica-BoldOblique
%%IncludeResource: font Helvetica-Bold
%%IncludeResource: font Helvetica-Oblique
%%IncludeResource: font Times-BoldItalic
%%IncludeResource: font Courier
%%IncludeResource: font Times-Italic
%%IncludeResource: font Times-Bold
%%IncludeResource: font Symbol
%%IncludeResource: font ZapfDingbats
%FOPEndFontDict
%%BeginResource: encoding WinAnsiEncoding
/WinAnsiEncoding [
/.notdef /.notdef /.notdef /.notdef /.notdef
/.notdef /.notdef /.notdef /.notdef /.notdef
/.notdef /.notdef /.notdef /.notdef /.notdef
/.notdef /.notdef /.notdef /.notdef /.notdef
/.notdef /.notdef /.notdef /.notdef /.notdef
/.notdef /.notdef /.notdef /.notdef /.notdef
/.notdef /.notdef /space /exclam /quotedbl
/numbersign /dollar /percent /ampersand /quotesingle
/parenleft /parenright /asterisk /plus /comma
/hyphen /period /slash /zero /one
/two /three /four /five /six
/seven /eight /nine /colon /semicolon
/less /equal /greater /question /at
/A /B /C /D /E
/F /G /H /I /J
/K /L /M /N /O
/P /Q /R /S /T
/U /V /W /X /Y
/Z /bracketleft /backslash /bracketright /asciicircum
/underscore /quoteleft /a /b /c
/d /e /f /g /h
/i /j /k /l /m
/n /o /p /q /r
/s /t /u /v /w
/x /y /z /braceleft /bar
/braceright /asciitilde /bullet /Euro /bullet
/quotesinglbase /florin /quotedblbase /ellipsis /dagger
/daggerdbl /circumflex /perthousand /Scaron /guilsinglleft
/OE /bullet /Zcaron /bullet /bullet
/quoteleft /quoteright /quotedblleft /quotedblright /bullet
/endash /emdash /asciitilde /trademark /scaron
/guilsinglright /oe /bullet /zcaron /Ydieresis
/space /exclamdown /cent /sterling /currency
/yen /brokenbar /section /dieresis /copyright
/ordfeminine /guillemotleft /logicalnot /sfthyphen /registered
/macron /degree /plusminus /twosuperior /threesuperior
/acute /mu /paragraph /middot /cedilla
/onesuperior /ordmasculine /guillemotright /onequarter /onehalf
/threequarters /questiondown /Agrave /Aacute /Acircumflex
/Atilde /Adieresis /Aring /AE /Ccedilla
/Egrave /Eacute /Ecircumflex /Edieresis /Igrave
/Iacute /Icircumflex /Idieresis /Eth /Ntilde
/Ograve /Oacute /Ocircumflex /Otilde /Odieresis
/multiply /Oslash /Ugrave /Uacute /Ucircumflex
/Udieresis /Yacute /Thorn /germandbls /agrave
/aacute /acircumflex /atilde /adieresis /aring
/ae /ccedilla /egrave /eacute /ecircumflex
/edieresis /igrave /iacute /icircumflex /idieresis
/eth /ntilde /ograve /oacute /ocircumflex
/otilde /odieresis /divide /oslash /ugrave
/uacute /ucircumflex /udieresis /yacute /thorn
/ydieresis
] def
%%EndResource
%FOPBeginFontReencode
/Courier-Bold findfont
dup length dict begin
  {1 index /FID ne {def} {pop pop} ifelse} forall
  /Encoding WinAnsiEncoding def
  currentdict
end
/Courier-Bold exch definefont pop
/Helvetica findfont
dup length dict begin
  {1 index /FID ne {def} {pop pop} ifelse} forall
  /Encoding WinAnsiEncoding def
  currentdict
end
/Helvetica exch definefont pop
/Courier-BoldOblique findfont
dup length dict begin
  {1 index /FID ne {def} {pop pop} ifelse} forall
  /Encoding WinAnsiEncoding def
  currentdict
end
/Courier-BoldOblique exch definefont pop
/Courier-Oblique findfont
dup length dict begin
  {1 index /FID ne {def} {pop pop} ifelse} forall
  /Encoding WinAnsiEncoding def
  currentdict
end
/Courier-Oblique exch definefont pop
/Times-Roman findfont
dup length dict begin
  {1 index /FID ne {def} {pop pop} ifelse} forall
  /Encoding WinAnsiEncoding def
  currentdict
end
/Times-Roman exch definefont pop
/Helvetica-BoldOblique findfont
dup length dict begin
  {1 index /FID ne {def} {pop pop} ifelse} forall
  /Encoding WinAnsiEncoding def
  currentdict
end
/Helvetica-BoldOblique exch definefont pop
/Helvetica-Bold findfont
dup length dict begin
  {1 index /FID ne {def} {pop pop} ifelse} forall
  /Encoding WinAnsiEncoding def
  currentdict
end
/Helvetica-Bold exch definefont pop
/Helvetica-Oblique findfont
dup length dict begin
  {1 index /FID ne {def} {pop pop} ifelse} forall
  /Encoding WinAnsiEncoding def
  currentdict
end
/Helvetica-Oblique exch definefont pop
/Times-BoldItalic findfont
dup length dict begin
  {1 index /FID ne {def} {pop pop} ifelse} forall
  /Encoding WinAnsiEncoding def
  currentdict
end
/Times-BoldItalic exch definefont pop
/Courier findfont
dup length dict begin
  {1 index /FID ne {def} {pop pop} ifelse} forall
  /Encoding WinAnsiEncoding def
  currentdict
end
/Courier exch definefont pop
/Times-Italic findfont
dup length dict begin
  {1 index /FID ne {def} {pop pop} ifelse} forall
  /Encoding WinAnsiEncoding def
  currentdict
end
/Times-Italic exch definefont pop
/Times-Bold findfont
dup length dict begin
  {1 index /FID ne {def} {pop pop} ifelse} forall
  /Encoding WinAnsiEncoding def
  currentdict
end
/Times-Bold exch definefont pop
%FOPEndFontReencode
%%EndProlog
%%Page: 1 1
%%PageBoundingBox: 0 0 420 315
%%BeginPageSetup
[1 0 0 -1 0 315] CT
%%EndPageSetup
GS
[0.75 0 0 0.75 0 0] CT
0.997 GC
N
0 0 560 420 re
f
GR
GS
[0.75 0 0 0.75 0 0] CT
0.997 GC
N
0 0 560 420 re
f
GR
GS
[0.75 0 0 0.75 0 0] CT
0.997 GC
N
73 374 M
507 374 L
507 31 L
73 31 L
cp
f
GR
GS
[0.75 0 0 0.75 0 0] CT
0.846 GC
1 LJ
0.667 LW
N
73 374 M
73 31 L
S
GR
GS
[0.75 0 0 0.75 0 0] CT
0.846 GC
1 LJ
0.667 LW
N
116.4 374 M
116.4 31 L
S
GR
GS
[0.75 0 0 0.75 0 0] CT
0.846 GC
1 LJ
0.667 LW
N
159.8 374 M
159.8 31 L
S
GR
GS
[0.75 0 0 0.75 0 0] CT
0.846 GC
1 LJ
0.667 LW
N
203.2 374 M
203.2 31 L
S
GR
GS
[0.75 0 0 0.75 0 0] CT
0.846 GC
1 LJ
0.667 LW
N
246.6 374 M
246.6 31 L
S
GR
GS
[0.75 0 0 0.75 0 0] CT
0.846 GC
1 LJ
0.667 LW
N
290 374 M
290 31 L
S
GR
GS
[0.75 0 0 0.75 0 0] CT
0.846 GC
1 LJ
0.667 LW
N
333.4 374 M
333.4 31 L
S
GR
GS
[0.75 0 0 0.75 0 0] CT
0.846 GC
1 LJ
0.667 LW
N
376.8 374 M
376.8 31 L
S
GR
GS
[0.75 0 0 0.75 0 0] CT
0.846 GC
1 LJ
0.667 LW
N
420.2 374 M
420.2 31 L
S
GR
GS
[0.75 0 0 0.75 0 0] CT
0.846 GC
1 LJ
0.667 LW
N
463.6 374 M
463.6 31 L
S
GR
GS
[0.75 0 0 0.75 0 0] CT
0.846 GC
1 LJ
0.667 LW
N
507 374 M
507 31 L
S
GR
GS
[0.75 0 0 0.75 0 0] CT
0.846 GC
1 LJ
0.667 LW
N
507 374 M
73 374 L
S
GR
GS
[0.75 0 0 0.75 0 0] CT
0.846 GC
1 LJ
0.667 LW
N
507 316.833 M
73 316.833 L
S
GR
GS
[0.75 0 0 0.75 0 0] CT
0.846 GC
1 LJ
0.667 LW
N
507 259.667 M
73 259.667 L
S
GR
GS
[0.75 0 0 0.75 0 0] CT
0.846 GC
1 LJ
0.667 LW
N
507 202.5 M
73 202.5 L
S
GR
GS
[0.75 0 0 0.75 0 0] CT
0.846 GC
1 LJ
0.667 LW
N
507 145.333 M
73 145.333 L
S
GR
GS
[0.75 0 0 0.75 0 0] CT
0.846 GC
1 LJ
0.667 LW
N
507 88.167 M
73 88.167 L
S
GR
GS
[0.75 0 0 0.75 0 0] CT
0.846 GC
1 LJ
0.667 LW
N
507 31 M
73 31 L
S
GR
GS
[0.75 0 0 0.75 0 0] CT
0 GC
2 setlinecap
1 LJ
0.667 LW
N
73 374 M
507 374 L
S
GR
GS
[0.75 0 0 0.75 0 0] CT
0 GC
2 setlinecap
1 LJ
0.667 LW
N
73 31 M
507 31 L
S
GR
GS
[0.75 0 0 0.75 0 0] CT
0 GC
2 setlinecap
1 LJ
0.667 LW
N
73 374 M
73 369.66 L
S
GR
GS
[0.75 0 0 0.75 0 0] CT
0 GC
2 setlinecap
1 LJ
0.667 LW
N
116.4 374 M
116.4 369.66 L
S
GR
GS
[0.75 0 0 0.75 0 0] CT
0 GC
2 setlinecap
1 LJ
0.667 LW
N
159.8 374 M
159.8 369.66 L
S
GR
GS
[0.75 0 0 0.75 0 0] CT
0 GC
2 setlinecap
1 LJ
0.667 LW
N
203.2 374 M
203.2 369.66 L
S
GR
GS
[0.75 0 0 0.75 0 0] CT
0 GC
2 setlinecap
1 LJ
0.667 LW
N
246.6 374 M
246.6 369.66 L
S
GR
GS
[0.75 0 0 0.75 0 0] CT
0 GC
2 setlinecap
1 LJ
0.667 LW
N
290 374 M
290 369.66 L
S
GR
GS
[0.75 0 0 0.75 0 0] CT
0 GC
2 setlinecap
1 LJ
0.667 LW
N
333.4 374 M
333.4 369.66 L
S
GR
GS
[0.75 0 0 0.75 0 0] CT
0 GC
2 setlinecap
1 LJ
0.667 LW
N
376.8 374 M
376.8 369.66 L
S
GR
GS
[0.75 0 0 0.75 0 0] CT
0 GC
2 setlinecap
1 LJ
0.667 LW
N
420.2 374 M
420.2 369.66 L
S
GR
GS
[0.75 0 0 0.75 0 0] CT
0 GC
2 setlinecap
1 LJ
0.667 LW
N
463.6 374 M
463.6 369.66 L
S
GR
GS
[0.75 0 0 0.75 0 0] CT
0 GC
2 setlinecap
1 LJ
0.667 LW
N
507 374 M
507 369.66 L
S
GR
GS
[0.75 0 0 0.75 0 0] CT
0 GC
2 setlinecap
1 LJ
0.667 LW
N
73 31 M
73 35.34 L
S
GR
GS
[0.75 0 0 0.75 0 0] CT
0 GC
2 setlinecap
1 LJ
0.667 LW
N
116.4 31 M
116.4 35.34 L
S
GR
GS
[0.75 0 0 0.75 0 0] CT
0 GC
2 setlinecap
1 LJ
0.667 LW
N
159.8 31 M
159.8 35.34 L
S
GR
GS
[0.75 0 0 0.75 0 0] CT
0 GC
2 setlinecap
1 LJ
0.667 LW
N
203.2 31 M
203.2 35.34 L
S
GR
GS
[0.75 0 0 0.75 0 0] CT
0 GC
2 setlinecap
1 LJ
0.667 LW
N
246.6 31 M
246.6 35.34 L
S
GR
GS
[0.75 0 0 0.75 0 0] CT
0 GC
2 setlinecap
1 LJ
0.667 LW
N
290 31 M
290 35.34 L
S
GR
GS
[0.75 0 0 0.75 0 0] CT
0 GC
2 setlinecap
1 LJ
0.667 LW
N
333.4 31 M
333.4 35.34 L
S
GR
GS
[0.75 0 0 0.75 0 0] CT
0 GC
2 setlinecap
1 LJ
0.667 LW
N
376.8 31 M
376.8 35.34 L
S
GR
GS
[0.75 0 0 0.75 0 0] CT
0 GC
2 setlinecap
1 LJ
0.667 LW
N
420.2 31 M
420.2 35.34 L
S
GR
GS
[0.75 0 0 0.75 0 0] CT
0 GC
2 setlinecap
1 LJ
0.667 LW
N
463.6 31 M
463.6 35.34 L
S
GR
GS
[0.75 0 0 0.75 0 0] CT
0 GC
2 setlinecap
1 LJ
0.667 LW
N
507 31 M
507 35.34 L
S
GR
GS
[0.75 0 0 0.75 54.75 284.50001] CT
0 GC
/Helvetica 13.333 F
GS
[1 0 0 1 0 0] CT
-4 14 moveto 
1 -1 scale
(0) t 
GR
GR
GS
[0.75 0 0 0.75 87.3 284.50001] CT
0 GC
/Helvetica 13.333 F
GS
[1 0 0 1 0 0] CT
-13 14 moveto 
1 -1 scale
(0.05) t 
GR
GR
GS
[0.75 0 0 0.75 119.85 284.50001] CT
0 GC
/Helvetica 13.333 F
GS
[1 0 0 1 0 0] CT
-9.5 14 moveto 
1 -1 scale
(0.1) t 
GR
GR
GS
[0.75 0 0 0.75 152.40001 284.50001] CT
0 GC
/Helvetica 13.333 F
GS
[1 0 0 1 0 0] CT
-13 14 moveto 
1 -1 scale
(0.15) t 
GR
GR
GS
[0.75 0 0 0.75 184.95 284.50001] CT
0 GC
/Helvetica 13.333 F
GS
[1 0 0 1 0 0] CT
-9.5 14 moveto 
1 -1 scale
(0.2) t 
GR
GR
GS
[0.75 0 0 0.75 217.5 284.50001] CT
0 GC
/Helvetica 13.333 F
GS
[1 0 0 1 0 0] CT
-13 14 moveto 
1 -1 scale
(0.25) t 
GR
GR
GS
[0.75 0 0 0.75 250.05002 284.50001] CT
0 GC
/Helvetica 13.333 F
GS
[1 0 0 1 0 0] CT
-9.5 14 moveto 
1 -1 scale
(0.3) t 
GR
GR
GS
[0.75 0 0 0.75 282.59999 284.50001] CT
0 GC
/Helvetica 13.333 F
GS
[1 0 0 1 0 0] CT
-13 14 moveto 
1 -1 scale
(0.35) t 
GR
GR
GS
[0.75 0 0 0.75 315.15001 284.50001] CT
0 GC
/Helvetica 13.333 F
GS
[1 0 0 1 0 0] CT
-9.5 14 moveto 
1 -1 scale
(0.4) t 
GR
GR
GS
[0.75 0 0 0.75 347.69998 284.50001] CT
0 GC
/Helvetica 13.333 F
GS
[1 0 0 1 0 0] CT
-13 14 moveto 
1 -1 scale
(0.45) t 
GR
GR
GS
[0.75 0 0 0.75 380.25 284.50001] CT
0 GC
/Helvetica 13.333 F
GS
[1 0 0 1 0 0] CT
-9.5 14 moveto 
1 -1 scale
(0.5) t 
GR
GR
GS
[0.75 0 0 0.75 217.50016 298.24999] CT
0 GC
/Helvetica 14.667 F
GS
[1 0 0 1 0 0] CT
-64 16 moveto 
1 -1 scale
(frequency in cycles) t 
GR
GR
GS
[0.75 0 0 0.75 0 0] CT
0 GC
2 setlinecap
1 LJ
0.667 LW
N
73 374 M
73 31 L
S
GR
GS
[0.75 0 0 0.75 0 0] CT
0 GC
2 setlinecap
1 LJ
0.667 LW
N
507 374 M
507 31 L
S
GR
GS
[0.75 0 0 0.75 0 0] CT
0 GC
2 setlinecap
1 LJ
0.667 LW
N
73 374 M
77.34 374 L
S
GR
GS
[0.75 0 0 0.75 0 0] CT
0 GC
2 setlinecap
1 LJ
0.667 LW
N
73 316.833 M
77.34 316.833 L
S
GR
GS
[0.75 0 0 0.75 0 0] CT
0 GC
2 setlinecap
1 LJ
0.667 LW
N
73 259.667 M
77.34 259.667 L
S
GR
GS
[0.75 0 0 0.75 0 0] CT
0 GC
2 setlinecap
1 LJ
0.667 LW
N
73 202.5 M
77.34 202.5 L
S
GR
GS
[0.75 0 0 0.75 0 0] CT
0 GC
2 setlinecap
1 LJ
0.667 LW
N
73 145.333 M
77.34 145.333 L
S
GR
GS
[0.75 0 0 0.75 0 0] CT
0 GC
2 setlinecap
1 LJ
0.667 LW
N
73 88.167 M
77.34 88.167 L
S
GR
GS
[0.75 0 0 0.75 0 0] CT
0 GC
2 setlinecap
1 LJ
0.667 LW
N
73 31 M
77.34 31 L
S
GR
GS
[0.75 0 0 0.75 0 0] CT
0 GC
2 setlinecap
1 LJ
0.667 LW
N
507 374 M
502.66 374 L
S
GR
GS
[0.75 0 0 0.75 0 0] CT
0 GC
2 setlinecap
1 LJ
0.667 LW
N
507 316.833 M
502.66 316.833 L
S
GR
GS
[0.75 0 0 0.75 0 0] CT
0 GC
2 setlinecap
1 LJ
0.667 LW
N
507 259.667 M
502.66 259.667 L
S
GR
GS
[0.75 0 0 0.75 0 0] CT
0 GC
2 setlinecap
1 LJ
0.667 LW
N
507 202.5 M
502.66 202.5 L
S
GR
GS
[0.75 0 0 0.75 0 0] CT
0 GC
2 setlinecap
1 LJ
0.667 LW
N
507 145.333 M
502.66 145.333 L
S
GR
GS
[0.75 0 0 0.75 0 0] CT
0 GC
2 setlinecap
1 LJ
0.667 LW
N
507 88.167 M
502.66 88.167 L
S
GR
GS
[0.75 0 0 0.75 0 0] CT
0 GC
2 setlinecap
1 LJ
0.667 LW
N
507 31 M
502.66 31 L
S
GR
GS
[0.75 0 0 0.75 50.75 280.5] CT
0 GC
/Helvetica 13.333 F
GS
[1 0 0 1 0 0] CT
-19 5.5 moveto 
1 -1 scale
(-50) t 
GR
GR
GS
[0.75 0 0 0.75 50.75 237.62501] CT
0 GC
/Helvetica 13.333 F
GS
[1 0 0 1 0 0] CT
-19 5.5 moveto 
1 -1 scale
(-40) t 
GR
GR
GS
[0.75 0 0 0.75 50.75 194.74999] CT
0 GC
/Helvetica 13.333 F
GS
[1 0 0 1 0 0] CT
-19 5.5 moveto 
1 -1 scale
(-30) t 
GR
GR
GS
[0.75 0 0 0.75 50.75 151.875] CT
0 GC
/Helvetica 13.333 F
GS
[1 0 0 1 0 0] CT
-19 5.5 moveto 
1 -1 scale
(-20) t 
GR
GR
GS
[0.75 0 0 0.75 50.75 109] CT
0 GC
/Helvetica 13.333 F
GS
[1 0 0 1 0 0] CT
-19 5.5 moveto 
1 -1 scale
(-10) t 
GR
GR
GS
[0.75 0 0 0.75 50.75 66.125] CT
0 GC
/Helvetica 13.333 F
GS
[1 0 0 1 0 0] CT
-8 5.5 moveto 
1 -1 scale
(0) t 
GR
GR
GS
[0.75 0 0 0.75 50.75 23.25] CT
0 GC
/Helvetica 13.333 F
GS
[1 0 0 1 0 0] CT
-15 5.5 moveto 
1 -1 scale
(10) t 
GR
GR
GS
[0 -0.75 0.75 0 26.25 213.75] CT
0 GC
/Helvetica 14.667 F
GS
[1 0 0 1 0 0] CT
0 0 moveto 
1 -1 scale
(20  log \( | H) t 
GR
GR
GS
[0 -0.75 0.75 0 31.5 155.25] CT
0 GC
/Helvetica 10.667 F
GS
[1 0 0 1 0 0] CT
0 0 moveto 
1 -1 scale
(final) t 
GR
GR
GS
[0 -0.75 0.75 0 26.25 139.5] CT
0 GC
/Helvetica 14.667 F
GS
[1 0 0 1 0 0] CT
0 0 moveto 
1 -1 scale
(\(e) t 
GR
GR
GS
[0 -0.75 0.75 0 21 129] CT
0 GC
/Helvetica 10.667 F
GS
[1 0 0 1 0 0] CT
0 0 moveto 
1 -1 scale
(j 2 pi f) t 
GR
GR
GS
[0 -0.75 0.75 0 26.25 106.5] CT
0 GC
/Helvetica 14.667 F
GS
[1 0 0 1 0 0] CT
0 0 moveto 
1 -1 scale
(\) | \)) t 
GR
GR
GS
[0.75 0 0 0.75 0 0] CT
0 GC
1 LJ
0.667 LW
N
73.217 58.626 M
73.651 58.626 L
74.085 58.62 L
74.519 58.621 L
74.953 58.628 L
75.387 58.618 L
75.821 58.631 L
76.255 58.623 L
76.689 58.625 L
77.123 58.62 L
77.557 58.617 L
77.991 58.621 L
78.425 58.624 L
78.859 58.624 L
79.293 58.626 L
79.727 58.618 L
80.161 58.621 L
80.595 58.628 L
81.029 58.624 L
81.463 58.624 L
81.897 58.625 L
82.331 58.623 L
82.765 58.628 L
83.199 58.627 L
83.633 58.623 L
84.067 58.619 L
84.501 58.62 L
84.935 58.625 L
85.369 58.621 L
85.803 58.622 L
86.237 58.626 L
86.671 58.62 L
87.105 58.624 L
87.539 58.617 L
87.973 58.624 L
88.407 58.624 L
88.841 58.617 L
89.275 58.631 L
89.709 58.616 L
90.143 58.622 L
90.577 58.625 L
91.011 58.617 L
91.445 58.625 L
91.879 58.617 L
92.313 58.623 L
92.747 58.616 L
93.181 58.62 L
93.615 58.627 L
94.049 58.625 L
94.483 58.63 L
94.917 58.622 L
95.351 58.624 L
95.785 58.623 L
96.219 58.618 L
96.653 58.627 L
97.087 58.617 L
97.521 58.622 L
97.955 58.624 L
98.389 58.619 L
98.823 58.616 L
99.257 58.613 L
99.691 58.625 L
100.125 58.626 L
100.559 58.626 L
100.993 58.616 L
101.427 58.62 L
101.861 58.621 L
102.295 58.615 L
102.729 58.616 L
103.163 58.618 L
103.597 58.623 L
104.031 58.62 L
104.465 58.623 L
104.899 58.621 L
105.333 58.618 L
105.767 58.622 L
106.201 58.617 L
106.635 58.622 L
107.069 58.624 L
107.503 58.621 L
107.937 58.62 L
108.371 58.629 L
108.805 58.619 L
109.239 58.621 L
109.673 58.625 L
110.107 58.615 L
110.541 58.617 L
110.975 58.612 L
111.409 58.626 L
111.843 58.625 L
112.277 58.622 L
112.711 58.619 L
113.145 58.625 L
113.579 58.616 L
114.013 58.624 L
114.447 58.622 L
114.881 58.625 L
115.315 58.622 L
115.749 58.622 L
116.183 58.618 L
116.617 58.625 L
117.051 58.62 L
117.485 58.619 L
117.919 58.612 L
118.353 58.62 L
118.787 58.628 L
119.221 58.622 L
119.655 58.622 L
120.089 58.622 L
120.523 58.619 L
120.957 58.624 L
121.391 58.622 L
121.825 58.619 L
122.259 58.624 L
122.693 58.62 L
123.127 58.629 L
123.561 58.624 L
123.995 58.619 L
124.429 58.623 L
124.863 58.622 L
125.297 58.62 L
125.731 58.613 L
126.165 58.624 L
126.599 58.621 L
127.033 58.622 L
127.467 58.617 L
127.901 58.626 L
128.335 58.618 L
128.769 58.621 L
129.203 58.621 L
129.637 58.619 L
130.071 58.618 L
130.505 58.624 L
130.939 58.618 L
131.373 58.625 L
131.807 58.628 L
132.241 58.622 L
132.675 58.62 L
133.109 58.616 L
133.543 58.628 L
133.977 58.621 L
134.411 58.617 L
134.845 58.616 L
135.279 58.622 L
135.713 58.627 L
136.147 58.621 L
136.581 58.62 L
137.015 58.617 L
137.449 58.62 L
137.883 58.63 L
138.317 58.619 L
138.751 58.63 L
139.185 58.612 L
139.619 58.619 L
140.053 58.619 L
140.487 58.612 L
140.921 58.627 L
141.355 58.615 L
141.789 58.615 L
142.223 58.629 L
142.657 58.613 L
143.091 58.614 L
143.525 58.619 L
143.959 58.622 L
144.393 58.626 L
144.827 58.62 L
145.261 58.625 L
145.695 58.625 L
146.129 58.612 L
146.563 58.622 L
146.997 58.624 L
147.431 58.614 L
147.865 58.616 L
148.299 58.625 L
148.733 58.613 L
149.167 58.618 L
149.601 58.62 L
150.035 58.621 L
150.469 58.627 L
150.903 58.62 L
151.337 58.625 L
151.771 58.615 L
152.205 58.62 L
152.639 58.624 L
153.073 58.612 L
153.507 58.613 L
153.941 58.618 L
154.375 58.632 L
154.809 58.619 L
155.243 58.618 L
155.677 58.624 L
156.111 58.629 L
156.545 58.617 L
156.979 58.622 L
157.413 58.615 L
157.847 58.621 L
158.281 58.624 L
158.715 58.622 L
159.149 58.619 L
159.583 58.617 L
160.017 58.614 L
160.451 58.616 L
160.885 58.627 L
161.319 58.618 L
161.753 58.616 L
162.187 58.617 L
162.621 58.626 L
163.055 58.63 L
163.489 58.619 L
163.923 58.621 L
164.357 58.628 L
164.791 58.626 L
165.225 58.631 L
165.659 58.633 L
166.093 58.63 L
166.527 58.631 L
166.961 58.635 L
167.395 58.618 L
167.829 58.629 L
168.263 58.612 L
168.697 58.623 L
169.131 58.62 L
169.565 58.616 L
169.999 58.607 L
170.433 58.628 L
170.867 58.619 L
171.301 58.609 L
171.735 58.615 L
172.169 58.597 L
172.603 58.619 L
173.037 58.631 L
173.471 58.607 L
173.905 58.641 L
174.339 58.634 L
174.773 58.624 L
175.207 58.61 L
175.641 58.62 L
176.075 58.609 L
176.509 58.62 L
176.943 58.631 L
177.377 58.663 L
177.811 58.684 L
178.245 58.663 L
178.679 58.632 L
179.113 58.588 L
179.547 58.621 L
179.981 58.618 L
180.415 58.592 L
180.849 58.763 L
181.283 59.051 L
181.717 294.306 L
182.151 350.687 L
182.287 374.034 L
S
GR
GS
[0.75 0 0 0.75 0 0] CT
0 GC
1 LJ
0.667 LW
N
397.8 374.034 M
397.849 369.016 L
398.058 374.034 L
S
GR
GS
[0.75 0 0 0.75 0 0] CT
0 GC
1 LJ
0.667 LW
N
398.931 374.034 M
399.151 367.811 L
399.216 374.034 L
S
GR
%%Trailer
%%Pages: 1
%%EOF
