:01000000E21D
:0100010040BE
:0100020008F5
:01000300C735
:01000400F10A
:01001000F1FE
:01002000419E
:01002100E3FB
:01002200DFFE
:01003000428D
:01003100E4EA
:01003200DFEE
:01004000437C
:01004100E5D9
:01004200DFDE
:01005000446B
:01005100E6C8
:010052004667
:01005300E7C5
:01005400DFCC
:01006000455A
:01006100DFBF
:010070004748
:01007100DFAF
:00000001FF