always @ (posedge sys_clk) 
case(x0) 
 3'b000: multiplier_out0 = 18'sd0; 
 3'b001: multiplier_out0 = 18'sd0; 
 3'b011: multiplier_out0 = 18'sd0; 
 3'b010: multiplier_out0 = 18'sd0; 
 3'b100: multiplier_out0 = 18'sd65; 
 3'b101: multiplier_out0 = 18'sd22; 
 3'b111: multiplier_out0 = -18'sd22; 
 3'b110: multiplier_out0 = -18'sd65; 
 default: multiplier_out0 = -18'sd0; 
 endcase 
 
always @ (posedge sys_clk) 
case(x1) 
 3'b000: multiplier_out1 = 18'sd0; 
 3'b001: multiplier_out1 = 18'sd0; 
 3'b011: multiplier_out1 = 18'sd0; 
 3'b010: multiplier_out1 = 18'sd0; 
 3'b100: multiplier_out1 = 18'sd25; 
 3'b101: multiplier_out1 = 18'sd8; 
 3'b111: multiplier_out1 = -18'sd8; 
 3'b110: multiplier_out1 = -18'sd25; 
 default: multiplier_out1 = -18'sd0; 
 endcase 
 
always @ (posedge sys_clk) 
case(x2) 
 3'b000: multiplier_out2 = 18'sd0;  
 3'b001: multiplier_out2 = 18'sd0;  
 3'b011: multiplier_out2 = 18'sd0;  
 3'b010: multiplier_out2 = 18'sd0;  
 3'b100: multiplier_out2 = -18'sd38; 
 3'b101: multiplier_out2 = -18'sd13; 
 3'b111: multiplier_out2 = 18'sd13;  
 3'b110: multiplier_out2 = 18'sd38;  
 default: multiplier_out2 = -18'sd0; 
 endcase 
 
always @ (posedge sys_clk) 
case(x3) 
 3'b000: multiplier_out3 = 18'sd0;  
 3'b001: multiplier_out3 = 18'sd0;  
 3'b011: multiplier_out3 = 18'sd0;  
 3'b010: multiplier_out3 = 18'sd0;  
 3'b100: multiplier_out3 = -18'sd79; 
 3'b101: multiplier_out3 = -18'sd26; 
 3'b111: multiplier_out3 = 18'sd26;  
 3'b110: multiplier_out3 = 18'sd79;  
 default: multiplier_out3 = -18'sd0; 
 endcase 
 
always @ (posedge sys_clk) 
case(x4) 
 3'b000: multiplier_out4 = 18'sd0;  
 3'b001: multiplier_out4 = 18'sd0;  
 3'b011: multiplier_out4 = 18'sd0;  
 3'b010: multiplier_out4 = 18'sd0;  
 3'b100: multiplier_out4 = -18'sd66; 
 3'b101: multiplier_out4 = -18'sd22; 
 3'b111: multiplier_out4 = 18'sd22;  
 3'b110: multiplier_out4 = 18'sd66;  
 default: multiplier_out4 = -18'sd0; 
 endcase 
 
always @ (posedge sys_clk) 
case(x5) 
 3'b000: multiplier_out5 = 18'sd0;  
 3'b001: multiplier_out5 = 18'sd0;  
 3'b011: multiplier_out5 = 18'sd0;  
 3'b010: multiplier_out5 = 18'sd0;  
 3'b100: multiplier_out5 = -18'sd4; 
 3'b101: multiplier_out5 = -18'sd1; 
 3'b111: multiplier_out5 = 18'sd1;  
 3'b110: multiplier_out5 = 18'sd4;  
 default: multiplier_out5 = -18'sd0; 
 endcase 
 
always @ (posedge sys_clk) 
case(x6) 
 3'b000: multiplier_out6 = 18'sd0; 
 3'b001: multiplier_out6 = 18'sd0; 
 3'b011: multiplier_out6 = 18'sd0; 
 3'b010: multiplier_out6 = 18'sd0; 
 3'b100: multiplier_out6 = 18'sd65; 
 3'b101: multiplier_out6 = 18'sd22; 
 3'b111: multiplier_out6 = -18'sd22; 
 3'b110: multiplier_out6 = -18'sd65; 
 default: multiplier_out6 = -18'sd0; 
 endcase 
 
always @ (posedge sys_clk) 
case(x7) 
 3'b000: multiplier_out7 = 18'sd0; 
 3'b001: multiplier_out7 = 18'sd0; 
 3'b011: multiplier_out7 = 18'sd0; 
 3'b010: multiplier_out7 = 18'sd0; 
 3'b100: multiplier_out7 = 18'sd93; 
 3'b101: multiplier_out7 = 18'sd31; 
 3'b111: multiplier_out7 = -18'sd31; 
 3'b110: multiplier_out7 = -18'sd93; 
 default: multiplier_out7 = -18'sd0; 
 endcase 
 
always @ (posedge sys_clk) 
case(x8) 
 3'b000: multiplier_out8 = 18'sd0; 
 3'b001: multiplier_out8 = 18'sd0; 
 3'b011: multiplier_out8 = 18'sd0; 
 3'b010: multiplier_out8 = 18'sd0; 
 3'b100: multiplier_out8 = 18'sd56; 
 3'b101: multiplier_out8 = 18'sd19; 
 3'b111: multiplier_out8 = -18'sd19; 
 3'b110: multiplier_out8 = -18'sd56; 
 default: multiplier_out8 = -18'sd0; 
 endcase 
 
always @ (posedge sys_clk) 
case(x9) 
 3'b000: multiplier_out9 = 18'sd0;  
 3'b001: multiplier_out9 = 18'sd0;  
 3'b011: multiplier_out9 = 18'sd0;  
 3'b010: multiplier_out9 = 18'sd0;  
 3'b100: multiplier_out9 = -18'sd23; 
 3'b101: multiplier_out9 = -18'sd8; 
 3'b111: multiplier_out9 = 18'sd8;  
 3'b110: multiplier_out9 = 18'sd23;  
 default: multiplier_out9 = -18'sd0; 
 endcase 
 
always @ (posedge sys_clk) 
case(x10) 
 3'b000: multiplier_out10 = 18'sd0;  
 3'b001: multiplier_out10 = 18'sd0;  
 3'b011: multiplier_out10 = 18'sd0;  
 3'b010: multiplier_out10 = 18'sd0;  
 3'b100: multiplier_out10 = -18'sd90; 
 3'b101: multiplier_out10 = -18'sd30; 
 3'b111: multiplier_out10 = 18'sd30;  
 3'b110: multiplier_out10 = 18'sd90;  
 default: multiplier_out10 = -18'sd0; 
 endcase 
 
always @ (posedge sys_clk) 
case(x11) 
 3'b000: multiplier_out11 = 18'sd0;  
 3'b001: multiplier_out11 = 18'sd0;  
 3'b011: multiplier_out11 = 18'sd0;  
 3'b010: multiplier_out11 = 18'sd0;  
 3'b100: multiplier_out11 = -18'sd96; 
 3'b101: multiplier_out11 = -18'sd32; 
 3'b111: multiplier_out11 = 18'sd32;  
 3'b110: multiplier_out11 = 18'sd96;  
 default: multiplier_out11 = -18'sd0; 
 endcase 
 
always @ (posedge sys_clk) 
case(x12) 
 3'b000: multiplier_out12 = 18'sd0;  
 3'b001: multiplier_out12 = 18'sd0;  
 3'b011: multiplier_out12 = 18'sd0;  
 3'b010: multiplier_out12 = 18'sd0;  
 3'b100: multiplier_out12 = -18'sd34; 
 3'b101: multiplier_out12 = -18'sd11; 
 3'b111: multiplier_out12 = 18'sd11;  
 3'b110: multiplier_out12 = 18'sd34;  
 default: multiplier_out12 = -18'sd0; 
 endcase 
 
always @ (posedge sys_clk) 
case(x13) 
 3'b000: multiplier_out13 = 18'sd0; 
 3'b001: multiplier_out13 = 18'sd0; 
 3'b011: multiplier_out13 = 18'sd0; 
 3'b010: multiplier_out13 = 18'sd0; 
 3'b100: multiplier_out13 = 18'sd55; 
 3'b101: multiplier_out13 = 18'sd18; 
 3'b111: multiplier_out13 = -18'sd18; 
 3'b110: multiplier_out13 = -18'sd55; 
 default: multiplier_out13 = -18'sd0; 
 endcase 
 
always @ (posedge sys_clk) 
case(x14) 
 3'b000: multiplier_out14 = 18'sd0; 
 3'b001: multiplier_out14 = 18'sd0; 
 3'b011: multiplier_out14 = 18'sd0; 
 3'b010: multiplier_out14 = 18'sd0; 
 3'b100: multiplier_out14 = 18'sd107; 
 3'b101: multiplier_out14 = 18'sd36; 
 3'b111: multiplier_out14 = -18'sd36; 
 3'b110: multiplier_out14 = -18'sd107; 
 default: multiplier_out14 = -18'sd0; 
 endcase 
 
always @ (posedge sys_clk) 
case(x15) 
 3'b000: multiplier_out15 = 18'sd0; 
 3'b001: multiplier_out15 = 18'sd0; 
 3'b011: multiplier_out15 = 18'sd0; 
 3'b010: multiplier_out15 = 18'sd0; 
 3'b100: multiplier_out15 = 18'sd83; 
 3'b101: multiplier_out15 = 18'sd28; 
 3'b111: multiplier_out15 = -18'sd28; 
 3'b110: multiplier_out15 = -18'sd83; 
 default: multiplier_out15 = -18'sd0; 
 endcase 
 
always @ (posedge sys_clk) 
case(x16) 
 3'b000: multiplier_out16 = 18'sd0;  
 3'b001: multiplier_out16 = 18'sd0;  
 3'b011: multiplier_out16 = 18'sd0;  
 3'b010: multiplier_out16 = 18'sd0;  
 3'b100: multiplier_out16 = -18'sd2; 
 3'b101: multiplier_out16 = -18'sd1; 
 3'b111: multiplier_out16 = 18'sd1;  
 3'b110: multiplier_out16 = 18'sd2;  
 default: multiplier_out16 = -18'sd0; 
 endcase 
 
always @ (posedge sys_clk) 
case(x17) 
 3'b000: multiplier_out17 = 18'sd0;  
 3'b001: multiplier_out17 = 18'sd0;  
 3'b011: multiplier_out17 = 18'sd0;  
 3'b010: multiplier_out17 = 18'sd0;  
 3'b100: multiplier_out17 = -18'sd88; 
 3'b101: multiplier_out17 = -18'sd29; 
 3'b111: multiplier_out17 = 18'sd29;  
 3'b110: multiplier_out17 = 18'sd88;  
 default: multiplier_out17 = -18'sd0; 
 endcase 
 
always @ (posedge sys_clk) 
case(x18) 
 3'b000: multiplier_out18 = 18'sd0;  
 3'b001: multiplier_out18 = 18'sd0;  
 3'b011: multiplier_out18 = 18'sd0;  
 3'b010: multiplier_out18 = 18'sd0;  
 3'b100: multiplier_out18 = -18'sd110; 
 3'b101: multiplier_out18 = -18'sd37; 
 3'b111: multiplier_out18 = 18'sd37;  
 3'b110: multiplier_out18 = 18'sd110;  
 default: multiplier_out18 = -18'sd0; 
 endcase 
 
always @ (posedge sys_clk) 
case(x19) 
 3'b000: multiplier_out19 = 18'sd0;  
 3'b001: multiplier_out19 = 18'sd0;  
 3'b011: multiplier_out19 = 18'sd0;  
 3'b010: multiplier_out19 = 18'sd0;  
 3'b100: multiplier_out19 = -18'sd49; 
 3'b101: multiplier_out19 = -18'sd16; 
 3'b111: multiplier_out19 = 18'sd16;  
 3'b110: multiplier_out19 = 18'sd49;  
 default: multiplier_out19 = -18'sd0; 
 endcase 
 
always @ (posedge sys_clk) 
case(x20) 
 3'b000: multiplier_out20 = 18'sd0; 
 3'b001: multiplier_out20 = 18'sd0; 
 3'b011: multiplier_out20 = 18'sd0; 
 3'b010: multiplier_out20 = 18'sd0; 
 3'b100: multiplier_out20 = 18'sd53; 
 3'b101: multiplier_out20 = 18'sd18; 
 3'b111: multiplier_out20 = -18'sd18; 
 3'b110: multiplier_out20 = -18'sd53; 
 default: multiplier_out20 = -18'sd0; 
 endcase 
 
always @ (posedge sys_clk) 
case(x21) 
 3'b000: multiplier_out21 = 18'sd0; 
 3'b001: multiplier_out21 = 18'sd0; 
 3'b011: multiplier_out21 = 18'sd0; 
 3'b010: multiplier_out21 = 18'sd0; 
 3'b100: multiplier_out21 = 18'sd117; 
 3'b101: multiplier_out21 = 18'sd39; 
 3'b111: multiplier_out21 = -18'sd39; 
 3'b110: multiplier_out21 = -18'sd117; 
 default: multiplier_out21 = -18'sd0; 
 endcase 
 
always @ (posedge sys_clk) 
case(x22) 
 3'b000: multiplier_out22 = 18'sd0; 
 3'b001: multiplier_out22 = 18'sd0; 
 3'b011: multiplier_out22 = 18'sd0; 
 3'b010: multiplier_out22 = 18'sd0; 
 3'b100: multiplier_out22 = 18'sd91; 
 3'b101: multiplier_out22 = 18'sd30; 
 3'b111: multiplier_out22 = -18'sd30; 
 3'b110: multiplier_out22 = -18'sd91; 
 default: multiplier_out22 = -18'sd0; 
 endcase 
 
always @ (posedge sys_clk) 
case(x23) 
 3'b000: multiplier_out23 = 18'sd0;  
 3'b001: multiplier_out23 = 18'sd0;  
 3'b011: multiplier_out23 = 18'sd0;  
 3'b010: multiplier_out23 = 18'sd0;  
 3'b100: multiplier_out23 = -18'sd12; 
 3'b101: multiplier_out23 = -18'sd4; 
 3'b111: multiplier_out23 = 18'sd4;  
 3'b110: multiplier_out23 = 18'sd12;  
 default: multiplier_out23 = -18'sd0; 
 endcase 
 
always @ (posedge sys_clk) 
case(x24) 
 3'b000: multiplier_out24 = 18'sd0;  
 3'b001: multiplier_out24 = 18'sd0;  
 3'b011: multiplier_out24 = 18'sd0;  
 3'b010: multiplier_out24 = 18'sd0;  
 3'b100: multiplier_out24 = -18'sd117; 
 3'b101: multiplier_out24 = -18'sd39; 
 3'b111: multiplier_out24 = 18'sd39;  
 3'b110: multiplier_out24 = 18'sd117;  
 default: multiplier_out24 = -18'sd0; 
 endcase 
 
always @ (posedge sys_clk) 
case(x25) 
 3'b000: multiplier_out25 = 18'sd0;  
 3'b001: multiplier_out25 = 18'sd0;  
 3'b011: multiplier_out25 = 18'sd0;  
 3'b010: multiplier_out25 = 18'sd0;  
 3'b100: multiplier_out25 = -18'sd137; 
 3'b101: multiplier_out25 = -18'sd46; 
 3'b111: multiplier_out25 = 18'sd46;  
 3'b110: multiplier_out25 = 18'sd137;  
 default: multiplier_out25 = -18'sd0; 
 endcase 
 
always @ (posedge sys_clk) 
case(x26) 
 3'b000: multiplier_out26 = 18'sd0;  
 3'b001: multiplier_out26 = 18'sd0;  
 3'b011: multiplier_out26 = 18'sd0;  
 3'b010: multiplier_out26 = 18'sd0;  
 3'b100: multiplier_out26 = -18'sd43; 
 3'b101: multiplier_out26 = -18'sd14; 
 3'b111: multiplier_out26 = 18'sd14;  
 3'b110: multiplier_out26 = 18'sd43;  
 default: multiplier_out26 = -18'sd0; 
 endcase 
 
always @ (posedge sys_clk) 
case(x27) 
 3'b000: multiplier_out27 = 18'sd0; 
 3'b001: multiplier_out27 = 18'sd0; 
 3'b011: multiplier_out27 = 18'sd0; 
 3'b010: multiplier_out27 = 18'sd0; 
 3'b100: multiplier_out27 = 18'sd104; 
 3'b101: multiplier_out27 = 18'sd35; 
 3'b111: multiplier_out27 = -18'sd35; 
 3'b110: multiplier_out27 = -18'sd104; 
 default: multiplier_out27 = -18'sd0; 
 endcase 
 
always @ (posedge sys_clk) 
case(x28) 
 3'b000: multiplier_out28 = 18'sd0; 
 3'b001: multiplier_out28 = 18'sd0; 
 3'b011: multiplier_out28 = 18'sd0; 
 3'b010: multiplier_out28 = 18'sd0; 
 3'b100: multiplier_out28 = 18'sd194; 
 3'b101: multiplier_out28 = 18'sd65; 
 3'b111: multiplier_out28 = -18'sd65; 
 3'b110: multiplier_out28 = -18'sd194; 
 default: multiplier_out28 = -18'sd0; 
 endcase 
 
always @ (posedge sys_clk) 
case(x29) 
 3'b000: multiplier_out29 = 18'sd0; 
 3'b001: multiplier_out29 = 18'sd0; 
 3'b011: multiplier_out29 = 18'sd0; 
 3'b010: multiplier_out29 = 18'sd0; 
 3'b100: multiplier_out29 = 18'sd139; 
 3'b101: multiplier_out29 = 18'sd46; 
 3'b111: multiplier_out29 = -18'sd46; 
 3'b110: multiplier_out29 = -18'sd139; 
 default: multiplier_out29 = -18'sd0; 
 endcase 
 
always @ (posedge sys_clk) 
case(x30) 
 3'b000: multiplier_out30 = 18'sd0;  
 3'b001: multiplier_out30 = 18'sd0;  
 3'b011: multiplier_out30 = 18'sd0;  
 3'b010: multiplier_out30 = 18'sd0;  
 3'b100: multiplier_out30 = -18'sd44; 
 3'b101: multiplier_out30 = -18'sd15; 
 3'b111: multiplier_out30 = 18'sd15;  
 3'b110: multiplier_out30 = 18'sd44;  
 default: multiplier_out30 = -18'sd0; 
 endcase 
 
always @ (posedge sys_clk) 
case(x31) 
 3'b000: multiplier_out31 = 18'sd0;  
 3'b001: multiplier_out31 = 18'sd0;  
 3'b011: multiplier_out31 = 18'sd0;  
 3'b010: multiplier_out31 = 18'sd0;  
 3'b100: multiplier_out31 = -18'sd233; 
 3'b101: multiplier_out31 = -18'sd78; 
 3'b111: multiplier_out31 = 18'sd78;  
 3'b110: multiplier_out31 = 18'sd233;  
 default: multiplier_out31 = -18'sd0; 
 endcase 
 
always @ (posedge sys_clk) 
case(x32) 
 3'b000: multiplier_out32 = 18'sd0;  
 3'b001: multiplier_out32 = 18'sd0;  
 3'b011: multiplier_out32 = 18'sd0;  
 3'b010: multiplier_out32 = 18'sd0;  
 3'b100: multiplier_out32 = -18'sd279; 
 3'b101: multiplier_out32 = -18'sd93; 
 3'b111: multiplier_out32 = 18'sd93;  
 3'b110: multiplier_out32 = 18'sd279;  
 default: multiplier_out32 = -18'sd0; 
 endcase 
 
always @ (posedge sys_clk) 
case(x33) 
 3'b000: multiplier_out33 = 18'sd0;  
 3'b001: multiplier_out33 = 18'sd0;  
 3'b011: multiplier_out33 = 18'sd0;  
 3'b010: multiplier_out33 = 18'sd0;  
 3'b100: multiplier_out33 = -18'sd114; 
 3'b101: multiplier_out33 = -18'sd38; 
 3'b111: multiplier_out33 = 18'sd38;  
 3'b110: multiplier_out33 = 18'sd114;  
 default: multiplier_out33 = -18'sd0; 
 endcase 
 
always @ (posedge sys_clk) 
case(x34) 
 3'b000: multiplier_out34 = 18'sd0; 
 3'b001: multiplier_out34 = 18'sd0; 
 3'b011: multiplier_out34 = 18'sd0; 
 3'b010: multiplier_out34 = 18'sd0; 
 3'b100: multiplier_out34 = 18'sd179; 
 3'b101: multiplier_out34 = 18'sd60; 
 3'b111: multiplier_out34 = -18'sd60; 
 3'b110: multiplier_out34 = -18'sd179; 
 default: multiplier_out34 = -18'sd0; 
 endcase 
 
always @ (posedge sys_clk) 
case(x35) 
 3'b000: multiplier_out35 = 18'sd0; 
 3'b001: multiplier_out35 = 18'sd0; 
 3'b011: multiplier_out35 = 18'sd0; 
 3'b010: multiplier_out35 = 18'sd0; 
 3'b100: multiplier_out35 = 18'sd404; 
 3'b101: multiplier_out35 = 18'sd135; 
 3'b111: multiplier_out35 = -18'sd135; 
 3'b110: multiplier_out35 = -18'sd404; 
 default: multiplier_out35 = -18'sd0; 
 endcase 
 
always @ (posedge sys_clk) 
case(x36) 
 3'b000: multiplier_out36 = 18'sd0; 
 3'b001: multiplier_out36 = 18'sd0; 
 3'b011: multiplier_out36 = 18'sd0; 
 3'b010: multiplier_out36 = 18'sd0; 
 3'b100: multiplier_out36 = 18'sd371; 
 3'b101: multiplier_out36 = 18'sd124; 
 3'b111: multiplier_out36 = -18'sd124; 
 3'b110: multiplier_out36 = -18'sd371; 
 default: multiplier_out36 = -18'sd0; 
 endcase 
 
always @ (posedge sys_clk) 
case(x37) 
 3'b000: multiplier_out37 = 18'sd0; 
 3'b001: multiplier_out37 = 18'sd0; 
 3'b011: multiplier_out37 = 18'sd0; 
 3'b010: multiplier_out37 = 18'sd0; 
 3'b100: multiplier_out37 = 18'sd51; 
 3'b101: multiplier_out37 = 18'sd17; 
 3'b111: multiplier_out37 = -18'sd17; 
 3'b110: multiplier_out37 = -18'sd51; 
 default: multiplier_out37 = -18'sd0; 
 endcase 
 
always @ (posedge sys_clk) 
case(x38) 
 3'b000: multiplier_out38 = 18'sd0;  
 3'b001: multiplier_out38 = 18'sd0;  
 3'b011: multiplier_out38 = 18'sd0;  
 3'b010: multiplier_out38 = 18'sd0;  
 3'b100: multiplier_out38 = -18'sd380; 
 3'b101: multiplier_out38 = -18'sd127; 
 3'b111: multiplier_out38 = 18'sd127;  
 3'b110: multiplier_out38 = 18'sd380;  
 default: multiplier_out38 = -18'sd0; 
 endcase 
 
always @ (posedge sys_clk) 
case(x39) 
 3'b000: multiplier_out39 = 18'sd0;  
 3'b001: multiplier_out39 = 18'sd0;  
 3'b011: multiplier_out39 = 18'sd0;  
 3'b010: multiplier_out39 = 18'sd0;  
 3'b100: multiplier_out39 = -18'sd625; 
 3'b101: multiplier_out39 = -18'sd208; 
 3'b111: multiplier_out39 = 18'sd208;  
 3'b110: multiplier_out39 = 18'sd625;  
 default: multiplier_out39 = -18'sd0; 
 endcase 
 
always @ (posedge sys_clk) 
case(x40) 
 3'b000: multiplier_out40 = 18'sd0;  
 3'b001: multiplier_out40 = 18'sd0;  
 3'b011: multiplier_out40 = 18'sd0;  
 3'b010: multiplier_out40 = 18'sd0;  
 3'b100: multiplier_out40 = -18'sd465; 
 3'b101: multiplier_out40 = -18'sd155; 
 3'b111: multiplier_out40 = 18'sd155;  
 3'b110: multiplier_out40 = 18'sd465;  
 default: multiplier_out40 = -18'sd0; 
 endcase 
 
always @ (posedge sys_clk) 
case(x41) 
 3'b000: multiplier_out41 = 18'sd0; 
 3'b001: multiplier_out41 = 18'sd0; 
 3'b011: multiplier_out41 = 18'sd0; 
 3'b010: multiplier_out41 = 18'sd0; 
 3'b100: multiplier_out41 = 18'sd68; 
 3'b101: multiplier_out41 = 18'sd23; 
 3'b111: multiplier_out41 = -18'sd23; 
 3'b110: multiplier_out41 = -18'sd68; 
 default: multiplier_out41 = -18'sd0; 
 endcase 
 
always @ (posedge sys_clk) 
case(x42) 
 3'b000: multiplier_out42 = 18'sd0; 
 3'b001: multiplier_out42 = 18'sd0; 
 3'b011: multiplier_out42 = 18'sd0; 
 3'b010: multiplier_out42 = 18'sd0; 
 3'b100: multiplier_out42 = 18'sd665; 
 3'b101: multiplier_out42 = 18'sd222; 
 3'b111: multiplier_out42 = -18'sd222; 
 3'b110: multiplier_out42 = -18'sd665; 
 default: multiplier_out42 = -18'sd0; 
 endcase 
 
always @ (posedge sys_clk) 
case(x43) 
 3'b000: multiplier_out43 = 18'sd0; 
 3'b001: multiplier_out43 = 18'sd0; 
 3'b011: multiplier_out43 = 18'sd0; 
 3'b010: multiplier_out43 = 18'sd0; 
 3'b100: multiplier_out43 = 18'sd910; 
 3'b101: multiplier_out43 = 18'sd303; 
 3'b111: multiplier_out43 = -18'sd303; 
 3'b110: multiplier_out43 = -18'sd910; 
 default: multiplier_out43 = -18'sd0; 
 endcase 
 
always @ (posedge sys_clk) 
case(x44) 
 3'b000: multiplier_out44 = 18'sd0; 
 3'b001: multiplier_out44 = 18'sd0; 
 3'b011: multiplier_out44 = 18'sd0; 
 3'b010: multiplier_out44 = 18'sd0; 
 3'b100: multiplier_out44 = 18'sd555; 
 3'b101: multiplier_out44 = 18'sd185; 
 3'b111: multiplier_out44 = -18'sd185; 
 3'b110: multiplier_out44 = -18'sd555; 
 default: multiplier_out44 = -18'sd0; 
 endcase 
 
always @ (posedge sys_clk) 
case(x45) 
 3'b000: multiplier_out45 = 18'sd0;  
 3'b001: multiplier_out45 = 18'sd0;  
 3'b011: multiplier_out45 = 18'sd0;  
 3'b010: multiplier_out45 = 18'sd0;  
 3'b100: multiplier_out45 = -18'sd269; 
 3'b101: multiplier_out45 = -18'sd90; 
 3'b111: multiplier_out45 = 18'sd90;  
 3'b110: multiplier_out45 = 18'sd269;  
 default: multiplier_out45 = -18'sd0; 
 endcase 
 
always @ (posedge sys_clk) 
case(x46) 
 3'b000: multiplier_out46 = 18'sd0;  
 3'b001: multiplier_out46 = 18'sd0;  
 3'b011: multiplier_out46 = 18'sd0;  
 3'b010: multiplier_out46 = 18'sd0;  
 3'b100: multiplier_out46 = -18'sd1073; 
 3'b101: multiplier_out46 = -18'sd358; 
 3'b111: multiplier_out46 = 18'sd358;  
 3'b110: multiplier_out46 = 18'sd1073;  
 default: multiplier_out46 = -18'sd0; 
 endcase 
 
always @ (posedge sys_clk) 
case(x47) 
 3'b000: multiplier_out47 = 18'sd0;  
 3'b001: multiplier_out47 = 18'sd0;  
 3'b011: multiplier_out47 = 18'sd0;  
 3'b010: multiplier_out47 = 18'sd0;  
 3'b100: multiplier_out47 = -18'sd1288; 
 3'b101: multiplier_out47 = -18'sd429; 
 3'b111: multiplier_out47 = 18'sd429;  
 3'b110: multiplier_out47 = 18'sd1288;  
 default: multiplier_out47 = -18'sd0; 
 endcase 
 
always @ (posedge sys_clk) 
case(x48) 
 3'b000: multiplier_out48 = 18'sd0;  
 3'b001: multiplier_out48 = 18'sd0;  
 3'b011: multiplier_out48 = 18'sd0;  
 3'b010: multiplier_out48 = 18'sd0;  
 3'b100: multiplier_out48 = -18'sd638; 
 3'b101: multiplier_out48 = -18'sd213; 
 3'b111: multiplier_out48 = 18'sd213;  
 3'b110: multiplier_out48 = 18'sd638;  
 default: multiplier_out48 = -18'sd0; 
 endcase 
 
always @ (posedge sys_clk) 
case(x49) 
 3'b000: multiplier_out49 = 18'sd0; 
 3'b001: multiplier_out49 = 18'sd0; 
 3'b011: multiplier_out49 = 18'sd0; 
 3'b010: multiplier_out49 = 18'sd0; 
 3'b100: multiplier_out49 = 18'sd602; 
 3'b101: multiplier_out49 = 18'sd201; 
 3'b111: multiplier_out49 = -18'sd201; 
 3'b110: multiplier_out49 = -18'sd602; 
 default: multiplier_out49 = -18'sd0; 
 endcase 
 
always @ (posedge sys_clk) 
case(x50) 
 3'b000: multiplier_out50 = 18'sd0; 
 3'b001: multiplier_out50 = 18'sd0; 
 3'b011: multiplier_out50 = 18'sd0; 
 3'b010: multiplier_out50 = 18'sd0; 
 3'b100: multiplier_out50 = 18'sd1688; 
 3'b101: multiplier_out50 = 18'sd563; 
 3'b111: multiplier_out50 = -18'sd563; 
 3'b110: multiplier_out50 = -18'sd1688; 
 default: multiplier_out50 = -18'sd0; 
 endcase 
 
always @ (posedge sys_clk) 
case(x51) 
 3'b000: multiplier_out51 = 18'sd0; 
 3'b001: multiplier_out51 = 18'sd0; 
 3'b011: multiplier_out51 = 18'sd0; 
 3'b010: multiplier_out51 = 18'sd0; 
 3'b100: multiplier_out51 = 18'sd1826; 
 3'b101: multiplier_out51 = 18'sd609; 
 3'b111: multiplier_out51 = -18'sd609; 
 3'b110: multiplier_out51 = -18'sd1826; 
 default: multiplier_out51 = -18'sd0; 
 endcase 
 
always @ (posedge sys_clk) 
case(x52) 
 3'b000: multiplier_out52 = 18'sd0; 
 3'b001: multiplier_out52 = 18'sd0; 
 3'b011: multiplier_out52 = 18'sd0; 
 3'b010: multiplier_out52 = 18'sd0; 
 3'b100: multiplier_out52 = 18'sd707; 
 3'b101: multiplier_out52 = 18'sd236; 
 3'b111: multiplier_out52 = -18'sd236; 
 3'b110: multiplier_out52 = -18'sd707; 
 default: multiplier_out52 = -18'sd0; 
 endcase 
 
always @ (posedge sys_clk) 
case(x53) 
 3'b000: multiplier_out53 = 18'sd0;  
 3'b001: multiplier_out53 = 18'sd0;  
 3'b011: multiplier_out53 = 18'sd0;  
 3'b010: multiplier_out53 = 18'sd0;  
 3'b100: multiplier_out53 = -18'sd1185; 
 3'b101: multiplier_out53 = -18'sd395; 
 3'b111: multiplier_out53 = 18'sd395;  
 3'b110: multiplier_out53 = 18'sd1185;  
 default: multiplier_out53 = -18'sd0; 
 endcase 
 
always @ (posedge sys_clk) 
case(x54) 
 3'b000: multiplier_out54 = 18'sd0;  
 3'b001: multiplier_out54 = 18'sd0;  
 3'b011: multiplier_out54 = 18'sd0;  
 3'b010: multiplier_out54 = 18'sd0;  
 3'b100: multiplier_out54 = -18'sd2719; 
 3'b101: multiplier_out54 = -18'sd906; 
 3'b111: multiplier_out54 = 18'sd906;  
 3'b110: multiplier_out54 = 18'sd2719;  
 default: multiplier_out54 = -18'sd0; 
 endcase 
 
always @ (posedge sys_clk) 
case(x55) 
 3'b000: multiplier_out55 = 18'sd0;  
 3'b001: multiplier_out55 = 18'sd0;  
 3'b011: multiplier_out55 = 18'sd0;  
 3'b010: multiplier_out55 = 18'sd0;  
 3'b100: multiplier_out55 = -18'sd2723; 
 3'b101: multiplier_out55 = -18'sd908; 
 3'b111: multiplier_out55 = 18'sd908;  
 3'b110: multiplier_out55 = 18'sd2723;  
 default: multiplier_out55 = -18'sd0; 
 endcase 
 
always @ (posedge sys_clk) 
case(x56) 
 3'b000: multiplier_out56 = 18'sd0;  
 3'b001: multiplier_out56 = 18'sd0;  
 3'b011: multiplier_out56 = 18'sd0;  
 3'b010: multiplier_out56 = 18'sd0;  
 3'b100: multiplier_out56 = -18'sd760; 
 3'b101: multiplier_out56 = -18'sd253; 
 3'b111: multiplier_out56 = 18'sd253;  
 3'b110: multiplier_out56 = 18'sd760;  
 default: multiplier_out56 = -18'sd0; 
 endcase 
 
always @ (posedge sys_clk) 
case(x57) 
 3'b000: multiplier_out57 = 18'sd0; 
 3'b001: multiplier_out57 = 18'sd0; 
 3'b011: multiplier_out57 = 18'sd0; 
 3'b010: multiplier_out57 = 18'sd0; 
 3'b100: multiplier_out57 = 18'sd2405; 
 3'b101: multiplier_out57 = 18'sd802; 
 3'b111: multiplier_out57 = -18'sd802; 
 3'b110: multiplier_out57 = -18'sd2405; 
 default: multiplier_out57 = -18'sd0; 
 endcase 
 
always @ (posedge sys_clk) 
case(x58) 
 3'b000: multiplier_out58 = 18'sd0; 
 3'b001: multiplier_out58 = 18'sd0; 
 3'b011: multiplier_out58 = 18'sd0; 
 3'b010: multiplier_out58 = 18'sd0; 
 3'b100: multiplier_out58 = 18'sd4955; 
 3'b101: multiplier_out58 = 18'sd1652; 
 3'b111: multiplier_out58 = -18'sd1652; 
 3'b110: multiplier_out58 = -18'sd4955; 
 default: multiplier_out58 = -18'sd0; 
 endcase 
 
always @ (posedge sys_clk) 
case(x59) 
 3'b000: multiplier_out59 = 18'sd0; 
 3'b001: multiplier_out59 = 18'sd0; 
 3'b011: multiplier_out59 = 18'sd0; 
 3'b010: multiplier_out59 = 18'sd0; 
 3'b100: multiplier_out59 = 18'sd4825; 
 3'b101: multiplier_out59 = 18'sd1608; 
 3'b111: multiplier_out59 = -18'sd1608; 
 3'b110: multiplier_out59 = -18'sd4825; 
 default: multiplier_out59 = -18'sd0; 
 endcase 
 
always @ (posedge sys_clk) 
case(x60) 
 3'b000: multiplier_out60 = 18'sd0; 
 3'b001: multiplier_out60 = 18'sd0; 
 3'b011: multiplier_out60 = 18'sd0; 
 3'b010: multiplier_out60 = 18'sd0; 
 3'b100: multiplier_out60 = 18'sd793; 
 3'b101: multiplier_out60 = 18'sd264; 
 3'b111: multiplier_out60 = -18'sd264; 
 3'b110: multiplier_out60 = -18'sd793; 
 default: multiplier_out60 = -18'sd0; 
 endcase 
 
always @ (posedge sys_clk) 
case(x61) 
 3'b000: multiplier_out61 = 18'sd0;  
 3'b001: multiplier_out61 = 18'sd0;  
 3'b011: multiplier_out61 = 18'sd0;  
 3'b010: multiplier_out61 = 18'sd0;  
 3'b100: multiplier_out61 = -18'sd6707; 
 3'b101: multiplier_out61 = -18'sd2236; 
 3'b111: multiplier_out61 = 18'sd2236;  
 3'b110: multiplier_out61 = 18'sd6707;  
 default: multiplier_out61 = -18'sd0; 
 endcase 
 
always @ (posedge sys_clk) 
case(x62) 
 3'b000: multiplier_out62 = 18'sd0;  
 3'b001: multiplier_out62 = 18'sd0;  
 3'b011: multiplier_out62 = 18'sd0;  
 3'b010: multiplier_out62 = 18'sd0;  
 3'b100: multiplier_out62 = -18'sd15530; 
 3'b101: multiplier_out62 = -18'sd5177; 
 3'b111: multiplier_out62 = 18'sd5177;  
 3'b110: multiplier_out62 = 18'sd15530;  
 default: multiplier_out62 = -18'sd0; 
 endcase 
 
always @ (posedge sys_clk) 
case(x63) 
 3'b000: multiplier_out63 = 18'sd0;  
 3'b001: multiplier_out63 = 18'sd0;  
 3'b011: multiplier_out63 = 18'sd0;  
 3'b010: multiplier_out63 = 18'sd0;  
 3'b100: multiplier_out63 = -18'sd22619; 
 3'b101: multiplier_out63 = -18'sd7540; 
 3'b111: multiplier_out63 = 18'sd7540;  
 3'b110: multiplier_out63 = 18'sd22619;  
 default: multiplier_out63 = -18'sd0; 
 endcase 
 
always @ (posedge sys_clk) 
case(x64) 
 3'b000: multiplier_out64 = 18'sd0;  
 3'b001: multiplier_out64 = 18'sd0;  
 3'b011: multiplier_out64 = 18'sd0;  
 3'b010: multiplier_out64 = 18'sd0;  
 3'b100: multiplier_out64 = -18'sd25331; 
 3'b101: multiplier_out64 = -18'sd8444; 
 3'b111: multiplier_out64 = 18'sd8444;  
 3'b110: multiplier_out64 = 18'sd25331;  
 default: multiplier_out64 = -18'sd0; 
 endcase 
 
always @ (posedge sys_clk) 
case(x65) 
 3'b000: multiplier_out65 = 18'sd0;  
 3'b001: multiplier_out65 = 18'sd0;  
 3'b011: multiplier_out65 = 18'sd0;  
 3'b010: multiplier_out65 = 18'sd0;  
 3'b100: multiplier_out65 = -18'sd22619; 
 3'b101: multiplier_out65 = -18'sd7540; 
 3'b111: multiplier_out65 = 18'sd7540;  
 3'b110: multiplier_out65 = 18'sd22619;  
 default: multiplier_out65 = -18'sd0; 
 endcase 
 
always @ (posedge sys_clk) 
case(x66) 
 3'b000: multiplier_out66 = 18'sd0;  
 3'b001: multiplier_out66 = 18'sd0;  
 3'b011: multiplier_out66 = 18'sd0;  
 3'b010: multiplier_out66 = 18'sd0;  
 3'b100: multiplier_out66 = -18'sd15530; 
 3'b101: multiplier_out66 = -18'sd5177; 
 3'b111: multiplier_out66 = 18'sd5177;  
 3'b110: multiplier_out66 = 18'sd15530;  
 default: multiplier_out66 = -18'sd0; 
 endcase 
 
always @ (posedge sys_clk) 
case(x67) 
 3'b000: multiplier_out67 = 18'sd0;  
 3'b001: multiplier_out67 = 18'sd0;  
 3'b011: multiplier_out67 = 18'sd0;  
 3'b010: multiplier_out67 = 18'sd0;  
 3'b100: multiplier_out67 = -18'sd6707; 
 3'b101: multiplier_out67 = -18'sd2236; 
 3'b111: multiplier_out67 = 18'sd2236;  
 3'b110: multiplier_out67 = 18'sd6707;  
 default: multiplier_out67 = -18'sd0; 
 endcase 
 
always @ (posedge sys_clk) 
case(x68) 
 3'b000: multiplier_out68 = 18'sd0; 
 3'b001: multiplier_out68 = 18'sd0; 
 3'b011: multiplier_out68 = 18'sd0; 
 3'b010: multiplier_out68 = 18'sd0; 
 3'b100: multiplier_out68 = 18'sd793; 
 3'b101: multiplier_out68 = 18'sd264; 
 3'b111: multiplier_out68 = -18'sd264; 
 3'b110: multiplier_out68 = -18'sd793; 
 default: multiplier_out68 = -18'sd0; 
 endcase 
 
always @ (posedge sys_clk) 
case(x69) 
 3'b000: multiplier_out69 = 18'sd0; 
 3'b001: multiplier_out69 = 18'sd0; 
 3'b011: multiplier_out69 = 18'sd0; 
 3'b010: multiplier_out69 = 18'sd0; 
 3'b100: multiplier_out69 = 18'sd4825; 
 3'b101: multiplier_out69 = 18'sd1608; 
 3'b111: multiplier_out69 = -18'sd1608; 
 3'b110: multiplier_out69 = -18'sd4825; 
 default: multiplier_out69 = -18'sd0; 
 endcase 
 
always @ (posedge sys_clk) 
case(x70) 
 3'b000: multiplier_out70 = 18'sd0; 
 3'b001: multiplier_out70 = 18'sd0; 
 3'b011: multiplier_out70 = 18'sd0; 
 3'b010: multiplier_out70 = 18'sd0; 
 3'b100: multiplier_out70 = 18'sd4955; 
 3'b101: multiplier_out70 = 18'sd1652; 
 3'b111: multiplier_out70 = -18'sd1652; 
 3'b110: multiplier_out70 = -18'sd4955; 
 default: multiplier_out70 = -18'sd0; 
 endcase 
 
always @ (posedge sys_clk) 
case(x71) 
 3'b000: multiplier_out71 = 18'sd0; 
 3'b001: multiplier_out71 = 18'sd0; 
 3'b011: multiplier_out71 = 18'sd0; 
 3'b010: multiplier_out71 = 18'sd0; 
 3'b100: multiplier_out71 = 18'sd2405; 
 3'b101: multiplier_out71 = 18'sd802; 
 3'b111: multiplier_out71 = -18'sd802; 
 3'b110: multiplier_out71 = -18'sd2405; 
 default: multiplier_out71 = -18'sd0; 
 endcase 
 
always @ (posedge sys_clk) 
case(x72) 
 3'b000: multiplier_out72 = 18'sd0;  
 3'b001: multiplier_out72 = 18'sd0;  
 3'b011: multiplier_out72 = 18'sd0;  
 3'b010: multiplier_out72 = 18'sd0;  
 3'b100: multiplier_out72 = -18'sd760; 
 3'b101: multiplier_out72 = -18'sd253; 
 3'b111: multiplier_out72 = 18'sd253;  
 3'b110: multiplier_out72 = 18'sd760;  
 default: multiplier_out72 = -18'sd0; 
 endcase 
 
always @ (posedge sys_clk) 
case(x73) 
 3'b000: multiplier_out73 = 18'sd0;  
 3'b001: multiplier_out73 = 18'sd0;  
 3'b011: multiplier_out73 = 18'sd0;  
 3'b010: multiplier_out73 = 18'sd0;  
 3'b100: multiplier_out73 = -18'sd2723; 
 3'b101: multiplier_out73 = -18'sd908; 
 3'b111: multiplier_out73 = 18'sd908;  
 3'b110: multiplier_out73 = 18'sd2723;  
 default: multiplier_out73 = -18'sd0; 
 endcase 
 
always @ (posedge sys_clk) 
case(x74) 
 3'b000: multiplier_out74 = 18'sd0;  
 3'b001: multiplier_out74 = 18'sd0;  
 3'b011: multiplier_out74 = 18'sd0;  
 3'b010: multiplier_out74 = 18'sd0;  
 3'b100: multiplier_out74 = -18'sd2719; 
 3'b101: multiplier_out74 = -18'sd906; 
 3'b111: multiplier_out74 = 18'sd906;  
 3'b110: multiplier_out74 = 18'sd2719;  
 default: multiplier_out74 = -18'sd0; 
 endcase 
 
always @ (posedge sys_clk) 
case(x75) 
 3'b000: multiplier_out75 = 18'sd0;  
 3'b001: multiplier_out75 = 18'sd0;  
 3'b011: multiplier_out75 = 18'sd0;  
 3'b010: multiplier_out75 = 18'sd0;  
 3'b100: multiplier_out75 = -18'sd1185; 
 3'b101: multiplier_out75 = -18'sd395; 
 3'b111: multiplier_out75 = 18'sd395;  
 3'b110: multiplier_out75 = 18'sd1185;  
 default: multiplier_out75 = -18'sd0; 
 endcase 
 
always @ (posedge sys_clk) 
case(x76) 
 3'b000: multiplier_out76 = 18'sd0; 
 3'b001: multiplier_out76 = 18'sd0; 
 3'b011: multiplier_out76 = 18'sd0; 
 3'b010: multiplier_out76 = 18'sd0; 
 3'b100: multiplier_out76 = 18'sd707; 
 3'b101: multiplier_out76 = 18'sd236; 
 3'b111: multiplier_out76 = -18'sd236; 
 3'b110: multiplier_out76 = -18'sd707; 
 default: multiplier_out76 = -18'sd0; 
 endcase 
 
always @ (posedge sys_clk) 
case(x77) 
 3'b000: multiplier_out77 = 18'sd0; 
 3'b001: multiplier_out77 = 18'sd0; 
 3'b011: multiplier_out77 = 18'sd0; 
 3'b010: multiplier_out77 = 18'sd0; 
 3'b100: multiplier_out77 = 18'sd1826; 
 3'b101: multiplier_out77 = 18'sd609; 
 3'b111: multiplier_out77 = -18'sd609; 
 3'b110: multiplier_out77 = -18'sd1826; 
 default: multiplier_out77 = -18'sd0; 
 endcase 
 
always @ (posedge sys_clk) 
case(x78) 
 3'b000: multiplier_out78 = 18'sd0; 
 3'b001: multiplier_out78 = 18'sd0; 
 3'b011: multiplier_out78 = 18'sd0; 
 3'b010: multiplier_out78 = 18'sd0; 
 3'b100: multiplier_out78 = 18'sd1688; 
 3'b101: multiplier_out78 = 18'sd563; 
 3'b111: multiplier_out78 = -18'sd563; 
 3'b110: multiplier_out78 = -18'sd1688; 
 default: multiplier_out78 = -18'sd0; 
 endcase 
 
always @ (posedge sys_clk) 
case(x79) 
 3'b000: multiplier_out79 = 18'sd0; 
 3'b001: multiplier_out79 = 18'sd0; 
 3'b011: multiplier_out79 = 18'sd0; 
 3'b010: multiplier_out79 = 18'sd0; 
 3'b100: multiplier_out79 = 18'sd602; 
 3'b101: multiplier_out79 = 18'sd201; 
 3'b111: multiplier_out79 = -18'sd201; 
 3'b110: multiplier_out79 = -18'sd602; 
 default: multiplier_out79 = -18'sd0; 
 endcase 
 
always @ (posedge sys_clk) 
case(x80) 
 3'b000: multiplier_out80 = 18'sd0;  
 3'b001: multiplier_out80 = 18'sd0;  
 3'b011: multiplier_out80 = 18'sd0;  
 3'b010: multiplier_out80 = 18'sd0;  
 3'b100: multiplier_out80 = -18'sd638; 
 3'b101: multiplier_out80 = -18'sd213; 
 3'b111: multiplier_out80 = 18'sd213;  
 3'b110: multiplier_out80 = 18'sd638;  
 default: multiplier_out80 = -18'sd0; 
 endcase 
 
always @ (posedge sys_clk) 
case(x81) 
 3'b000: multiplier_out81 = 18'sd0;  
 3'b001: multiplier_out81 = 18'sd0;  
 3'b011: multiplier_out81 = 18'sd0;  
 3'b010: multiplier_out81 = 18'sd0;  
 3'b100: multiplier_out81 = -18'sd1288; 
 3'b101: multiplier_out81 = -18'sd429; 
 3'b111: multiplier_out81 = 18'sd429;  
 3'b110: multiplier_out81 = 18'sd1288;  
 default: multiplier_out81 = -18'sd0; 
 endcase 
 
always @ (posedge sys_clk) 
case(x82) 
 3'b000: multiplier_out82 = 18'sd0;  
 3'b001: multiplier_out82 = 18'sd0;  
 3'b011: multiplier_out82 = 18'sd0;  
 3'b010: multiplier_out82 = 18'sd0;  
 3'b100: multiplier_out82 = -18'sd1073; 
 3'b101: multiplier_out82 = -18'sd358; 
 3'b111: multiplier_out82 = 18'sd358;  
 3'b110: multiplier_out82 = 18'sd1073;  
 default: multiplier_out82 = -18'sd0; 
 endcase 
 
always @ (posedge sys_clk) 
case(x83) 
 3'b000: multiplier_out83 = 18'sd0;  
 3'b001: multiplier_out83 = 18'sd0;  
 3'b011: multiplier_out83 = 18'sd0;  
 3'b010: multiplier_out83 = 18'sd0;  
 3'b100: multiplier_out83 = -18'sd269; 
 3'b101: multiplier_out83 = -18'sd90; 
 3'b111: multiplier_out83 = 18'sd90;  
 3'b110: multiplier_out83 = 18'sd269;  
 default: multiplier_out83 = -18'sd0; 
 endcase 
 
always @ (posedge sys_clk) 
case(x84) 
 3'b000: multiplier_out84 = 18'sd0; 
 3'b001: multiplier_out84 = 18'sd0; 
 3'b011: multiplier_out84 = 18'sd0; 
 3'b010: multiplier_out84 = 18'sd0; 
 3'b100: multiplier_out84 = 18'sd555; 
 3'b101: multiplier_out84 = 18'sd185; 
 3'b111: multiplier_out84 = -18'sd185; 
 3'b110: multiplier_out84 = -18'sd555; 
 default: multiplier_out84 = -18'sd0; 
 endcase 
 
always @ (posedge sys_clk) 
case(x85) 
 3'b000: multiplier_out85 = 18'sd0; 
 3'b001: multiplier_out85 = 18'sd0; 
 3'b011: multiplier_out85 = 18'sd0; 
 3'b010: multiplier_out85 = 18'sd0; 
 3'b100: multiplier_out85 = 18'sd910; 
 3'b101: multiplier_out85 = 18'sd303; 
 3'b111: multiplier_out85 = -18'sd303; 
 3'b110: multiplier_out85 = -18'sd910; 
 default: multiplier_out85 = -18'sd0; 
 endcase 
 
always @ (posedge sys_clk) 
case(x86) 
 3'b000: multiplier_out86 = 18'sd0; 
 3'b001: multiplier_out86 = 18'sd0; 
 3'b011: multiplier_out86 = 18'sd0; 
 3'b010: multiplier_out86 = 18'sd0; 
 3'b100: multiplier_out86 = 18'sd665; 
 3'b101: multiplier_out86 = 18'sd222; 
 3'b111: multiplier_out86 = -18'sd222; 
 3'b110: multiplier_out86 = -18'sd665; 
 default: multiplier_out86 = -18'sd0; 
 endcase 
 
always @ (posedge sys_clk) 
case(x87) 
 3'b000: multiplier_out87 = 18'sd0; 
 3'b001: multiplier_out87 = 18'sd0; 
 3'b011: multiplier_out87 = 18'sd0; 
 3'b010: multiplier_out87 = 18'sd0; 
 3'b100: multiplier_out87 = 18'sd68; 
 3'b101: multiplier_out87 = 18'sd23; 
 3'b111: multiplier_out87 = -18'sd23; 
 3'b110: multiplier_out87 = -18'sd68; 
 default: multiplier_out87 = -18'sd0; 
 endcase 
 
always @ (posedge sys_clk) 
case(x88) 
 3'b000: multiplier_out88 = 18'sd0;  
 3'b001: multiplier_out88 = 18'sd0;  
 3'b011: multiplier_out88 = 18'sd0;  
 3'b010: multiplier_out88 = 18'sd0;  
 3'b100: multiplier_out88 = -18'sd465; 
 3'b101: multiplier_out88 = -18'sd155; 
 3'b111: multiplier_out88 = 18'sd155;  
 3'b110: multiplier_out88 = 18'sd465;  
 default: multiplier_out88 = -18'sd0; 
 endcase 
 
always @ (posedge sys_clk) 
case(x89) 
 3'b000: multiplier_out89 = 18'sd0;  
 3'b001: multiplier_out89 = 18'sd0;  
 3'b011: multiplier_out89 = 18'sd0;  
 3'b010: multiplier_out89 = 18'sd0;  
 3'b100: multiplier_out89 = -18'sd625; 
 3'b101: multiplier_out89 = -18'sd208; 
 3'b111: multiplier_out89 = 18'sd208;  
 3'b110: multiplier_out89 = 18'sd625;  
 default: multiplier_out89 = -18'sd0; 
 endcase 
 
always @ (posedge sys_clk) 
case(x90) 
 3'b000: multiplier_out90 = 18'sd0;  
 3'b001: multiplier_out90 = 18'sd0;  
 3'b011: multiplier_out90 = 18'sd0;  
 3'b010: multiplier_out90 = 18'sd0;  
 3'b100: multiplier_out90 = -18'sd380; 
 3'b101: multiplier_out90 = -18'sd127; 
 3'b111: multiplier_out90 = 18'sd127;  
 3'b110: multiplier_out90 = 18'sd380;  
 default: multiplier_out90 = -18'sd0; 
 endcase 
 
always @ (posedge sys_clk) 
case(x91) 
 3'b000: multiplier_out91 = 18'sd0; 
 3'b001: multiplier_out91 = 18'sd0; 
 3'b011: multiplier_out91 = 18'sd0; 
 3'b010: multiplier_out91 = 18'sd0; 
 3'b100: multiplier_out91 = 18'sd51; 
 3'b101: multiplier_out91 = 18'sd17; 
 3'b111: multiplier_out91 = -18'sd17; 
 3'b110: multiplier_out91 = -18'sd51; 
 default: multiplier_out91 = -18'sd0; 
 endcase 
 
always @ (posedge sys_clk) 
case(x92) 
 3'b000: multiplier_out92 = 18'sd0; 
 3'b001: multiplier_out92 = 18'sd0; 
 3'b011: multiplier_out92 = 18'sd0; 
 3'b010: multiplier_out92 = 18'sd0; 
 3'b100: multiplier_out92 = 18'sd371; 
 3'b101: multiplier_out92 = 18'sd124; 
 3'b111: multiplier_out92 = -18'sd124; 
 3'b110: multiplier_out92 = -18'sd371; 
 default: multiplier_out92 = -18'sd0; 
 endcase 
 
always @ (posedge sys_clk) 
case(x93) 
 3'b000: multiplier_out93 = 18'sd0; 
 3'b001: multiplier_out93 = 18'sd0; 
 3'b011: multiplier_out93 = 18'sd0; 
 3'b010: multiplier_out93 = 18'sd0; 
 3'b100: multiplier_out93 = 18'sd404; 
 3'b101: multiplier_out93 = 18'sd135; 
 3'b111: multiplier_out93 = -18'sd135; 
 3'b110: multiplier_out93 = -18'sd404; 
 default: multiplier_out93 = -18'sd0; 
 endcase 
 
always @ (posedge sys_clk) 
case(x94) 
 3'b000: multiplier_out94 = 18'sd0; 
 3'b001: multiplier_out94 = 18'sd0; 
 3'b011: multiplier_out94 = 18'sd0; 
 3'b010: multiplier_out94 = 18'sd0; 
 3'b100: multiplier_out94 = 18'sd179; 
 3'b101: multiplier_out94 = 18'sd60; 
 3'b111: multiplier_out94 = -18'sd60; 
 3'b110: multiplier_out94 = -18'sd179; 
 default: multiplier_out94 = -18'sd0; 
 endcase 
 
always @ (posedge sys_clk) 
case(x95) 
 3'b000: multiplier_out95 = 18'sd0;  
 3'b001: multiplier_out95 = 18'sd0;  
 3'b011: multiplier_out95 = 18'sd0;  
 3'b010: multiplier_out95 = 18'sd0;  
 3'b100: multiplier_out95 = -18'sd114; 
 3'b101: multiplier_out95 = -18'sd38; 
 3'b111: multiplier_out95 = 18'sd38;  
 3'b110: multiplier_out95 = 18'sd114;  
 default: multiplier_out95 = -18'sd0; 
 endcase 
 
always @ (posedge sys_clk) 
case(x96) 
 3'b000: multiplier_out96 = 18'sd0;  
 3'b001: multiplier_out96 = 18'sd0;  
 3'b011: multiplier_out96 = 18'sd0;  
 3'b010: multiplier_out96 = 18'sd0;  
 3'b100: multiplier_out96 = -18'sd279; 
 3'b101: multiplier_out96 = -18'sd93; 
 3'b111: multiplier_out96 = 18'sd93;  
 3'b110: multiplier_out96 = 18'sd279;  
 default: multiplier_out96 = -18'sd0; 
 endcase 
 
always @ (posedge sys_clk) 
case(x97) 
 3'b000: multiplier_out97 = 18'sd0;  
 3'b001: multiplier_out97 = 18'sd0;  
 3'b011: multiplier_out97 = 18'sd0;  
 3'b010: multiplier_out97 = 18'sd0;  
 3'b100: multiplier_out97 = -18'sd233; 
 3'b101: multiplier_out97 = -18'sd78; 
 3'b111: multiplier_out97 = 18'sd78;  
 3'b110: multiplier_out97 = 18'sd233;  
 default: multiplier_out97 = -18'sd0; 
 endcase 
 
always @ (posedge sys_clk) 
case(x98) 
 3'b000: multiplier_out98 = 18'sd0;  
 3'b001: multiplier_out98 = 18'sd0;  
 3'b011: multiplier_out98 = 18'sd0;  
 3'b010: multiplier_out98 = 18'sd0;  
 3'b100: multiplier_out98 = -18'sd44; 
 3'b101: multiplier_out98 = -18'sd15; 
 3'b111: multiplier_out98 = 18'sd15;  
 3'b110: multiplier_out98 = 18'sd44;  
 default: multiplier_out98 = -18'sd0; 
 endcase 
 
always @ (posedge sys_clk) 
case(x99) 
 3'b000: multiplier_out99 = 18'sd0; 
 3'b001: multiplier_out99 = 18'sd0; 
 3'b011: multiplier_out99 = 18'sd0; 
 3'b010: multiplier_out99 = 18'sd0; 
 3'b100: multiplier_out99 = 18'sd139; 
 3'b101: multiplier_out99 = 18'sd46; 
 3'b111: multiplier_out99 = -18'sd46; 
 3'b110: multiplier_out99 = -18'sd139; 
 default: multiplier_out99 = -18'sd0; 
 endcase 
 
always @ (posedge sys_clk) 
case(x100) 
 3'b000: multiplier_out100 = 18'sd0; 
 3'b001: multiplier_out100 = 18'sd0; 
 3'b011: multiplier_out100 = 18'sd0; 
 3'b010: multiplier_out100 = 18'sd0; 
 3'b100: multiplier_out100 = 18'sd194; 
 3'b101: multiplier_out100 = 18'sd65; 
 3'b111: multiplier_out100 = -18'sd65; 
 3'b110: multiplier_out100 = -18'sd194; 
 default: multiplier_out100 = -18'sd0; 
 endcase 
 
always @ (posedge sys_clk) 
case(x101) 
 3'b000: multiplier_out101 = 18'sd0; 
 3'b001: multiplier_out101 = 18'sd0; 
 3'b011: multiplier_out101 = 18'sd0; 
 3'b010: multiplier_out101 = 18'sd0; 
 3'b100: multiplier_out101 = 18'sd104; 
 3'b101: multiplier_out101 = 18'sd35; 
 3'b111: multiplier_out101 = -18'sd35; 
 3'b110: multiplier_out101 = -18'sd104; 
 default: multiplier_out101 = -18'sd0; 
 endcase 
 
always @ (posedge sys_clk) 
case(x102) 
 3'b000: multiplier_out102 = 18'sd0;  
 3'b001: multiplier_out102 = 18'sd0;  
 3'b011: multiplier_out102 = 18'sd0;  
 3'b010: multiplier_out102 = 18'sd0;  
 3'b100: multiplier_out102 = -18'sd43; 
 3'b101: multiplier_out102 = -18'sd14; 
 3'b111: multiplier_out102 = 18'sd14;  
 3'b110: multiplier_out102 = 18'sd43;  
 default: multiplier_out102 = -18'sd0; 
 endcase 
 
always @ (posedge sys_clk) 
case(x103) 
 3'b000: multiplier_out103 = 18'sd0;  
 3'b001: multiplier_out103 = 18'sd0;  
 3'b011: multiplier_out103 = 18'sd0;  
 3'b010: multiplier_out103 = 18'sd0;  
 3'b100: multiplier_out103 = -18'sd137; 
 3'b101: multiplier_out103 = -18'sd46; 
 3'b111: multiplier_out103 = 18'sd46;  
 3'b110: multiplier_out103 = 18'sd137;  
 default: multiplier_out103 = -18'sd0; 
 endcase 
 
always @ (posedge sys_clk) 
case(x104) 
 3'b000: multiplier_out104 = 18'sd0;  
 3'b001: multiplier_out104 = 18'sd0;  
 3'b011: multiplier_out104 = 18'sd0;  
 3'b010: multiplier_out104 = 18'sd0;  
 3'b100: multiplier_out104 = -18'sd117; 
 3'b101: multiplier_out104 = -18'sd39; 
 3'b111: multiplier_out104 = 18'sd39;  
 3'b110: multiplier_out104 = 18'sd117;  
 default: multiplier_out104 = -18'sd0; 
 endcase 
 
always @ (posedge sys_clk) 
case(x105) 
 3'b000: multiplier_out105 = 18'sd0;  
 3'b001: multiplier_out105 = 18'sd0;  
 3'b011: multiplier_out105 = 18'sd0;  
 3'b010: multiplier_out105 = 18'sd0;  
 3'b100: multiplier_out105 = -18'sd12; 
 3'b101: multiplier_out105 = -18'sd4; 
 3'b111: multiplier_out105 = 18'sd4;  
 3'b110: multiplier_out105 = 18'sd12;  
 default: multiplier_out105 = -18'sd0; 
 endcase 
 
always @ (posedge sys_clk) 
case(x106) 
 3'b000: multiplier_out106 = 18'sd0; 
 3'b001: multiplier_out106 = 18'sd0; 
 3'b011: multiplier_out106 = 18'sd0; 
 3'b010: multiplier_out106 = 18'sd0; 
 3'b100: multiplier_out106 = 18'sd91; 
 3'b101: multiplier_out106 = 18'sd30; 
 3'b111: multiplier_out106 = -18'sd30; 
 3'b110: multiplier_out106 = -18'sd91; 
 default: multiplier_out106 = -18'sd0; 
 endcase 
 
always @ (posedge sys_clk) 
case(x107) 
 3'b000: multiplier_out107 = 18'sd0; 
 3'b001: multiplier_out107 = 18'sd0; 
 3'b011: multiplier_out107 = 18'sd0; 
 3'b010: multiplier_out107 = 18'sd0; 
 3'b100: multiplier_out107 = 18'sd117; 
 3'b101: multiplier_out107 = 18'sd39; 
 3'b111: multiplier_out107 = -18'sd39; 
 3'b110: multiplier_out107 = -18'sd117; 
 default: multiplier_out107 = -18'sd0; 
 endcase 
 
always @ (posedge sys_clk) 
case(x108) 
 3'b000: multiplier_out108 = 18'sd0; 
 3'b001: multiplier_out108 = 18'sd0; 
 3'b011: multiplier_out108 = 18'sd0; 
 3'b010: multiplier_out108 = 18'sd0; 
 3'b100: multiplier_out108 = 18'sd53; 
 3'b101: multiplier_out108 = 18'sd18; 
 3'b111: multiplier_out108 = -18'sd18; 
 3'b110: multiplier_out108 = -18'sd53; 
 default: multiplier_out108 = -18'sd0; 
 endcase 
 
always @ (posedge sys_clk) 
case(x109) 
 3'b000: multiplier_out109 = 18'sd0;  
 3'b001: multiplier_out109 = 18'sd0;  
 3'b011: multiplier_out109 = 18'sd0;  
 3'b010: multiplier_out109 = 18'sd0;  
 3'b100: multiplier_out109 = -18'sd49; 
 3'b101: multiplier_out109 = -18'sd16; 
 3'b111: multiplier_out109 = 18'sd16;  
 3'b110: multiplier_out109 = 18'sd49;  
 default: multiplier_out109 = -18'sd0; 
 endcase 
 
always @ (posedge sys_clk) 
case(x110) 
 3'b000: multiplier_out110 = 18'sd0;  
 3'b001: multiplier_out110 = 18'sd0;  
 3'b011: multiplier_out110 = 18'sd0;  
 3'b010: multiplier_out110 = 18'sd0;  
 3'b100: multiplier_out110 = -18'sd110; 
 3'b101: multiplier_out110 = -18'sd37; 
 3'b111: multiplier_out110 = 18'sd37;  
 3'b110: multiplier_out110 = 18'sd110;  
 default: multiplier_out110 = -18'sd0; 
 endcase 
 
always @ (posedge sys_clk) 
case(x111) 
 3'b000: multiplier_out111 = 18'sd0;  
 3'b001: multiplier_out111 = 18'sd0;  
 3'b011: multiplier_out111 = 18'sd0;  
 3'b010: multiplier_out111 = 18'sd0;  
 3'b100: multiplier_out111 = -18'sd88; 
 3'b101: multiplier_out111 = -18'sd29; 
 3'b111: multiplier_out111 = 18'sd29;  
 3'b110: multiplier_out111 = 18'sd88;  
 default: multiplier_out111 = -18'sd0; 
 endcase 
 
always @ (posedge sys_clk) 
case(x112) 
 3'b000: multiplier_out112 = 18'sd0;  
 3'b001: multiplier_out112 = 18'sd0;  
 3'b011: multiplier_out112 = 18'sd0;  
 3'b010: multiplier_out112 = 18'sd0;  
 3'b100: multiplier_out112 = -18'sd2; 
 3'b101: multiplier_out112 = -18'sd1; 
 3'b111: multiplier_out112 = 18'sd1;  
 3'b110: multiplier_out112 = 18'sd2;  
 default: multiplier_out112 = -18'sd0; 
 endcase 
 
always @ (posedge sys_clk) 
case(x113) 
 3'b000: multiplier_out113 = 18'sd0; 
 3'b001: multiplier_out113 = 18'sd0; 
 3'b011: multiplier_out113 = 18'sd0; 
 3'b010: multiplier_out113 = 18'sd0; 
 3'b100: multiplier_out113 = 18'sd83; 
 3'b101: multiplier_out113 = 18'sd28; 
 3'b111: multiplier_out113 = -18'sd28; 
 3'b110: multiplier_out113 = -18'sd83; 
 default: multiplier_out113 = -18'sd0; 
 endcase 
 
always @ (posedge sys_clk) 
case(x114) 
 3'b000: multiplier_out114 = 18'sd0; 
 3'b001: multiplier_out114 = 18'sd0; 
 3'b011: multiplier_out114 = 18'sd0; 
 3'b010: multiplier_out114 = 18'sd0; 
 3'b100: multiplier_out114 = 18'sd107; 
 3'b101: multiplier_out114 = 18'sd36; 
 3'b111: multiplier_out114 = -18'sd36; 
 3'b110: multiplier_out114 = -18'sd107; 
 default: multiplier_out114 = -18'sd0; 
 endcase 
 
always @ (posedge sys_clk) 
case(x115) 
 3'b000: multiplier_out115 = 18'sd0; 
 3'b001: multiplier_out115 = 18'sd0; 
 3'b011: multiplier_out115 = 18'sd0; 
 3'b010: multiplier_out115 = 18'sd0; 
 3'b100: multiplier_out115 = 18'sd55; 
 3'b101: multiplier_out115 = 18'sd18; 
 3'b111: multiplier_out115 = -18'sd18; 
 3'b110: multiplier_out115 = -18'sd55; 
 default: multiplier_out115 = -18'sd0; 
 endcase 
 
always @ (posedge sys_clk) 
case(x116) 
 3'b000: multiplier_out116 = 18'sd0;  
 3'b001: multiplier_out116 = 18'sd0;  
 3'b011: multiplier_out116 = 18'sd0;  
 3'b010: multiplier_out116 = 18'sd0;  
 3'b100: multiplier_out116 = -18'sd34; 
 3'b101: multiplier_out116 = -18'sd11; 
 3'b111: multiplier_out116 = 18'sd11;  
 3'b110: multiplier_out116 = 18'sd34;  
 default: multiplier_out116 = -18'sd0; 
 endcase 
 
always @ (posedge sys_clk) 
case(x117) 
 3'b000: multiplier_out117 = 18'sd0;  
 3'b001: multiplier_out117 = 18'sd0;  
 3'b011: multiplier_out117 = 18'sd0;  
 3'b010: multiplier_out117 = 18'sd0;  
 3'b100: multiplier_out117 = -18'sd96; 
 3'b101: multiplier_out117 = -18'sd32; 
 3'b111: multiplier_out117 = 18'sd32;  
 3'b110: multiplier_out117 = 18'sd96;  
 default: multiplier_out117 = -18'sd0; 
 endcase 
 
always @ (posedge sys_clk) 
case(x118) 
 3'b000: multiplier_out118 = 18'sd0;  
 3'b001: multiplier_out118 = 18'sd0;  
 3'b011: multiplier_out118 = 18'sd0;  
 3'b010: multiplier_out118 = 18'sd0;  
 3'b100: multiplier_out118 = -18'sd90; 
 3'b101: multiplier_out118 = -18'sd30; 
 3'b111: multiplier_out118 = 18'sd30;  
 3'b110: multiplier_out118 = 18'sd90;  
 default: multiplier_out118 = -18'sd0; 
 endcase 
 
always @ (posedge sys_clk) 
case(x119) 
 3'b000: multiplier_out119 = 18'sd0;  
 3'b001: multiplier_out119 = 18'sd0;  
 3'b011: multiplier_out119 = 18'sd0;  
 3'b010: multiplier_out119 = 18'sd0;  
 3'b100: multiplier_out119 = -18'sd23; 
 3'b101: multiplier_out119 = -18'sd8; 
 3'b111: multiplier_out119 = 18'sd8;  
 3'b110: multiplier_out119 = 18'sd23;  
 default: multiplier_out119 = -18'sd0; 
 endcase 
 
always @ (posedge sys_clk) 
case(x120) 
 3'b000: multiplier_out120 = 18'sd0; 
 3'b001: multiplier_out120 = 18'sd0; 
 3'b011: multiplier_out120 = 18'sd0; 
 3'b010: multiplier_out120 = 18'sd0; 
 3'b100: multiplier_out120 = 18'sd56; 
 3'b101: multiplier_out120 = 18'sd19; 
 3'b111: multiplier_out120 = -18'sd19; 
 3'b110: multiplier_out120 = -18'sd56; 
 default: multiplier_out120 = -18'sd0; 
 endcase 
 
always @ (posedge sys_clk) 
case(x121) 
 3'b000: multiplier_out121 = 18'sd0; 
 3'b001: multiplier_out121 = 18'sd0; 
 3'b011: multiplier_out121 = 18'sd0; 
 3'b010: multiplier_out121 = 18'sd0; 
 3'b100: multiplier_out121 = 18'sd93; 
 3'b101: multiplier_out121 = 18'sd31; 
 3'b111: multiplier_out121 = -18'sd31; 
 3'b110: multiplier_out121 = -18'sd93; 
 default: multiplier_out121 = -18'sd0; 
 endcase 
 
always @ (posedge sys_clk) 
case(x122) 
 3'b000: multiplier_out122 = 18'sd0; 
 3'b001: multiplier_out122 = 18'sd0; 
 3'b011: multiplier_out122 = 18'sd0; 
 3'b010: multiplier_out122 = 18'sd0; 
 3'b100: multiplier_out122 = 18'sd65; 
 3'b101: multiplier_out122 = 18'sd22; 
 3'b111: multiplier_out122 = -18'sd22; 
 3'b110: multiplier_out122 = -18'sd65; 
 default: multiplier_out122 = -18'sd0; 
 endcase 
 
always @ (posedge sys_clk) 
case(x123) 
 3'b000: multiplier_out123 = 18'sd0;  
 3'b001: multiplier_out123 = 18'sd0;  
 3'b011: multiplier_out123 = 18'sd0;  
 3'b010: multiplier_out123 = 18'sd0;  
 3'b100: multiplier_out123 = -18'sd4; 
 3'b101: multiplier_out123 = -18'sd1; 
 3'b111: multiplier_out123 = 18'sd1;  
 3'b110: multiplier_out123 = 18'sd4;  
 default: multiplier_out123 = -18'sd0; 
 endcase 
 
always @ (posedge sys_clk) 
case(x124) 
 3'b000: multiplier_out124 = 18'sd0;  
 3'b001: multiplier_out124 = 18'sd0;  
 3'b011: multiplier_out124 = 18'sd0;  
 3'b010: multiplier_out124 = 18'sd0;  
 3'b100: multiplier_out124 = -18'sd66; 
 3'b101: multiplier_out124 = -18'sd22; 
 3'b111: multiplier_out124 = 18'sd22;  
 3'b110: multiplier_out124 = 18'sd66;  
 default: multiplier_out124 = -18'sd0; 
 endcase 
 
always @ (posedge sys_clk) 
case(x125) 
 3'b000: multiplier_out125 = 18'sd0;  
 3'b001: multiplier_out125 = 18'sd0;  
 3'b011: multiplier_out125 = 18'sd0;  
 3'b010: multiplier_out125 = 18'sd0;  
 3'b100: multiplier_out125 = -18'sd79; 
 3'b101: multiplier_out125 = -18'sd26; 
 3'b111: multiplier_out125 = 18'sd26;  
 3'b110: multiplier_out125 = 18'sd79;  
 default: multiplier_out125 = -18'sd0; 
 endcase 
 
always @ (posedge sys_clk) 
case(x126) 
 3'b000: multiplier_out126 = 18'sd0;  
 3'b001: multiplier_out126 = 18'sd0;  
 3'b011: multiplier_out126 = 18'sd0;  
 3'b010: multiplier_out126 = 18'sd0;  
 3'b100: multiplier_out126 = -18'sd38; 
 3'b101: multiplier_out126 = -18'sd13; 
 3'b111: multiplier_out126 = 18'sd13;  
 3'b110: multiplier_out126 = 18'sd38;  
 default: multiplier_out126 = -18'sd0; 
 endcase 
 
always @ (posedge sys_clk) 
case(x127) 
 3'b000: multiplier_out127 = 18'sd0; 
 3'b001: multiplier_out127 = 18'sd0; 
 3'b011: multiplier_out127 = 18'sd0; 
 3'b010: multiplier_out127 = 18'sd0; 
 3'b100: multiplier_out127 = 18'sd25; 
 3'b101: multiplier_out127 = 18'sd8; 
 3'b111: multiplier_out127 = -18'sd8; 
 3'b110: multiplier_out127 = -18'sd25; 
 default: multiplier_out127 = -18'sd0; 
 endcase 
 
always @ (posedge sys_clk) 
case(x128) 
 3'b000: multiplier_out128 = 18'sd0; 
 3'b001: multiplier_out128 = 18'sd0; 
 3'b011: multiplier_out128 = 18'sd0; 
 3'b010: multiplier_out128 = 18'sd0; 
 3'b100: multiplier_out128 = 18'sd65; 
 3'b101: multiplier_out128 = 18'sd22; 
 3'b111: multiplier_out128 = -18'sd22; 
 3'b110: multiplier_out128 = -18'sd65; 
 default: multiplier_out128 = -18'sd0; 
 endcase 
 
