# Copyright (C) 1991-2013 Altera Corporation
# Your use of Altera Corporation's design tools, logic functions 
# and other software and tools, and its AMPP partner logic 
# functions, and any output files from any of the foregoing 
# (including device programming or simulation files), and any 
# associated documentation or information are expressly subject 
# to the terms and conditions of the Altera Program License 
# Subscription Agreement, Altera MegaCore Function License 
# Agreement, or other applicable license agreement, including, 
# without limitation, that your use is for the sole purpose of 
# programming logic devices manufactured by Altera and sold by 
# Altera or its authorized distributors.  Please refer to the 
# applicable agreement for further details.

# Quartus II 64-Bit Version 13.0.1 Build 232 06/12/2013 Service Pack 1 SJ Full Version
# File: H:\Labs\Experimental\EE456\test.csv
# Generated on: Fri Jul 25 15:47:54 2014

# Note: The column header names should not be changed if you wish to import this .csv file into the Quartus II software.

To,Direction,Location,I/O Bank,VREF Group,Fitter Location,I/O Standard,Reserved,Current Strength,Slew Rate,Differential Pair
AUD_ADCDAT,Input,PIN_D2,1,B1_N0,PIN_D2,3.3-V LVTTL,,,,
AUD_ADCLRCK,Bidir,PIN_C2,1,B1_N0,PIN_C2,3.3-V LVTTL,,,,
AUD_BCLK,Bidir,PIN_F2,1,B1_N1,PIN_F2,3.3-V LVTTL,,,,
AUD_DACDAT,Output,PIN_D1,1,B1_N0,PIN_D1,3.3-V LVTTL,,,,
AUD_DACLRCK,Bidir,PIN_E3,1,B1_N0,PIN_E3,3.3-V LVTTL,,,,
AUD_XCK,Output,PIN_E1,1,B1_N0,PIN_E1,3.3-V LVTTL,,,,
I2C_SCLK,Output,PIN_B7,8,B8_N1,PIN_B7,3.3-V LVTTL,,,,
I2C_SDAT,Bidir,PIN_A8,8,B8_N1,PIN_A8,3.3-V LVTTL,,,,
OSC_SMA_ADC4,Unknown,PIN_J27,6,B6_N2,,,,,,
SMA_DAC4,Unknown,PIN_J28,6,B6_N2,,,,,,